autonomy_state = {
	id = AUTONOMY_Dominion
	min_freedom_level = 0.8
	rule = {
		can_not_declare_war = yes
		can_decline_call_to_war = no
	}
	modifier = {
		autonomy_manpower_share = 0
		extra_trade_to_overlord_factor = 0.25
		overlord_trade_cost_factor = -0.25
	}
	ai_subject_wants_higher = {
		factor = 0
	}
	ai_overlord_wants_lower = {
		factor = 1
	}
	ai_overlord_wants_garrison = {
		always = no
	}
	allowed = {
		### The Overlord is the United Kingdom/British Empire
		OVERLORD = {
			original_tag = ENG
			NOT = {
				has_government = communist
			}
		}
	}
	can_take_level = {
	}
	can_lose_level = {
		if = {
			limit = {
			}
		}
	}
}
