formable_nations_category = {
	form_transcaucasia = {
		icon = generic_form_nation
		fire_only_once = yes
		available = {
			owns_state = 229
			owns_state = 231
			owns_state = 230
			if = {
				limit = {
					NOT = {
						original_tag = GEO
					}
				}
				NOT = {
					country_exists = GEO
				}
			}
			if = {
				limit = {
					NOT = {
						original_tag = ARM
					}
				}
				NOT = {
					country_exists = ARM
				}
			}
			if = {
				limit = {
					NOT = {
						original_tag = AZR
					}
				}
				NOT = {
					country_exists = AZR
				}
			}
			if = {
				limit = {
					NOT = {
						original_tag = ABK
					}
				}
				NOT = {
					country_exists = ABK
				}
			}
			if = {
				limit = {
					NOT = {
						original_tag = ADJ
					}
				}
				NOT = {
					country_exists = ADJ
				}
			}
			if = {
				limit = {
					NOT = {
						original_tag = NGK
					}
				}
				NOT = {
					country_exists = NGK
				}
			}
		}
		visible = {
			OR = {
				original_tag = GEO
				original_tag = ARM
				original_tag = AZR
				original_tag = ABK
				original_tag = SOS
				original_tag = AZR
				original_tag = NGK
			}
			NOT = {
				has_cosmetic_tag = TRANSCAUCASIA
			}
		}
		complete_effect = {
			set_cosmetic_tag = TRANSCAUCASIA
			every_state = {
				limit = {
					region = 134
				}
				add_core_of = ROOT
			}
		}
		ai_will_do = {
			factor = 100
		}
	}
	form_scandinavia = {
		icon = generic_form_nation
		fire_only_once = yes
		available = {
			owns_state = 141
			owns_state = 37
			owns_state = 110
			if = {
				limit = {
					NOT = {
						original_tag = SWE
					}
				}
				NOT = {
					country_exists = SWE
				}
			}
			if = {
				limit = {
					NOT = {
						original_tag = DEN
					}
				}
				NOT = {
					country_exists = DEN
				}
			}
			if = {
				limit = {
					NOT = {
						original_tag = NOR
					}
				}
				NOT = {
					country_exists = NOR
				}
			}
			if = {
				limit = {
					NOT = {
						original_tag = SCA
					}
				}
				NOT = {
					country_exists = SCA
				}
			}
		}
		visible = {
			OR = {
				original_tag = SWE
				original_tag = DEN
				original_tag = NOR
				original_tag = SCA
			}
			NOT = {
				has_cosmetic_tag = SCANDINAVIA
			}
		}
		complete_effect = {
			set_cosmetic_tag = SCANDINAVIA
			every_state = {
				limit = {
					OR = {
						is_core_of = SWE
						is_core_of = DEN
						is_core_of = NOR
						is_core_of = SCA
					}
				}
				add_core_of = ROOT
			}
		}
		ai_will_do = {
			factor = 100
		}
	}
	form_the_united_baltic_nations = {
		icon = generic_form_nation
		fire_only_once = yes
		available = {
			owns_state = 12
			owns_state = 13
			OR = {
				owns_state = 11
				owns_state = 805
			}
			if = {
				limit = {
					NOT = {
						original_tag = EST
					}
				}
				NOT = {
					country_exists = EST
				}
			}
			if = {
				limit = {
					NOT = {
						original_tag = LAT
					}
				}
				NOT = {
					country_exists = LAT
				}
			}
			if = {
				limit = {
					NOT = {
						original_tag = LIT
					}
				}
				NOT = {
					country_exists = LIT
				}
			}
		}
		visible = {
			OR = {
				original_tag = EST
				original_tag = LAT
				original_tag = LIT
			}
			NOT = {
				has_cosmetic_tag = BALTIC
			}
		}
		complete_effect = {
			set_cosmetic_tag = BALTIC
			every_state = {
				limit = {
					OR = {
						is_core_of = EST
						is_core_of = LAT
						is_core_of = LIT
					}
				}
				add_core_of = ROOT
			}
		}
		ai_will_do = {
			factor = 100
		}
	}
	reform_yugoslavia = {
		icon = generic_form_nation
		fire_only_once = yes
		available = {
			owns_state = 107
			owns_state = 104
			owns_state = 109
			owns_state = 106
			owns_state = 765
			owns_state = 105
			if = {
				limit = {
					NOT = {
						original_tag = SER
					}
				}
				NOT = {
					country_exists = SER
				}
			}
			if = {
				limit = {
					NOT = {
						original_tag = CRO
					}
				}
				NOT = {
					country_exists = CRO
				}
			}
			if = {
				limit = {
					NOT = {
						original_tag = MAC
					}
				}
				NOT = {
					country_exists = MAC
				}
			}
			if = {
				limit = {
					NOT = {
						original_tag = BOS
					}
				}
				NOT = {
					country_exists = BOS
				}
			}
			if = {
				limit = {
					NOT = {
						original_tag = MNT
					}
				}
				NOT = {
					country_exists = MNT
				}
			}
			if = {
				limit = {
					NOT = {
						original_tag = SLV
					}
				}
				NOT = {
					country_exists = SLV
				}
			}
			if = {
				limit = {
					NOT = {
						original_tag = KOS
					}
				}
				NOT = {
					country_exists = KOS
				}
			}
		}
		visible = {
			OR = {
				original_tag = SER
				original_tag = CRO
				original_tag = MAC
				original_tag = BOS
				original_tag = MNT
				original_tag = SLV
				original_tag = KOS
			}
			NOT = {
				has_cosmetic_tag = YUG
				country_exists = YUG
			}
		}
		complete_effect = {
			set_cosmetic_tag = YUG
			every_state = {
				limit = {
					OR = {
						is_core_of = YUG
						is_core_of = SER
						is_core_of = CRO
						is_core_of = MAC
						is_core_of = BOS
						is_core_of = MNT
						is_core_of = SLV
						is_core_of = KOS
					}
				}
				add_core_of = ROOT
				remove_core_of = YUG
			}
		}
		ai_will_do = {
			factor = 100
		}
	}
	reform_czechoslovakia = {
		icon = generic_form_nation
		fire_only_once = yes
		available = {
			owns_state = 9
			owns_state = 70
			if = {
				limit = {
					NOT = {
						original_tag = CZE
					}
				}
				NOT = {
					country_exists = CZE
				}
			}
			if = {
				limit = {
					NOT = {
						original_tag = SLO
					}
				}
				NOT = {
					country_exists = SLO
				}
			}
		}
		visible = {
			OR = {
				original_tag = CZE
				original_tag = SLO
			}
			NOT = {
				any_country = {
					exists = yes
					has_cosmetic_tag = CZECHOSLOVAKIA
				}
			}
		}
		complete_effect = {
			set_cosmetic_tag = CZECHOSLOVAKIA
			every_state = {
				limit = {
					OR = {
						region = 22
						region = 222
					}
				}
				add_core_of = ROOT
			}
			every_state = {
				limit = {
					OR = {
						is_core_of = SLO
						region = 22
					}
					NOT = {
						region = 22
					}
				}
				remove_core_of = CZE
			}
			every_other_country = {
				limit = {
					has_cosmetic_tag = CZECHOSLOVAKIA
				}
				drop_cosmetic_tag = yes
			}
		}
		ai_will_do = {
			factor = 100
		}
	}
	form_the_greater_german_reich = {
		icon = generic_form_nation
		fire_only_once = yes
		cost = 250
		available = {
			NOT = {
				country_exists = AUS
			}
			has_full_control_of_state = 4
			has_full_control_of_state = 152
			has_full_control_of_state = 774
			has_full_control_of_state = 153
			has_full_control_of_state = 977
			has_full_control_of_state = 1416
			has_full_control_of_state = 974
			has_full_control_of_state = 28
			has_full_control_of_state = 1169
			has_full_control_of_state = 802
			has_full_control_of_state = 69
			has_full_control_of_state = 1105
			has_full_control_of_state = 74
			has_full_control_of_state = 188
			has_full_control_of_state = 806
			has_full_control_of_state = 85
			surrender_progress < 0.01
		}
		visible = {
			original_tag = GER
			has_government = fascist
			NOT = {
				has_cosmetic_tag = GER_GREATER_REICH
			}
			NOT = {
				has_cosmetic_tag = GER_GREATER_GERMANIC_REICH
			}
		}
		complete_effect = {
			set_cosmetic_tag = GER_GREATER_REICH
		}
		ai_will_do = {
			factor = 100
		}
	}
	form_the_peru_bolivian_confederation = {
		icon = generic_form_nation
		fire_only_once = yes
		available = {
			owns_state = 302
			owns_state = 303
			if = {
				limit = {
					NOT = {
						original_tag = PRU
					}
				}
				NOT = {
					country_exists = PRU
				}
			}
			if = {
				limit = {
					NOT = {
						original_tag = BOL
					}
				}
				NOT = {
					country_exists = BOL
				}
			}
		}
		visible = {
			OR = {
				original_tag = PRU
				original_tag = BOL
			}
			NOT = {
				has_cosmetic_tag = PRUBOL
			}
		}
		complete_effect = {
			set_cosmetic_tag = PRUBOL
			every_state = {
				limit = {
					OR = {
						is_core_of = PRU
						is_core_of = BOL
					}
				}
				add_core_of = ROOT
			}
		}
		ai_will_do = {
			factor = 100
		}
	}
	form_the_celtic_union = {
		icon = generic_form_nation
		fire_only_once = yes
		available = {
			owns_state = 113
			owns_state = 121
			owns_state = 338
			owns_state = 122
			owns_state = 1630
			owns_state = 14
			if = {
				limit = {
					NOT = {
						original_tag = IRE
					}
				}
				NOT = {
					country_exists = IRE
				}
			}
			if = {
				limit = {
					NOT = {
						original_tag = SCO
					}
				}
				NOT = {
					country_exists = SCO
				}
			}
			if = {
				limit = {
					NOT = {
						original_tag = WAL
					}
				}
				NOT = {
					country_exists = WAL
				}
			}
			if = {
				limit = {
					NOT = {
						original_tag = CRN
					}
				}
				NOT = {
					country_exists = CRN
				}
			}
			if = {
				limit = {
					NOT = {
						original_tag = MNN
					}
				}
				NOT = {
					country_exists = MNN
				}
			}
			if = {
				limit = {
					NOT = {
						original_tag = BRT
					}
				}
				NOT = {
					country_exists = BRT
				}
			}
		}
		visible = {
			OR = {
				original_tag = IRE
				original_tag = SCO
				original_tag = MNN
				original_tag = CRN
				original_tag = WAL
				original_tag = BRT
			}
			NOT = {
				has_cosmetic_tag = CELTIC
			}
		}
		complete_effect = {
			set_cosmetic_tag = CELTIC
			every_state = {
				limit = {
					OR = {
						is_core_of = IRE
						is_core_of = SCO
						is_core_of = MNN
						is_core_of = CRN
						is_core_of = WAL
						is_core_of = BRT
					}
				}
				add_core_of = ROOT
			}
		}
		ai_will_do = {
			factor = 100
		}
	}
	form_catalonia = {
		icon = generic_form_nation
		fire_only_once = yes
		available = {
			owns_state = 165
			NOT = {
				country_exists = CAT
			}
		}
		visible = {
			original_tag = AND
			NOT = {
				has_cosmetic_tag = CAT
			}
		}
		complete_effect = {
			set_cosmetic_tag = CAT
			set_capital = 165
			every_state = {
				limit = {
					is_core_of = CAT
				}
				add_core_of = ROOT
				remove_core_of = CAT
			}
		}
		ai_will_do = {
			factor = 100
		}
	}
	form_swabia = {
		icon = generic_form_nation
		fire_only_once = yes
		available = {
			owns_state = 50
			owns_state = 961
			if = {
				limit = {
					NOT = {
						original_tag = BAD
					}
				}
				NOT = {
					country_exists = BAD
				}
			}
			if = {
				limit = {
					NOT = {
						original_tag = WUR
					}
				}
				NOT = {
					country_exists = WUR
				}
			}
		}
		visible = {
			OR = {
				original_tag = BAD
				original_tag = WUR
			}
			NOT = {
				has_cosmetic_tag = SWABIA
			}
		}
		complete_effect = {
			set_cosmetic_tag = SWABIA
			set_capital = 50
			every_state = {
				limit = {
					OR = {
						is_core_of = BAD
						is_core_of = WUR
					}
				}
				add_core_of = ROOT
			}
		}
		ai_will_do = {
			factor = 100
		}
	}
}
