ideas = {
	#################################################
	### Head of Government
	#################################################
	Head_of_Government = {
		ASY_D_Shimun_Eshai_XXIII = {
			picture = D_Shimun_Eshai_XXIII
			allowed = {
				tag = ASY
			}
			available = {
				date > 1933.1.1
				date < 1964.1.1
				A_Minister_Allowed = yes
				NOT = {
					has_country_flag = Shimun_Eshai_XXIII
				}
			}
			traits = {
				ideology_A
				POSITION_Patriarch
				SUBIDEOLOGY_Theocracy
			}
		}
	}
}
