ideas = {
	#################################################
	### Head of Government
	#################################################
	Head_of_Government = {
		# Georges Pierre Rey
		BEN_D_Georges_Pierre_Rey_2 = {
			picture = Georges_Pierre_Rey_2
			allowed = {
				tag = BEN
			}
			available = {
				date > 1933.1.1
				date < 1964.1.1
				A_Minister_Allowed = yes
				NOT = {
					has_country_flag = Georges_Pierre_Rey_unavailable
				}
			}
			traits = {
				ideology_A
				L_Political_Protege
			}
		}
		# Christophe Soglo
		BEN_D_Christophe_Soglo = {
			picture = Christophe_Soglo
			allowed = {
				tag = BEN
			}
			available = {
				date > 1966.1.1
				date < 1984.1.1
				A_Minister_Allowed = yes
				NOT = {
					has_country_flag = Christophe_Soglo_unavailable
				}
			}
			traits = {
				ideology_A
				L_Flamboyant_Tough_Guy
			}
		}
		# Iropa Maurice Kouandété
		BEN_D_Iropa_Maurice_Kouandete = {
			picture = Iropa_Maurice_Kouandete
			allowed = {
				tag = BEN
			}
			available = {
				date > 1967.1.1
				date < 2004.1.1
				A_Minister_Allowed = yes
				NOT = {
					has_country_flag = Iropa_Maurice_Kouandete_unavailable
				}
			}
			traits = {
				ideology_A
				L_Corporate_Suit
			}
		}
		# Hubert Maga
		BEN_D_Hubert_Maga_2 = {
			picture = Hubert_Maga_2
			allowed = {
				tag = BEN
			}
			available = {
				date > 1970.1.1
				date < 2020.1.1
				A_Minister_Allowed = yes
				NOT = {
					has_country_flag = Hubert_Maga_unavailable
				}
			}
			traits = {
				ideology_A
				L_Silent_Workhorse
			}
		}
		# Maurice Bourgine
		BEN_D_Maurice_Bourgine = {
			picture = Maurice_Bourgine
			allowed = {
				tag = BEN
			}
			available = {
				date > 1936.1.1
				date < 1964.1.1
				D_Minister_Allowed = yes
				NOT = {
					has_country_flag = Maurice_Bourgine_unavailable
				}
			}
			traits = {
				ideology_D
				L_Flamboyant_Tough_Guy
			}
		}
		# Ernest Gayon
		BEN_D_Ernest_Gayon = {
			picture = Ernest_Gayon
			allowed = {
				tag = BEN
			}
			available = {
				date > 1937.1.1
				date < 1964.1.1
				D_Minister_Allowed = yes
				NOT = {
					has_country_flag = Ernest_Gayon_unavailable
				}
			}
			traits = {
				ideology_D
				L_Old_Airmarshal
			}
		}
		# Armand Annet
		BEN_D_Armand_Annet = {
			picture = Armand_Annet
			allowed = {
				tag = BEN
			}
			available = {
				date > 1938.1.1
				date < 1964.1.1
				D_Minister_Allowed = yes
				NOT = {
					has_country_flag = Armand_Annet_unavailable
				}
			}
			traits = {
				ideology_D
				L_Old_Airmarshal
			}
		}
		# Leon Truitard
		BEN_D_Leon_Truitard = {
			picture = Leon_Truitard
			allowed = {
				tag = BEN
			}
			available = {
				date > 1940.1.1
				date < 1964.1.1
				D_Minister_Allowed = yes
				NOT = {
					has_country_flag = Leon_Truitard_unavailable
				}
			}
			traits = {
				ideology_D
				L_Flamboyant_Tough_Guy
			}
		}
		# Charles Assier de Pompignan
		BEN_D_Charles_Assier_de_Pompignan = {
			picture = Charles_Assier_de_Pompignan
			allowed = {
				tag = BEN
			}
			available = {
				date > 1943.1.1
				date < 1964.1.1
				D_Minister_Allowed = yes
				NOT = {
					has_country_flag = Charles_Assier_de_Pompignan_unavailable
				}
			}
			traits = {
				ideology_D
				L_Happy_Amateur
			}
		}
		# Robert Legendre
		BEN_D_Robert_Legendre = {
			picture = Robert_Legendre
			allowed = {
				tag = BEN
			}
			available = {
				date > 1946.1.1
				date < 1964.1.1
				D_Minister_Allowed = yes
				NOT = {
					has_country_flag = Robert_Legendre_unavailable
				}
			}
			traits = {
				ideology_D
				L_Corporate_Suit
			}
		}
		# Jean-Georges Chambon
		BEN_D_JeanGeorges_Chambon = {
			picture = JeanGeorges_Chambon
			allowed = {
				tag = BEN
			}
			available = {
				date > 1948.1.1
				date < 1964.1.1
				D_Minister_Allowed = yes
				NOT = {
					has_country_flag = JeanGeorges_Chambon_unavailable
				}
			}
			traits = {
				ideology_D
				L_Corporate_Suit
			}
		}
		# Claude Valluy
		BEN_D_Claude_Valluy = {
			picture = Claude_Valluy
			allowed = {
				tag = BEN
			}
			available = {
				date > 1949.1.1
				date < 1964.1.1
				D_Minister_Allowed = yes
				NOT = {
					has_country_flag = Claude_Valluy_unavailable
				}
			}
			traits = {
				ideology_D
				L_Backroom_Backstabber
			}
		}
		# Charles-Henri Bonfils
		BEN_D_CharlesHenri_Bonfils = {
			picture = CharlesHenri_Bonfils
			allowed = {
				tag = BEN
			}
			available = {
				date > 1951.1.1
				date < 1964.1.1
				D_Minister_Allowed = yes
				NOT = {
					has_country_flag = CharlesHenri_Bonfils_unavailable
				}
			}
			traits = {
				ideology_D
				L_Old_Airmarshal
			}
		}
		# Marc-Casimir Biros
		BEN_D_MarcCasimir_Biros = {
			picture = MarcCasimir_Biros
			allowed = {
				tag = BEN
			}
			available = {
				date > 1955.1.1
				date < 1964.1.1
				D_Minister_Allowed = yes
				NOT = {
					has_country_flag = MarcCasimir_Biros_unavailable
				}
			}
			traits = {
				ideology_D
				L_Old_Admiral
			}
		}
		# Justin Ahomadegbé-Tometin
		BEN_D_Justin_AhomadegbeTometin = {
			picture = Justin_AhomadegbeTometin
			allowed = {
				tag = BEN
			}
			available = {
				date > 1964.1.1
				date < 2003.1.1
				D_Minister_Allowed = yes
				NOT = {
					has_country_flag = Justin_AhomadegbeTometin_unavailable
				}
			}
			traits = {
				ideology_D
				L_Backroom_Backstabber
			}
		}
		# Émile Zinsou
		BEN_D_Emile_Zinsou = {
			picture = Emile_Zinsou
			allowed = {
				tag = BEN
			}
			available = {
				date > 1968.1.1
				date < 2020.1.1
				D_Minister_Allowed = yes
				NOT = {
					has_country_flag = Emile_Zinsou_unavailable
				}
			}
			traits = {
				ideology_D
				L_Naive_Optimist
			}
		}
		# Julien Georges Lamy
		BEN_D_Julien_Georges_Lamy = {
			picture = Julien_Georges_Lamy
			allowed = {
				tag = BEN
			}
			available = {
				date > 1933.1.1
				date < 1964.1.1
				D_Minister_Allowed = yes
				NOT = {
					has_country_flag = Julien_Georges_Lamy_unavailable
				}
			}
			traits = {
				ideology_D
				L_Backroom_Backstabber
			}
		}
		# Gaston Mondon-Vidailhet
		BEN_D_Gaston_MondonVidailhet = {
			picture = Gaston_MondonVidailhet
			allowed = {
				tag = BEN
			}
			available = {
				date > 1933.1.1
				date < 1964.1.1
				D_Minister_Allowed = yes
				NOT = {
					has_country_flag = Gaston_MondonVidailhet_unavailable
				}
			}
			traits = {
				ideology_D
				L_Corporate_Suit
			}
		}
		# Louis Bressolles
		BEN_D_Louis_Bressolles = {
			picture = Louis_Bressolles
			allowed = {
				tag = BEN
			}
			available = {
				date > 1938.1.1
				date < 1964.1.1
				D_Minister_Allowed = yes
				NOT = {
					has_country_flag = Louis_Bressolles_unavailable
				}
			}
			traits = {
				ideology_D
				L_Flamboyant_Tough_Guy
			}
		}
		# Horace Valentin Crocicchia
		BEN_D_Horace_Valentin_Crocicchia = {
			picture = Horace_Valentin_Crocicchia
			allowed = {
				tag = BEN
			}
			available = {
				date > 1938.1.1
				date < 1964.1.1
				D_Minister_Allowed = yes
				NOT = {
					has_country_flag = Horace_Valentin_Crocicchia_unavailable
				}
			}
			traits = {
				ideology_D
				L_Old_Admiral
			}
		}
		# Hubert Deschamps
		BEN_D_Hubert_Deschamps = {
			picture = Hubert_Deschamps
			allowed = {
				tag = BEN
			}
			available = {
				date > 1941.1.1
				date < 1964.1.1
				D_Minister_Allowed = yes
				NOT = {
					has_country_flag = Hubert_Deschamps_unavailable
				}
			}
			traits = {
				ideology_D
				L_Naive_Optimist
			}
		}
		# Georges Pierre Rey
		BEN_D_Georges_Pierre_Rey = {
			picture = Georges_Pierre_Rey
			allowed = {
				tag = BEN
			}
			available = {
				date > 1942.1.1
				date < 1964.1.1
				D_Minister_Allowed = yes
				NOT = {
					has_country_flag = Georges_Pierre_Rey_unavailable
				}
			}
			traits = {
				ideology_D
				L_Naive_Optimist
			}
		}
		# Andre Latrille
		BEN_D_Andre_Latrille = {
			picture = Andre_Latrille
			allowed = {
				tag = BEN
			}
			available = {
				date > 1943.1.1
				date < 1964.1.1
				D_Minister_Allowed = yes
				NOT = {
					has_country_flag = Andre_Latrille_unavailable
				}
			}
			traits = {
				ideology_D
				L_Old_General
			}
		}
		# Henry de Mauduit
		BEN_D_Henry_de_Mauduit = {
			picture = Henry_de_Mauduit
			allowed = {
				tag = BEN
			}
			available = {
				date > 1945.1.1
				date < 1964.1.1
				D_Minister_Allowed = yes
				NOT = {
					has_country_flag = Henry_de_Mauduit_unavailable
				}
			}
			traits = {
				ideology_D
				L_Ambitious_Union_Boss
			}
		}
		# Oswald Durand
		BEN_D_Oswald_Durand = {
			picture = Oswald_Durand
			allowed = {
				tag = BEN
			}
			available = {
				date > 1947.1.1
				date < 1964.1.1
				D_Minister_Allowed = yes
				NOT = {
					has_country_flag = Oswald_Durand_unavailable
				}
			}
			traits = {
				ideology_D
				L_Ambitious_Union_Boss
			}
		}
		# Rene Tirant
		BEN_D_Rene_Tirant = {
			picture = Rene_Tirant
			allowed = {
				tag = BEN
			}
			available = {
				date > 1958.1.1
				date < 1964.1.1
				D_Minister_Allowed = yes
				NOT = {
					has_country_flag = Rene_Tirant_unavailable
				}
			}
			traits = {
				ideology_D
				L_Silent_Workhorse
			}
		}
		# Sylvanus Olympio
		BEN_D_Sylvanus_Olympio = {
			picture = Sylvanus_Olympio
			allowed = {
				tag = BEN
			}
			available = {
				date > 1933.1.1
				date < 1964.1.1
				S_Minister_Allowed = yes
				NOT = {
					has_country_flag = Sylvanus_Olympio_unavailable
				}
			}
			traits = {
				ideology_S
				L_Corporate_Suit
			}
		}
		# Hubert Maga
		BEN_D_Hubert_Maga = {
			picture = Hubert_Maga
			allowed = {
				tag = BEN
			}
			available = {
				date > 1960.1.1
				date < 1964.1.1
				S_Minister_Allowed = yes
				NOT = {
					has_country_flag = Hubert_Maga_unavailable
				}
			}
			traits = {
				ideology_S
				L_Naive_Optimist
			}
		}
		# Mathieu Kérékou
		BEN_D_Mathieu_Kerekou = {
			picture = Mathieu_Kerekou
			allowed = {
				tag = BEN
			}
			available = {
				date > 1972.1.1
				date < 2020.1.1
				C_Minister_Allowed = yes
				NOT = {
					has_country_flag = Mathieu_Kerekou_unavailable
				}
			}
			traits = {
				ideology_C
				L_Backroom_Backstabber
			}
		}
	}
	#################################################
	### Foreign Minister
	#################################################
	Foreign_Minister = {
		# Oswald Durand
		BEN_FM_Oswald_Durand = {
			picture = Oswald_Durand
			allowed = {
				tag = BEN
			}
			available = {
				date > 1933.1.1
				date < 1964.1.1
				A_Minister_Allowed = yes
				NOT = {
					has_country_flag = Oswald_Durand_unavailable
				}
			}
			traits = {
				ideology_A
				FM_Iron_Fisted_Brute
			}
		}
		# Hubert Deschamps
		BEN_FM_Hubert_Deschamps = {
			picture = Hubert_Deschamps
			allowed = {
				tag = BEN
			}
			available = {
				date > 1933.1.1
				date < 1964.1.1
				D_Minister_Allowed = yes
				NOT = {
					has_country_flag = Hubert_Deschamps_unavailable
				}
			}
			traits = {
				ideology_D
				FM_Iron_Fisted_Brute
			}
		}
		# Louis Picon
		BEN_FM_Louis_Picon = {
			picture = Louis_Picon
			allowed = {
				tag = BEN
			}
			available = {
				date > 1940.1.1
				date < 1964.1.1
				D_Minister_Allowed = yes
				NOT = {
					has_country_flag = Louis_Picon_unavailable
				}
			}
			traits = {
				ideology_D
				FM_The_Cloak_N_Dagger_Schemer
			}
		}
		# Jean Noutary
		BEN_FM_Jean_Noutary = {
			picture = Jean_Noutary
			allowed = {
				tag = BEN
			}
			available = {
				date > 1943.1.1
				date < 1964.1.1
				D_Minister_Allowed = yes
				NOT = {
					has_country_flag = Jean_Noutary_unavailable
				}
			}
			traits = {
				ideology_D
				FM_Great_Compromiser
			}
		}
		# Edme-Henri Gallois
		BEN_FM_EdmeHenri_Gallois = {
			picture = EdmeHenri_Gallois
			allowed = {
				tag = BEN
			}
			available = {
				date > 1945.1.1
				date < 1964.1.1
				D_Minister_Allowed = yes
				NOT = {
					has_country_flag = EdmeHenri_Gallois_unavailable
				}
			}
			traits = {
				ideology_D
				FM_Apologetic_Clerk
			}
		}
		# Nicolas Grunitzky
		BEN_FM_Nicolas_Grunitzky = {
			picture = Nicolas_Grunitzky
			allowed = {
				tag = BEN
			}
			available = {
				date > 1933.1.1
				date < 1964.1.1
				S_Minister_Allowed = yes
				NOT = {
					has_country_flag = Nicolas_Grunitzky_unavailable
				}
			}
			traits = {
				ideology_S
				FM_Biased_Intellectual
			}
		}
		# Souro Migan Apithy
		BEN_FM_Souro_Migan_Apithy = {
			picture = Souro_Migan_Apithy
			allowed = {
				tag = BEN
			}
			available = {
				date > 1942.1.1
				date < 1964.1.1
				S_Minister_Allowed = yes
				NOT = {
					has_country_flag = Souro_Migan_Apithy_unavailable
				}
			}
			traits = {
				ideology_S
				FM_Ideological_Crusader
			}
		}
		# Souro Migan Apithy
		BEN_FM_Souro_Migan_Apithy_2 = {
			picture = Souro_Migan_Apithy_2
			allowed = {
				tag = BEN
			}
			available = {
				date > 1942.1.1
				date < 1964.1.1
				S_Minister_Allowed = yes
				NOT = {
					has_country_flag = Souro_Migan_Apithy_unavailable
				}
			}
			traits = {
				ideology_S
				FM_Ideological_Crusader
			}
		}
		# Mathieu Kerekou
		BEN_FM_Mathieu_Kerekou = {
			picture = Mathieu_Kerekou
			allowed = {
				tag = BEN
			}
			available = {
				date > 1950.1.1
				date < 1964.1.1
				S_Minister_Allowed = yes
				NOT = {
					has_country_flag = Mathieu_Kerekou_unavailable
				}
			}
			traits = {
				ideology_S
				FM_Iron_Fisted_Brute
			}
		}
		# Mathieu Kérékou
		BEN_FM_Mathieu_Kerekou_2 = {
			picture = Mathieu_Kerekou_2
			allowed = {
				tag = BEN
			}
			available = {
				date > 1980.1.1
				date < 2020.1.1
				C_Minister_Allowed = yes
				NOT = {
					has_country_flag = Mathieu_Kerekou_unavailable
				}
			}
			traits = {
				ideology_C
				FM_Iron_Fisted_Brute
			}
		}
	}
	#################################################
	### Minister of Security
	#################################################
	Minister_of_Security = {
		# Albert Doti
		BEN_MoS_Albert_Doti = {
			picture = Albert_Doti
			allowed = {
				tag = BEN
			}
			available = {
				date > 1933.1.1
				date < 1964.1.1
				A_Minister_Allowed = yes
				NOT = {
					has_country_flag = Albert_Doti_unavailable
				}
			}
			traits = {
				ideology_A
				MoS_Back_Stabber
			}
		}
		# Louis Bressolles
		BEN_MoS_Louis_Bressolles = {
			picture = Louis_Bressolles
			allowed = {
				tag = BEN
			}
			available = {
				date > 1933.1.1
				date < 1964.1.1
				D_Minister_Allowed = yes
				NOT = {
					has_country_flag = Louis_Bressolles_unavailable
				}
			}
			traits = {
				ideology_D
				MoS_Crime_Fighter
			}
		}
		# Francis Marie Aupiais
		BEN_MoS_Francis_Marie_Aupiais = {
			picture = Francis_Marie_Aupiais
			allowed = {
				tag = BEN
			}
			available = {
				date > 1936.1.1
				date < 1964.1.1
				D_Minister_Allowed = yes
				NOT = {
					has_country_flag = Francis_Marie_Aupiais_unavailable
				}
			}
			traits = {
				ideology_D
				MoS_Back_Stabber
			}
		}
		# Paul Milleliri
		BEN_MoS_Paul_Milleliri = {
			picture = Paul_Milleliri
			allowed = {
				tag = BEN
			}
			available = {
				date > 1941.1.1
				date < 1964.1.1
				D_Minister_Allowed = yes
				NOT = {
					has_country_flag = Paul_Milleliri_unavailable
				}
			}
			traits = {
				ideology_D
				MoS_Back_Stabber
			}
		}
		# Henry de Mauduit
		BEN_MoS_Henry_de_Mauduit = {
			picture = Henry_de_Mauduit
			allowed = {
				tag = BEN
			}
			available = {
				date > 1943.1.1
				date < 1964.1.1
				D_Minister_Allowed = yes
				NOT = {
					has_country_flag = Henry_de_Mauduit_unavailable
				}
			}
			traits = {
				ideology_D
				MoS_Man_Of_The_People
			}
		}
		# André Lavergne
		BEN_MoS_Andre_Lavergne = {
			picture = Andre_Lavergne
			allowed = {
				tag = BEN
			}
			available = {
				date > 1945.1.1
				date < 1964.1.1
				D_Minister_Allowed = yes
				NOT = {
					has_country_flag = Andre_Lavergne_unavailable
				}
			}
			traits = {
				ideology_D
				MoS_Prince_Of_Terror
			}
		}
		# Maurice Yameogo
		BEN_MoS_Maurice_Yameogo = {
			picture = Maurice_Yameogo
			allowed = {
				tag = BEN
			}
			available = {
				date > 1933.1.1
				date < 1964.1.1
				S_Minister_Allowed = yes
				NOT = {
					has_country_flag = Maurice_Yameogo_unavailable
				}
			}
			traits = {
				ideology_S
				MoS_Crime_Fighter
			}
		}
		# Justin Ahomadegbe-Tometin
		BEN_MoS_Justin_AhomadegbeTometin = {
			picture = Justin_AhomadegbeTometin
			allowed = {
				tag = BEN
			}
			available = {
				date > 1936.1.1
				date < 1964.1.1
				S_Minister_Allowed = yes
				NOT = {
					has_country_flag = Justin_AhomadegbeTometin_unavailable
				}
			}
			traits = {
				ideology_S
				MoS_Crime_Fighter
			}
		}
		# Emile Zinsou
		BEN_MoS_Emile_Zinsou = {
			picture = Emile_Zinsou
			allowed = {
				tag = BEN
			}
			available = {
				date > 1950.1.1
				date < 1964.1.1
				S_Minister_Allowed = yes
				NOT = {
					has_country_flag = Emile_Zinsou_unavailable
				}
			}
			traits = {
				ideology_S
				MoS_Prince_Of_Terror
			}
		}
		# Mathieu Kérékou
		BEN_MoS_Mathieu_Kerekou = {
			picture = Mathieu_Kerekou
			allowed = {
				tag = BEN
			}
			available = {
				date > 1980.1.1
				date < 2020.1.1
				C_Minister_Allowed = yes
				NOT = {
					has_country_flag = Mathieu_Kerekou_unavailable
				}
			}
			traits = {
				ideology_C
				MoS_Crime_Fighter
			}
		}
	}
	#################################################
	### Armaments Minister
	#################################################
	Armaments_Minister = {
		# Charles Guéritault
		BEN_AM_Charles_Gueritault = {
			picture = Charles_Gueritault
			allowed = {
				tag = BEN
			}
			available = {
				date > 1933.1.1
				date < 1964.1.1
				A_Minister_Allowed = yes
				NOT = {
					has_country_flag = Charles_Gueritault_unavailable
				}
			}
			traits = {
				ideology_A
				AM_Air_To_Ground_Proponent
			}
		}
		# Horace Valentin Crocicchia
		BEN_AM_Horace_Valentin_Crocicchia = {
			picture = Horace_Valentin_Crocicchia
			allowed = {
				tag = BEN
			}
			available = {
				date > 1933.1.1
				date < 1964.1.1
				D_Minister_Allowed = yes
				NOT = {
					has_country_flag = Horace_Valentin_Crocicchia_unavailable
				}
			}
			traits = {
				ideology_D
				AM_Battle_Fleet_Proponent
			}
		}
		# Georges Pierre Rey
		BEN_AM_Georges_Pierre_Rey = {
			picture = Georges_Pierre_Rey
			allowed = {
				tag = BEN
			}
			available = {
				date > 1939.1.1
				date < 1964.1.1
				D_Minister_Allowed = yes
				NOT = {
					has_country_flag = Georges_Pierre_Rey_unavailable
				}
			}
			traits = {
				ideology_D
				AM_Submarine_Proponent
			}
		}
		# Epiphanio Olympio
		BEN_AM_Epiphanio_Olympio = {
			picture = Epiphanio_Olympio
			allowed = {
				tag = BEN
			}
			available = {
				date > 1941.1.1
				date < 1964.1.1
				D_Minister_Allowed = yes
				NOT = {
					has_country_flag = Epiphanio_Olympio_unavailable
				}
			}
			traits = {
				ideology_D
				AM_Military_Entrepreneur
			}
		}
		# Raymond Echanne
		BEN_AM_Raymond_Echanne = {
			picture = Raymond_Echanne
			allowed = {
				tag = BEN
			}
			available = {
				date > 1943.1.1
				date < 1964.1.1
				D_Minister_Allowed = yes
				NOT = {
					has_country_flag = Raymond_Echanne_unavailable
				}
			}
			traits = {
				ideology_D
				AM_Laissez-faire_Capitalist
			}
		}
		# Hubert Maga
		BEN_AM_Hubert_Maga = {
			picture = Hubert_Maga
			allowed = {
				tag = BEN
			}
			available = {
				date > 1933.1.1
				date < 1964.1.1
				S_Minister_Allowed = yes
				NOT = {
					has_country_flag = Hubert_Maga_unavailable
				}
			}
			traits = {
				ideology_S
				AM_Battle_Fleet_Proponent
			}
		}
		# Hubert Maga
		BEN_AM_Hubert_Maga_2 = {
			picture = Hubert_Maga_2
			allowed = {
				tag = BEN
			}
			available = {
				date > 1936.1.1
				date < 1964.1.1
				S_Minister_Allowed = yes
				NOT = {
					has_country_flag = Hubert_Maga_unavailable
				}
			}
			traits = {
				ideology_S
				AM_Battle_Fleet_Proponent
			}
		}
		# Pierre Azenard
		BEN_AM_Pierre_Azenard = {
			picture = Pierre_Azenard
			allowed = {
				tag = BEN
			}
			available = {
				date > 1941.1.1
				date < 1964.1.1
				S_Minister_Allowed = yes
				NOT = {
					has_country_flag = Pierre_Azenard_unavailable
				}
			}
			traits = {
				ideology_S
				AM_Air_Superiority_Proponent
			}
		}
		# Christophe Bokhiri
		BEN_AM_Christophe_Bokhiri = {
			picture = Christophe_Bokhiri
			allowed = {
				tag = BEN
			}
			available = {
				date > 1950.1.1
				date < 1964.1.1
				S_Minister_Allowed = yes
				NOT = {
					has_country_flag = Christophe_Bokhiri_unavailable
				}
			}
			traits = {
				ideology_S
				AM_Battle_Fleet_Proponent
			}
		}
		# Basile Adjou Moumoni
		BEN_AM_Basile_Adjou_Moumoni = {
			picture = Basile_Adjou_Moumoni
			allowed = {
				tag = BEN
			}
			available = {
				date > 1950.1.1
				date < 1964.1.1
				S_Minister_Allowed = yes
				NOT = {
					has_country_flag = Basile_Adjou_Moumoni_unavailable
				}
			}
			traits = {
				ideology_S
				AM_Air_Superiority_Proponent
			}
		}
		# Mathieu Kérékou
		BEN_AM_Mathieu_Kerekou = {
			picture = Mathieu_Kerekou
			allowed = {
				tag = BEN
			}
			available = {
				date > 1980.1.1
				date < 2020.1.1
				C_Minister_Allowed = yes
				NOT = {
					has_country_flag = Mathieu_Kerekou_unavailable
				}
			}
			traits = {
				ideology_C
				AM_Battle_Fleet_Proponent
			}
		}
	}
	#################################################
	### Head of Intelligence
	#################################################
	Head_of_Intelligence = {
		# Robert Joany
		BEN_HoI_Robert_Joany = {
			picture = Robert_Joany
			allowed = {
				tag = BEN
			}
			available = {
				date > 1933.1.1
				date < 1964.1.1
				A_Minister_Allowed = yes
				NOT = {
					has_country_flag = Robert_Joany_unavailable
				}
			}
			traits = {
				ideology_A
				HoI_Naval_Intelligence_Specialist
			}
		}
		# Albert Mercadier
		BEN_HoI_Albert_Mercadier = {
			picture = Albert_Mercadier
			allowed = {
				tag = BEN
			}
			available = {
				date > 1933.1.1
				date < 1964.1.1
				D_Minister_Allowed = yes
				NOT = {
					has_country_flag = Albert_Mercadier_unavailable
				}
			}
			traits = {
				ideology_D
				HoI_Technical_Specialist
			}
		}
		# Jacques Bertho
		BEN_HoI_Jacques_Bertho = {
			picture = Jacques_Bertho
			allowed = {
				tag = BEN
			}
			available = {
				date > 1936.1.1
				date < 1964.1.1
				D_Minister_Allowed = yes
				NOT = {
					has_country_flag = Jacques_Bertho_unavailable
				}
			}
			traits = {
				ideology_D
				HoI_Dismal_Enigma
			}
		}
		# Charles Guéritault
		BEN_HoI_Charles_Gueritault = {
			picture = Charles_Gueritault
			allowed = {
				tag = BEN
			}
			available = {
				date > 1940.1.1
				date < 1964.1.1
				D_Minister_Allowed = yes
				NOT = {
					has_country_flag = Charles_Gueritault_unavailable
				}
			}
			traits = {
				ideology_D
				HoI_Dismal_Enigma
			}
		}
		# Oswald Durand
		BEN_HoI_Oswald_Durand = {
			picture = Oswald_Durand
			allowed = {
				tag = BEN
			}
			available = {
				date > 1944.1.1
				date < 1964.1.1
				D_Minister_Allowed = yes
				NOT = {
					has_country_flag = Oswald_Durand_unavailable
				}
			}
			traits = {
				ideology_D
				HoI_Political_Specialist
			}
		}
		# Hamani Diori
		BEN_HoI_Hamani_Diori = {
			picture = Hamani_Diori
			allowed = {
				tag = BEN
			}
			available = {
				date > 1933.1.1
				date < 1964.1.1
				S_Minister_Allowed = yes
				NOT = {
					has_country_flag = Hamani_Diori_unavailable
				}
			}
			traits = {
				ideology_S
				HoI_Naval_Intelligence_Specialist
			}
		}
		# Babacar Ba
		BEN_HoI_Babacar_Ba = {
			picture = Babacar_Ba
			allowed = {
				tag = BEN
			}
			available = {
				date > 1943.1.1
				date < 1964.1.1
				S_Minister_Allowed = yes
				NOT = {
					has_country_flag = Babacar_Ba_unavailable
				}
			}
			traits = {
				ideology_S
				HoI_Industrial_Specialist
			}
		}
		# David Dessou
		BEN_HoI_David_Dessou = {
			picture = David_Dessou
			allowed = {
				tag = BEN
			}
			available = {
				date > 1950.1.1
				date < 1964.1.1
				S_Minister_Allowed = yes
				NOT = {
					has_country_flag = David_Dessou_unavailable
				}
			}
			traits = {
				ideology_S
				HoI_Political_Specialist
			}
		}
		# Tahirou Congacou
		BEN_HoI_Tahirou_Congacou = {
			picture = Tahirou_Congacou
			allowed = {
				tag = BEN
			}
			available = {
				date > 1950.1.1
				date < 1964.1.1
				S_Minister_Allowed = yes
				NOT = {
					has_country_flag = Tahirou_Congacou_unavailable
				}
			}
			traits = {
				ideology_S
				HoI_Industrial_Specialist
			}
		}
		# Mathieu Kérékou
		BEN_HoI_Mathieu_Kerekou = {
			picture = Mathieu_Kerekou
			allowed = {
				tag = BEN
			}
			available = {
				date > 1980.1.1
				date < 2020.1.1
				C_Minister_Allowed = yes
				NOT = {
					has_country_flag = Mathieu_Kerekou_unavailable
				}
			}
			traits = {
				ideology_C
				HoI_Technical_Specialist
			}
		}
	}
	#################################################
	### Chief of Staff
	#################################################
	Chief_of_Staff = {
		# Francis d'Oultre Seille
		BEN_CoStaff_Francis_dOultre_Seille = {
			picture = Francis_dOultre_Seille
			allowed = {
				tag = BEN
			}
			available = {
				date > 1933.1.1
				date < 1964.1.1
				A_Minister_Allowed = yes
				NOT = {
					has_country_flag = Francis_dOultre_Seille_unavailable
				}
			}
			traits = {
				ideology_A
				CoStaff_School_Of_Defence
			}
		}
		# Jean de Saint-Alary
		BEN_CoStaff_Jean_de_SaintAlary = {
			picture = Jean_de_SaintAlary
			allowed = {
				tag = BEN
			}
			available = {
				date > 1933.1.1
				date < 1964.1.1
				D_Minister_Allowed = yes
				NOT = {
					has_country_flag = Jean_de_SaintAlary_unavailable
				}
			}
			traits = {
				ideology_D
				CoStaff_School_Of_Defence
			}
		}
		# Andre Latrille
		BEN_CoStaff_Andre_Latrille = {
			picture = Andre_Latrille
			allowed = {
				tag = BEN
			}
			available = {
				date > 1943.1.1
				date < 1964.1.1
				D_Minister_Allowed = yes
				NOT = {
					has_country_flag = Andre_Latrille_unavailable
				}
			}
			traits = {
				ideology_D
				CoStaff_School_Of_Manoeuvre
			}
		}
		# Akira Jomo
		BEN_CoStaff_Akira_Jomo = {
			picture = Akira_Jomo
			allowed = {
				tag = BEN
			}
			available = {
				date > 1933.1.1
				date < 1964.1.1
				S_Minister_Allowed = yes
				NOT = {
					has_country_flag = Akira_Jomo_unavailable
				}
			}
			traits = {
				ideology_S
				CoStaff_School_Of_Psychology
			}
		}
		# Ali Saibou
		BEN_CoStaff_Ali_Saibou = {
			picture = Ali_Saibou
			allowed = {
				tag = BEN
			}
			available = {
				date > 1941.1.1
				date < 1964.1.1
				S_Minister_Allowed = yes
				NOT = {
					has_country_flag = Ali_Saibou_unavailable
				}
			}
			traits = {
				ideology_S
				CoStaff_School_Of_Defence
			}
		}
		# Christophe Soglo
		BEN_CoStaff_Christophe_Soglo = {
			picture = Christophe_Soglo
			allowed = {
				tag = BEN
			}
			available = {
				date > 1950.1.1
				date < 1964.1.1
				S_Minister_Allowed = yes
				NOT = {
					has_country_flag = Christophe_Soglo_unavailable
				}
			}
			traits = {
				ideology_S
				CoStaff_School_Of_Manoeuvre
			}
		}
		# Alphonse Alley
		BEN_CoStaff_Alphonse_Alley = {
			picture = Alphonse_Alley
			allowed = {
				tag = BEN
			}
			available = {
				date > 1950.1.1
				date < 1964.1.1
				S_Minister_Allowed = yes
				NOT = {
					has_country_flag = Alphonse_Alley_unavailable
				}
			}
			traits = {
				ideology_S
				CoStaff_School_Of_Defence
			}
		}
		# Paul-Emile de Souza
		BEN_CoStaff_PaulEmile_de_Souza = {
			picture = PaulEmile_de_Souza
			allowed = {
				tag = BEN
			}
			available = {
				date > 1958.1.1
				date < 1964.1.1
				S_Minister_Allowed = yes
				NOT = {
					has_country_flag = PaulEmile_de_Souza_unavailable
				}
			}
			traits = {
				ideology_S
				CoStaff_School_Of_Psychology
			}
		}
		# Jean-Baptiste Hacheme
		BEN_CoStaff_JeanBaptiste_Hacheme = {
			picture = JeanBaptiste_Hacheme
			allowed = {
				tag = BEN
			}
			available = {
				date > 1958.1.1
				date < 1964.1.1
				S_Minister_Allowed = yes
				NOT = {
					has_country_flag = JeanBaptiste_Hacheme_unavailable
				}
			}
			traits = {
				ideology_S
				CoStaff_School_Of_Defence
			}
		}
		# Iropa Kouandete
		BEN_CoStaff_Iropa_Kouandete = {
			picture = Iropa_Kouandete
			allowed = {
				tag = BEN
			}
			available = {
				date > 1958.1.1
				date < 1964.1.1
				S_Minister_Allowed = yes
				NOT = {
					has_country_flag = Iropa_Kouandete_unavailable
				}
			}
			traits = {
				ideology_S
				CoStaff_School_Of_Defence
			}
		}
		# Mathieu Kérékou
		BEN_CoStaff_Mathieu_Kerekou = {
			picture = Mathieu_Kerekou
			allowed = {
				tag = BEN
			}
			available = {
				date > 1980.1.1
				date < 2020.1.1
				C_Minister_Allowed = yes
				NOT = {
					has_country_flag = Mathieu_Kerekou_unavailable
				}
			}
			traits = {
				ideology_C
				CoStaff_School_Of_Defence
			}
		}
	}
	#################################################
	### Chief of Army
	#################################################
	Chief_of_Army = {
		# Roger Podeur
		BEN_CoArmy_Roger_Podeur = {
			picture = Roger_Podeur
			allowed = {
				tag = BEN
			}
			available = {
				date > 1933.1.1
				date < 1964.1.1
				A_Minister_Allowed = yes
				NOT = {
					has_country_flag = Roger_Podeur_unavailable
				}
			}
			traits = {
				ideology_A
				CoArmy_Decisive_Battle_Doctrine
			}
		}
		# Leonce Joseph Delpech
		BEN_CoArmy_Leonce_Joseph_Delpech = {
			picture = Leonce_Joseph_Delpech
			allowed = {
				tag = BEN
			}
			available = {
				date > 1933.1.1
				date < 1964.1.1
				D_Minister_Allowed = yes
				NOT = {
					has_country_flag = Leonce_Joseph_Delpech_unavailable
				}
			}
			traits = {
				ideology_D
				CoArmy_Static_Defence_Doctrine
			}
		}
		# Pierre Salceti
		BEN_CoArmy_Pierre_Salceti = {
			picture = Pierre_Salceti
			allowed = {
				tag = BEN
			}
			available = {
				date > 1942.1.1
				date < 1964.1.1
				D_Minister_Allowed = yes
				NOT = {
					has_country_flag = Pierre_Salceti_unavailable
				}
			}
			traits = {
				ideology_D
				CoArmy_Elastic_Defence_Doctrine
			}
		}
		# Habib al-Aziz
		BEN_CoArmy_Habib_alAziz = {
			picture = Habib_alAziz
			allowed = {
				tag = BEN
			}
			available = {
				date > 1933.1.1
				date < 1964.1.1
				S_Minister_Allowed = yes
				NOT = {
					has_country_flag = Habib_alAziz_unavailable
				}
			}
			traits = {
				ideology_S
				CoArmy_Elastic_Defence_Doctrine
			}
		}
		# Yorgui Koli
		BEN_CoArmy_Yorgui_Koli = {
			picture = Yorgui_Koli
			allowed = {
				tag = BEN
			}
			available = {
				date > 1941.1.1
				date < 1964.1.1
				S_Minister_Allowed = yes
				NOT = {
					has_country_flag = Yorgui_Koli_unavailable
				}
			}
			traits = {
				ideology_S
				CoArmy_Guns_And_Butter_Doctrine
			}
		}
		# Christophe Soglo
		BEN_CoArmy_Christophe_Soglo = {
			picture = Christophe_Soglo
			allowed = {
				tag = BEN
			}
			available = {
				date > 1950.1.1
				date < 1964.1.1
				S_Minister_Allowed = yes
				NOT = {
					has_country_flag = Christophe_Soglo_unavailable
				}
			}
			traits = {
				ideology_S
				CoArmy_Elastic_Defence_Doctrine
			}
		}
		# Alphonse Alley
		BEN_CoArmy_Alphonse_Alley = {
			picture = Alphonse_Alley
			allowed = {
				tag = BEN
			}
			available = {
				date > 1950.1.1
				date < 1964.1.1
				S_Minister_Allowed = yes
				NOT = {
					has_country_flag = Alphonse_Alley_unavailable
				}
			}
			traits = {
				ideology_S
				CoArmy_Decisive_Battle_Doctrine
			}
		}
		# Paul-Emile de Souza
		BEN_CoArmy_PaulEmile_de_Souza = {
			picture = PaulEmile_de_Souza
			allowed = {
				tag = BEN
			}
			available = {
				date > 1958.1.1
				date < 1964.1.1
				S_Minister_Allowed = yes
				NOT = {
					has_country_flag = PaulEmile_de_Souza_unavailable
				}
			}
			traits = {
				ideology_S
				CoArmy_Elastic_Defence_Doctrine
			}
		}
		# Mathieu Kérékou
		BEN_CoArmy_Mathieu_Kerekou = {
			picture = Mathieu_Kerekou
			allowed = {
				tag = BEN
			}
			available = {
				date > 1980.1.1
				date < 2020.1.1
				C_Minister_Allowed = yes
				NOT = {
					has_country_flag = Mathieu_Kerekou_unavailable
				}
			}
			traits = {
				ideology_C
				CoArmy_Static_Defence_Doctrine
			}
		}
	}
	#################################################
	### Chief of Navy
	#################################################
	Chief_of_Navy = {
		# Jean Lassere
		BEN_CoNavy_Jean_Lassere = {
			picture = Jean_Lassere
			allowed = {
				tag = BEN
			}
			available = {
				date > 1933.1.1
				date < 1964.1.1
				A_Minister_Allowed = yes
				NOT = {
					has_country_flag = Jean_Lassere_unavailable
				}
			}
			traits = {
				ideology_A
				CoNavy_Base_Control_Doctrine
			}
		}
		# Francis d'Oultre Seille
		BEN_CoNavy_Francis_dOultre_Seille = {
			picture = Francis_dOultre_Seille
			allowed = {
				tag = BEN
			}
			available = {
				date > 1933.1.1
				date < 1964.1.1
				D_Minister_Allowed = yes
				NOT = {
					has_country_flag = Francis_dOultre_Seille_unavailable
				}
			}
			traits = {
				ideology_D
				CoNavy_Indirect_Approach_Doctrine
			}
		}
		# Edmond Louveau
		BEN_CoNavy_Edmond_Louveau = {
			picture = Edmond_Louveau
			allowed = {
				tag = BEN
			}
			available = {
				date > 1942.1.1
				date < 1964.1.1
				D_Minister_Allowed = yes
				NOT = {
					has_country_flag = Edmond_Louveau_unavailable
				}
			}
			traits = {
				ideology_D
				CoNavy_Base_Control_Doctrine
			}
		}
		# Francois Tombalbaye
		BEN_CoNavy_Francois_Tombalbaye = {
			picture = Francois_Tombalbaye
			allowed = {
				tag = BEN
			}
			available = {
				date > 1933.1.1
				date < 1964.1.1
				S_Minister_Allowed = yes
				NOT = {
					has_country_flag = Francois_Tombalbaye_unavailable
				}
			}
			traits = {
				ideology_S
				CoNavy_Power_Projection_Doctrine
			}
		}
		# Jean-Baptiste Hacheme
		BEN_CoNavy_JeanBaptiste_Hacheme = {
			picture = JeanBaptiste_Hacheme
			allowed = {
				tag = BEN
			}
			available = {
				date > 1958.1.1
				date < 1964.1.1
				S_Minister_Allowed = yes
				NOT = {
					has_country_flag = JeanBaptiste_Hacheme_unavailable
				}
			}
			traits = {
				ideology_S
				CoNavy_Power_Projection_Doctrine
			}
		}
		# Mathieu Kérékou
		BEN_CoNavy_Mathieu_Kerekou = {
			picture = Mathieu_Kerekou
			allowed = {
				tag = BEN
			}
			available = {
				date > 1980.1.1
				date < 2020.1.1
				C_Minister_Allowed = yes
				NOT = {
					has_country_flag = Mathieu_Kerekou_unavailable
				}
			}
			traits = {
				ideology_C
				CoNavy_Indirect_Approach_Doctrine
			}
		}
	}
	#################################################
	### Chief of Airforce
	#################################################
	Chief_of_Airforce = {
		# Augustino de Souza
		BEN_CoAir_Augustino_de_Souza = {
			picture = Augustino_de_Souza
			allowed = {
				tag = BEN
			}
			available = {
				date > 1933.1.1
				date < 1964.1.1
				A_Minister_Allowed = yes
				NOT = {
					has_country_flag = Augustino_de_Souza_unavailable
				}
			}
			traits = {
				ideology_A
				CoAir_Naval_Aviation_Doctrine
			}
		}
		# Louis Flury-Hérard
		BEN_CoAir_Louis_FluryHerard = {
			picture = Louis_FluryHerard
			allowed = {
				tag = BEN
			}
			available = {
				date > 1933.1.1
				date < 1964.1.1
				D_Minister_Allowed = yes
				NOT = {
					has_country_flag = Louis_FluryHerard_unavailable
				}
			}
			traits = {
				ideology_D
				CoAir_Vertical_Envelopment_Doctrine
			}
		}
		# Fred Scamaroni
		BEN_CoAir_Fred_Scamaroni = {
			picture = Fred_Scamaroni
			allowed = {
				tag = BEN
			}
			available = {
				date > 1941.1.1
				date < 1964.1.1
				D_Minister_Allowed = yes
				NOT = {
					has_country_flag = Fred_Scamaroni_unavailable
				}
			}
			traits = {
				ideology_D
				CoAir_Army_Aviation_Doctrine
			}
		}
		# Auguste Denise
		BEN_CoAir_Auguste_Denise = {
			picture = Auguste_Denise
			allowed = {
				tag = BEN
			}
			available = {
				date > 1933.1.1
				date < 1964.1.1
				S_Minister_Allowed = yes
				NOT = {
					has_country_flag = Auguste_Denise_unavailable
				}
			}
			traits = {
				ideology_S
				CoAir_Air_Superiority_Doctrine
			}
		}
		# Iropa Kouandete
		BEN_CoAir_Iropa_Kouandete = {
			picture = Iropa_Kouandete
			allowed = {
				tag = BEN
			}
			available = {
				date > 1958.1.1
				date < 1964.1.1
				S_Minister_Allowed = yes
				NOT = {
					has_country_flag = Iropa_Kouandete_unavailable
				}
			}
			traits = {
				ideology_S
				CoAir_Army_Aviation_Doctrine
			}
		}
		# Mathieu Kérékou
		BEN_CoAir_Mathieu_Kerekou = {
			picture = Mathieu_Kerekou
			allowed = {
				tag = BEN
			}
			available = {
				date > 1980.1.1
				date < 2020.1.1
				C_Minister_Allowed = yes
				NOT = {
					has_country_flag = Mathieu_Kerekou_unavailable
				}
			}
			traits = {
				ideology_C
				CoAir_Vertical_Envelopment_Doctrine
			}
		}
	}
}
