ideas = {
	#################################################
	### Head of Government
	#################################################
	Head_of_Government = {
		# Federico Tinoco Granados
		COS_D_Federico_Tinoco_Granados = {
			picture = Federico_Tinoco_Granados
			allowed = {
				tag = COS
			}
			available = {
				date > 1914.1.1
				date < 1933.1.1
				A_Minister_Allowed = yes
				NOT = {
					has_country_flag = Federico_Tinoco_Granados_unavailable
				}
			}
			traits = {
				ideology_A
				L_Old_General
			}
		}
		# Francisco Aguilar Barquero
		COS_D_Francisco_Aguilar_Barquero = {
			picture = Francisco_Aguilar_Barquero
			allowed = {
				tag = COS
			}
			available = {
				date > 1919.1.1
				date < 1933.1.1
				A_Minister_Allowed = yes
				NOT = {
					has_country_flag = Francisco_Aguilar_Barquero_unavailable
				}
			}
			traits = {
				ideology_A
				L_Happy_Amateur
			}
		}
		# Julio Acosta García
		COS_D_Julio_Acosta_Garcia = {
			picture = Julio_Acosta_Garcia
			allowed = {
				tag = COS
			}
			available = {
				date > 1920.1.1
				date < 1933.1.1
				A_Minister_Allowed = yes
				NOT = {
					has_country_flag = Julio_Acosta_Garcia_unavailable
				}
			}
			traits = {
				ideology_A
				L_Flamboyant_Tough_Guy
			}
		}
		# Romualdo Pino Roja
		COS_D_Romualdo_Pino_Roja = {
			picture = Romualdo_Pino_Roja
			allowed = {
				tag = COS
			}
			available = {
				date > 1933.1.1
				date < 1964.1.1
				A_Minister_Allowed = yes
				NOT = {
					has_country_flag = Romualdo_Pino_Roja_unavailable
				}
			}
			traits = {
				ideology_A
				L_Old_General
			}
		}
		# Adolfo Urribe Castro
		COS_D_Adolfo_Urribe_Castro = {
			picture = Adolfo_Urribe_Castro
			allowed = {
				tag = COS
			}
			available = {
				date > 1933.1.1
				date < 1964.1.1
				D_Minister_Allowed = yes
				NOT = {
					has_country_flag = Adolfo_Urribe_Castro_unavailable
				}
			}
			traits = {
				ideology_D
				L_Smiling_Oilman
			}
		}
		# Teodoro Picado Michalski
		COS_D_Teodoro_Picado_Michalski = {
			picture = Teodoro_Picado_Michalski
			allowed = {
				tag = COS
			}
			available = {
				date > 1940.1.1
				date < 1964.1.1
				D_Minister_Allowed = yes
				NOT = {
					has_country_flag = Teodoro_Picado_Michalski_unavailable
				}
			}
			traits = {
				ideology_D
				L_Old_General
			}
		}
		# Rafael Calderon Guardia
		COS_D_Rafael_Calderon_Guardia = {
			picture = Rafael_Calderon_Guardia
			allowed = {
				tag = COS
			}
			available = {
				date > 1944.1.1
				date < 1964.1.1
				D_Minister_Allowed = yes
				NOT = {
					has_country_flag = Rafael_Calderon_Guardia_unavailable
				}
			}
			traits = {
				ideology_D
				L_Flamboyant_Tough_Guy
			}
		}
		# Otto Cortes Fernandez
		COS_D_Otto_Cortes_Fernandez = {
			picture = Otto_Cortes_Fernandez
			allowed = {
				tag = COS
			}
			available = {
				date > 1944.1.1
				date < 1964.1.1
				D_Minister_Allowed = yes
				NOT = {
					has_country_flag = Otto_Cortes_Fernandez_unavailable
				}
			}
			traits = {
				ideology_D
				L_Silent_Workhorse
			}
		}
		# Santos León Herrera
		COS_D_Santos_Leon_Herrera = {
			picture = Santos_Leon_Herrera
			allowed = {
				tag = COS
			}
			available = {
				date > 1947.1.1
				date < 1964.1.1
				D_Minister_Allowed = yes
				NOT = {
					has_country_flag = Santos_Leon_Herrera_unavailable
				}
			}
			traits = {
				ideology_D
				L_Corporate_Suit
			}
		}
		# Alberto Oreamuno Flores
		COS_D_Alberto_Oreamuno_Flores = {
			picture = Alberto_Oreamuno_Flores
			allowed = {
				tag = COS
			}
			available = {
				date > 1948.1.1
				date < 1964.1.1
				D_Minister_Allowed = yes
				NOT = {
					has_country_flag = Alberto_Oreamuno_Flores_unavailable
				}
			}
			traits = {
				ideology_D
				L_Ambitious_Union_Boss
			}
		}
		# Abelardo Bonilla Baldares
		COS_D_Abelardo_Bonilla_Baldares = {
			picture = Abelardo_Bonilla_Baldares
			allowed = {
				tag = COS
			}
			available = {
				date > 1958.1.1
				date < 1964.1.1
				D_Minister_Allowed = yes
				NOT = {
					has_country_flag = Abelardo_Bonilla_Baldares_unavailable
				}
			}
			traits = {
				ideology_D
				L_Silent_Workhorse
			}
		}
		# Mario Echandi Jimenez
		COS_D_Mario_Echandi_Jimenez = {
			picture = Mario_Echandi_Jimenez
			allowed = {
				tag = COS
			}
			available = {
				date > 1962.1.1
				date < 2012.1.1
				D_Minister_Allowed = yes
				NOT = {
					has_country_flag = Mario_Echandi_Jimenez_unavailable
				}
			}
			traits = {
				ideology_D
				L_Ambitious_Union_Boss
			}
		}
		# Jorge Vega Rodriguez
		COS_D_Jorge_Vega_Rodriguez = {
			picture = Jorge_Vega_Rodriguez
			allowed = {
				tag = COS
			}
			available = {
				date > 1966.1.1
				date < 1981.1.1
				D_Minister_Allowed = yes
				NOT = {
					has_country_flag = Jorge_Vega_Rodriguez_unavailable
				}
			}
			traits = {
				ideology_D
				L_Smiling_Oilman
			}
		}
		# Virgilio Calvo Sanchez
		COS_D_Virgilio_Calvo_Sanchez = {
			picture = Virgilio_Calvo_Sanchez
			allowed = {
				tag = COS
			}
			available = {
				date > 1970.1.1
				date < 1981.1.1
				D_Minister_Allowed = yes
				NOT = {
					has_country_flag = Virgilio_Calvo_Sanchez_unavailable
				}
			}
			traits = {
				ideology_D
				L_Old_Admiral
			}
		}
		# Jorge Gonzáles Martén
		COS_D_Jorge_Gonzales_Marten = {
			picture = Jorge_Gonzales_Marten
			allowed = {
				tag = COS
			}
			available = {
				date > 1974.1.1
				date < 2020.1.1
				D_Minister_Allowed = yes
				NOT = {
					has_country_flag = Jorge_Gonzales_Marten_unavailable
				}
			}
			traits = {
				ideology_D
				L_Old_Admiral
			}
		}
		# Rodrigo Altmann Ortiz
		COS_D_Rodrigo_Altmann_Ortiz = {
			picture = Rodrigo_Altmann_Ortiz
			allowed = {
				tag = COS
			}
			available = {
				date > 1978.1.1
				date < 1991.1.1
				D_Minister_Allowed = yes
				NOT = {
					has_country_flag = Rodrigo_Altmann_Ortiz_unavailable
				}
			}
			traits = {
				ideology_D
				L_Backroom_Backstabber
			}
		}
		# Alejandro Madrigal Benavides
		COS_D_Alejandro_Madrigal_Benavides = {
			picture = Alejandro_Madrigal_Benavides
			allowed = {
				tag = COS
			}
			available = {
				date > 1986.1.1
				date < 2020.1.1
				D_Minister_Allowed = yes
				NOT = {
					has_country_flag = Alejandro_Madrigal_Benavides_unavailable
				}
			}
			traits = {
				ideology_D
				L_Old_Admiral
			}
		}
		# German Serrano Pinto
		COS_D_German_Serrano_Pinto = {
			picture = German_Serrano_Pinto
			allowed = {
				tag = COS
			}
			available = {
				date > 1990.1.1
				date < 2020.1.1
				D_Minister_Allowed = yes
				NOT = {
					has_country_flag = German_Serrano_Pinto_unavailable
				}
			}
			traits = {
				ideology_D
				L_Old_Admiral
			}
		}
		# Ricardo Jiménez Oreamuno
		COS_D_Ricardo_Jimenez_Oreamuno = {
			picture = Ricardo_Jimenez_Oreamuno
			allowed = {
				tag = COS
			}
			available = {
				date > 1910.1.1
				date < 1937.1.1
				D_Minister_Allowed = yes
				NOT = {
					has_country_flag = Ricardo_Jimenez_Oreamuno_unavailable
				}
			}
			traits = {
				ideology_D
				L_Happy_Amateur
			}
		}
		# Alfredo González Flores
		COS_D_Alfredo_Gonzalez_Flores = {
			picture = Alfredo_Gonzalez_Flores
			allowed = {
				tag = COS
			}
			available = {
				date > 1914.1.1
				date < 1933.1.1
				D_Minister_Allowed = yes
				NOT = {
					has_country_flag = Alfredo_Gonzalez_Flores_unavailable
				}
			}
			traits = {
				ideology_D
				L_Silent_Workhorse
			}
		}
		# Leon Cortes Castro
		COS_D_Leon_Cortes_Castro = {
			picture = Leon_Cortes_Castro
			allowed = {
				tag = COS
			}
			available = {
				date > 1933.1.1
				date < 1964.1.1
				D_Minister_Allowed = yes
				NOT = {
					has_country_flag = Leon_Cortes_Castro_unavailable
				}
			}
			traits = {
				ideology_D
				L_Political_Protege
			}
		}
		# Tobias Zúñiaga Montúfar
		COS_D_Tobias_Zuniaga_Montufar = {
			picture = Tobias_Zuniaga_Montufar
			allowed = {
				tag = COS
			}
			available = {
				date > 1933.1.1
				date < 1964.1.1
				D_Minister_Allowed = yes
				NOT = {
					has_country_flag = Tobias_Zuniaga_Montufar_unavailable
				}
			}
			traits = {
				ideology_D
				L_Ambitious_Union_Boss
			}
		}
		# Alejandro de Castro Lopez
		COS_D_Alejandro_de_Castro_Lopez = {
			picture = Alejandro_de_Castro_Lopez
			allowed = {
				tag = COS
			}
			available = {
				date > 1944.1.1
				date < 1964.1.1
				D_Minister_Allowed = yes
				NOT = {
					has_country_flag = Alejandro_de_Castro_Lopez_unavailable
				}
			}
			traits = {
				ideology_D
				L_Happy_Amateur
			}
		}
		# Raul Blanco Cervantes
		COS_D_Raul_Blanco_Cervantes_2 = {
			picture = Raul_Blanco_Cervantes_2
			allowed = {
				tag = COS
			}
			available = {
				date > 1966.1.1
				date < 1981.1.1
				D_Minister_Allowed = yes
				NOT = {
					has_country_flag = Raul_Blanco_Cervantes_unavailable
				}
			}
			traits = {
				ideology_D
				L_Smiling_Oilman
			}
		}
		# Carlos Manuel Castillo
		COS_D_Carlos_Manuel_Castillo = {
			picture = Carlos_Manuel_Castillo
			allowed = {
				tag = COS
			}
			available = {
				date > 1974.1.1
				date < 2000.1.1
				D_Minister_Allowed = yes
				NOT = {
					has_country_flag = Carlos_Manuel_Castillo_unavailable
				}
			}
			traits = {
				ideology_D
				L_Old_General
			}
		}
		# Rodrigo Gutiérrez Saenz
		COS_D_Rodrigo_Gutierrez_Saenz = {
			picture = Rodrigo_Gutierrez_Saenz
			allowed = {
				tag = COS
			}
			available = {
				date > 1978.1.1
				date < 2011.1.1
				D_Minister_Allowed = yes
				NOT = {
					has_country_flag = Rodrigo_Gutierrez_Saenz_unavailable
				}
			}
			traits = {
				ideology_D
				L_Old_Airmarshal
			}
		}
		# Alberto Fait Lizano
		COS_D_Alberto_Fait_Lizano = {
			picture = Alberto_Fait_Lizano
			allowed = {
				tag = COS
			}
			available = {
				date > 1982.1.1
				date < 1998.1.1
				D_Minister_Allowed = yes
				NOT = {
					has_country_flag = Alberto_Fait_Lizano_unavailable
				}
			}
			traits = {
				ideology_D
				L_Ambitious_Union_Boss
			}
		}
		# Jorge Manuel Dengo
		COS_D_Jorge_Manuel_Dengo = {
			picture = Jorge_Manuel_Dengo
			allowed = {
				tag = COS
			}
			available = {
				date > 1986.1.1
				date < 2013.1.1
				D_Minister_Allowed = yes
				NOT = {
					has_country_flag = Jorge_Manuel_Dengo_unavailable
				}
			}
			traits = {
				ideology_D
				L_Political_Protege
			}
		}
		# Daniel Camacho
		COS_D_Daniel_Camacho = {
			picture = Daniel_Camacho
			allowed = {
				tag = COS
			}
			available = {
				date > 1990.1.1
				date < 2001.1.1
				D_Minister_Allowed = yes
				NOT = {
					has_country_flag = Daniel_Camacho_unavailable
				}
			}
			traits = {
				ideology_D
				L_Naive_Optimist
			}
		}
		# Jose Figueres Ferrer
		COS_D_Jose_Figueres_Ferrer = {
			picture = Jose_Figueres_Ferrer
			allowed = {
				tag = COS
			}
			available = {
				date > 1944.1.1
				date < 1964.1.1
				D_Minister_Allowed = yes
				NOT = {
					has_country_flag = Jose_Figueres_Ferrer_unavailable
				}
			}
			traits = {
				ideology_D
				L_Political_Protege
			}
		}
		# Otilio Ulate
		COS_D_Otilio_Ulate = {
			picture = Otilio_Ulate
			allowed = {
				tag = COS
			}
			available = {
				date > 1944.1.1
				date < 1964.1.1
				D_Minister_Allowed = yes
				NOT = {
					has_country_flag = Otilio_Ulate_unavailable
				}
			}
			traits = {
				ideology_D
				L_Backroom_Backstabber
			}
		}
		# Raul Blanco Cervantes
		COS_D_Raul_Blanco_Cervantes = {
			picture = Raul_Blanco_Cervantes
			allowed = {
				tag = COS
			}
			available = {
				date > 1953.1.1
				date < 1964.1.1
				D_Minister_Allowed = yes
				NOT = {
					has_country_flag = Raul_Blanco_Cervantes_unavailable
				}
			}
			traits = {
				ideology_D
				L_Political_Protege
			}
		}
		# Luis Alberto Monge
		COS_D_Luis_Alberto_Monge = {
			picture = Luis_Alberto_Monge
			allowed = {
				tag = COS
			}
			available = {
				date > 1982.1.1
				date < 2013.1.1
				D_Minister_Allowed = yes
				NOT = {
					has_country_flag = Luis_Alberto_Monge_unavailable
				}
			}
			traits = {
				ideology_D
				L_Naive_Optimist
			}
		}
		# Isalino de Silva Londres
		COS_D_Isalino_de_Silva_Londres = {
			picture = Isalino_de_Silva_Londres
			allowed = {
				tag = COS
			}
			available = {
				date > 1947.1.1
				date < 1964.1.1
				S_Minister_Allowed = yes
				NOT = {
					has_country_flag = Isalino_de_Silva_Londres_unavailable
				}
			}
			traits = {
				ideology_S
				L_Political_Protege
			}
		}
		# Manuel Mora Valverde
		COS_D_Manuel_Mora_Valverde = {
			picture = Manuel_Mora_Valverde
			allowed = {
				tag = COS
			}
			available = {
				date > 1940.1.1
				date < 1964.1.1
				C_Minister_Allowed = yes
				NOT = {
					has_country_flag = Manuel_Mora_Valverde_unavailable
				}
			}
			traits = {
				ideology_C
				L_Happy_Amateur
			}
		}
	}
	#################################################
	### Foreign Minister
	#################################################
	Foreign_Minister = {
		# Raúl Gundían
		COS_FM_Raul_Gundian_2 = {
			picture = Raul_Gundian_2
			allowed = {
				tag = COS
			}
			available = {
				date > 1933.1.1
				date < 1964.1.1
				A_Minister_Allowed = yes
				NOT = {
					has_country_flag = Raul_Gundian_unavailable
				}
			}
			traits = {
				ideology_A
				FM_General_Staffer
			}
		}
		# Adolfo Urribe Castro
		COS_FM_Adolfo_Urribe_Castro = {
			picture = Adolfo_Urribe_Castro
			allowed = {
				tag = COS
			}
			available = {
				date > 1933.1.1
				date < 1964.1.1
				D_Minister_Allowed = yes
				NOT = {
					has_country_flag = Adolfo_Urribe_Castro_unavailable
				}
			}
			traits = {
				ideology_D
				FM_Apologetic_Clerk
			}
		}
		# Rafael Calderon Guardia
		COS_FM_Rafael_Calderon_Guardia = {
			picture = Rafael_Calderon_Guardia
			allowed = {
				tag = COS
			}
			available = {
				date > 1940.1.1
				date < 1964.1.1
				D_Minister_Allowed = yes
				NOT = {
					has_country_flag = Rafael_Calderon_Guardia_unavailable
				}
			}
			traits = {
				ideology_D
				FM_Biased_Intellectual
			}
		}
		# Julio Acosta Garcia
		COS_FM_Julio_Acosta_Garcia = {
			picture = Julio_Acosta_Garcia
			allowed = {
				tag = COS
			}
			available = {
				date > 1942.1.1
				date < 1964.1.1
				D_Minister_Allowed = yes
				NOT = {
					has_country_flag = Julio_Acosta_Garcia_unavailable
				}
			}
			traits = {
				ideology_D
				FM_Great_Compromiser
			}
		}
		# Teodoro Picado Michalski
		COS_FM_Teodoro_Picado_Michalski = {
			picture = Teodoro_Picado_Michalski
			allowed = {
				tag = COS
			}
			available = {
				date > 1943.1.1
				date < 1964.1.1
				D_Minister_Allowed = yes
				NOT = {
					has_country_flag = Teodoro_Picado_Michalski_unavailable
				}
			}
			traits = {
				ideology_D
				FM_Ideological_Crusader
			}
		}
		# Manuel de Peralta
		COS_FM_Manuel_de_Peralta = {
			picture = Manuel_de_Peralta
			allowed = {
				tag = COS
			}
			available = {
				date > 1944.1.1
				date < 1964.1.1
				D_Minister_Allowed = yes
				NOT = {
					has_country_flag = Manuel_de_Peralta_unavailable
				}
			}
			traits = {
				ideology_D
				FM_Iron_Fisted_Brute
			}
		}
		# Manuel Castro Quesada
		COS_FM_Manuel_Castro_Quesada = {
			picture = Manuel_Castro_Quesada
			allowed = {
				tag = COS
			}
			available = {
				date > 1914.1.1
				date < 1933.1.1
				D_Minister_Allowed = yes
				NOT = {
					has_country_flag = Manuel_Castro_Quesada_unavailable
				}
			}
			traits = {
				ideology_D
				FM_Iron_Fisted_Brute
			}
		}
		# Raúl Gundían
		COS_FM_Raul_Gundian = {
			picture = Raul_Gundian
			allowed = {
				tag = COS
			}
			available = {
				date > 1933.1.1
				date < 1964.1.1
				D_Minister_Allowed = yes
				NOT = {
					has_country_flag = Raul_Gundian_unavailable
				}
			}
			traits = {
				ideology_D
				FM_General_Staffer
			}
		}
		# Leon Cortes Castro
		COS_FM_Leon_Cortes_Castro = {
			picture = Leon_Cortes_Castro
			allowed = {
				tag = COS
			}
			available = {
				date > 1933.1.1
				date < 1964.1.1
				D_Minister_Allowed = yes
				NOT = {
					has_country_flag = Leon_Cortes_Castro_unavailable
				}
			}
			traits = {
				ideology_D
				FM_The_Cloak_N_Dagger_Schemer
			}
		}
		# Manuel F. Jímenez
		COS_FM_Manuel_F_Jimenez = {
			picture = Manuel_F_Jimenez
			allowed = {
				tag = COS
			}
			available = {
				date > 1938.1.1
				date < 1964.1.1
				D_Minister_Allowed = yes
				NOT = {
					has_country_flag = Manuel_F_Jimenez_unavailable
				}
			}
			traits = {
				ideology_D
				FM_General_Staffer
			}
		}
		# Albert Echandi Montero
		COS_FM_Albert_Echandi_Montero = {
			picture = Albert_Echandi_Montero
			allowed = {
				tag = COS
			}
			available = {
				date > 1939.1.1
				date < 1964.1.1
				D_Minister_Allowed = yes
				NOT = {
					has_country_flag = Albert_Echandi_Montero_unavailable
				}
			}
			traits = {
				ideology_D
				FM_Iron_Fisted_Brute
			}
		}
		# Roberto Brenes Mesen
		COS_FM_Roberto_Brenes_Mesen = {
			picture = Roberto_Brenes_Mesen
			allowed = {
				tag = COS
			}
			available = {
				date > 1940.1.1
				date < 1964.1.1
				D_Minister_Allowed = yes
				NOT = {
					has_country_flag = Roberto_Brenes_Mesen_unavailable
				}
			}
			traits = {
				ideology_D
				FM_Apologetic_Clerk
			}
		}
		# Tobias Zúñiaga Montúfar
		COS_FM_Tobias_Zuniaga_Montufar = {
			picture = Tobias_Zuniaga_Montufar
			allowed = {
				tag = COS
			}
			available = {
				date > 1942.1.1
				date < 1964.1.1
				D_Minister_Allowed = yes
				NOT = {
					has_country_flag = Tobias_Zuniaga_Montufar_unavailable
				}
			}
			traits = {
				ideology_D
				FM_Biased_Intellectual
			}
		}
		# Chico Orlich Bolmarich
		COS_FM_Chico_Orlich_Bolmarich = {
			picture = Chico_Orlich_Bolmarich
			allowed = {
				tag = COS
			}
			available = {
				date > 1944.1.1
				date < 1964.1.1
				D_Minister_Allowed = yes
				NOT = {
					has_country_flag = Chico_Orlich_Bolmarich_unavailable
				}
			}
			traits = {
				ideology_D
				FM_Ideological_Crusader
			}
		}
		# Otilio Ulate
		COS_FM_Otilio_Ulate = {
			picture = Otilio_Ulate
			allowed = {
				tag = COS
			}
			available = {
				date > 1944.1.1
				date < 1964.1.1
				D_Minister_Allowed = yes
				NOT = {
					has_country_flag = Otilio_Ulate_unavailable
				}
			}
			traits = {
				ideology_D
				FM_The_Cloak_N_Dagger_Schemer
			}
		}
		# Luís Fernandéz Rodríguez
		COS_FM_Luis_Fernandez_Rodriguez = {
			picture = Luis_Fernandez_Rodriguez
			allowed = {
				tag = COS
			}
			available = {
				date > 1947.1.1
				date < 1964.1.1
				D_Minister_Allowed = yes
				NOT = {
					has_country_flag = Luis_Fernandez_Rodriguez_unavailable
				}
			}
			traits = {
				ideology_D
				FM_Ideological_Crusader
			}
		}
		# Enrique Díaz Toledo
		COS_FM_Enrique_Diaz_Toledo = {
			picture = Enrique_Diaz_Toledo
			allowed = {
				tag = COS
			}
			available = {
				date > 1947.1.1
				date < 1964.1.1
				S_Minister_Allowed = yes
				NOT = {
					has_country_flag = Enrique_Diaz_Toledo_unavailable
				}
			}
			traits = {
				ideology_S
				FM_Apologetic_Clerk
			}
		}
		# Manuel Mora Valverde
		COS_FM_Manuel_Mora_Valverde = {
			picture = Manuel_Mora_Valverde
			allowed = {
				tag = COS
			}
			available = {
				date > 1940.1.1
				date < 1964.1.1
				C_Minister_Allowed = yes
				NOT = {
					has_country_flag = Manuel_Mora_Valverde_unavailable
				}
			}
			traits = {
				ideology_C
				FM_The_Cloak_N_Dagger_Schemer
			}
		}
	}
	#################################################
	### Minister of Security
	#################################################
	Minister_of_Security = {
		# Alberto Marten Chavarria
		COS_MoS_Alberto_Marten_Chavarria = {
			picture = Alberto_Marten_Chavarria
			allowed = {
				tag = COS
			}
			available = {
				date > 1933.1.1
				date < 1964.1.1
				A_Minister_Allowed = yes
				NOT = {
					has_country_flag = Alberto_Marten_Chavarria_unavailable
				}
			}
			traits = {
				ideology_A
				MoS_Crooked_Kleptocrat
			}
		}
		# Adolfo Urribe Castro
		COS_MoS_Adolfo_Urribe_Castro = {
			picture = Adolfo_Urribe_Castro
			allowed = {
				tag = COS
			}
			available = {
				date > 1933.1.1
				date < 1964.1.1
				D_Minister_Allowed = yes
				NOT = {
					has_country_flag = Adolfo_Urribe_Castro_unavailable
				}
			}
			traits = {
				ideology_D
				MoS_Compassionate_Gentleman
			}
		}
		# Tobias Picado Cortes
		COS_MoS_Tobias_Picado_Cortes = {
			picture = Tobias_Picado_Cortes
			allowed = {
				tag = COS
			}
			available = {
				date > 1946.1.1
				date < 1964.1.1
				D_Minister_Allowed = yes
				NOT = {
					has_country_flag = Tobias_Picado_Cortes_unavailable
				}
			}
			traits = {
				ideology_D
				MoS_Prince_Of_Terror
			}
		}
		# Francisco Aguilar Barquero
		COS_MoS_Francisco_Aguilar_Barquero = {
			picture = Francisco_Aguilar_Barquero
			allowed = {
				tag = COS
			}
			available = {
				date > 1914.1.1
				date < 1933.1.1
				D_Minister_Allowed = yes
				NOT = {
					has_country_flag = Francisco_Aguilar_Barquero_unavailable
				}
			}
			traits = {
				ideology_D
				MoS_Man_Of_The_People
			}
		}
		# Victor Sanabria Martinéz
		COS_MoS_Victor_Sanabria_Martinez = {
			picture = Victor_Sanabria_Martinez
			allowed = {
				tag = COS
			}
			available = {
				date > 1933.1.1
				date < 1964.1.1
				D_Minister_Allowed = yes
				NOT = {
					has_country_flag = Victor_Sanabria_Martinez_unavailable
				}
			}
			traits = {
				ideology_D
				MoS_Efficient_Sociopath
			}
		}
		# Isalino de Silva Londres
		COS_MoS_Isalino_de_Silva_Londres = {
			picture = Isalino_de_Silva_Londres
			allowed = {
				tag = COS
			}
			available = {
				date > 1940.1.1
				date < 1964.1.1
				D_Minister_Allowed = yes
				NOT = {
					has_country_flag = Isalino_de_Silva_Londres_unavailable
				}
			}
			traits = {
				ideology_D
				MoS_Crime_Fighter
			}
		}
		# Tobias Zúñiaga Montúfar
		COS_MoS_Tobias_Zuniaga_Montufar = {
			picture = Tobias_Zuniaga_Montufar
			allowed = {
				tag = COS
			}
			available = {
				date > 1944.1.1
				date < 1964.1.1
				D_Minister_Allowed = yes
				NOT = {
					has_country_flag = Tobias_Zuniaga_Montufar_unavailable
				}
			}
			traits = {
				ideology_D
				MoS_Silent_Lawyer
			}
		}
		# Alejandro de Castro Lopez
		COS_MoS_Alejandro_de_Castro_Lopez = {
			picture = Alejandro_de_Castro_Lopez
			allowed = {
				tag = COS
			}
			available = {
				date > 1947.1.1
				date < 1964.1.1
				D_Minister_Allowed = yes
				NOT = {
					has_country_flag = Alejandro_de_Castro_Lopez_unavailable
				}
			}
			traits = {
				ideology_D
				MoS_Man_Of_The_People
			}
		}
		# Calufa Fallas Sinaja
		COS_MoS_Calufa_Fallas_Sinaja = {
			picture = Calufa_Fallas_Sinaja
			allowed = {
				tag = COS
			}
			available = {
				date > 1944.1.1
				date < 1964.1.1
				D_Minister_Allowed = yes
				NOT = {
					has_country_flag = Calufa_Fallas_Sinaja_unavailable
				}
			}
			traits = {
				ideology_D
				MoS_Silent_Lawyer
			}
		}
		# Jose Figueres Ferrer
		COS_MoS_Jose_Figueres_Ferrer = {
			picture = Jose_Figueres_Ferrer
			allowed = {
				tag = COS
			}
			available = {
				date > 1947.1.1
				date < 1964.1.1
				D_Minister_Allowed = yes
				NOT = {
					has_country_flag = Jose_Figueres_Ferrer_unavailable
				}
			}
			traits = {
				ideology_D
				MoS_Man_Of_The_People
			}
		}
		# Isalino de Silva Londres
		COS_MoS_Isalino_de_Silva_Londres_2 = {
			picture = Isalino_de_Silva_Londres_2
			allowed = {
				tag = COS
			}
			available = {
				date > 1940.1.1
				date < 1964.1.1
				S_Minister_Allowed = yes
				NOT = {
					has_country_flag = Isalino_de_Silva_Londres_unavailable
				}
			}
			traits = {
				ideology_S
				MoS_Crime_Fighter
			}
		}
		# Carmen Lyra
		COS_MoS_Carmen_Lyra = {
			picture = Carmen_Lyra
			allowed = {
				tag = COS
			}
			available = {
				date > 1947.1.1
				date < 1964.1.1
				S_Minister_Allowed = yes
				NOT = {
					has_country_flag = Carmen_Lyra_unavailable
				}
			}
			traits = {
				ideology_S
				MoS_Prince_Of_Terror
			}
		}
	}
	#################################################
	### Armaments Minister
	#################################################
	Armaments_Minister = {
		# Ignacio Mendéz Alino
		COS_AM_Ignacio_Mendez_Alino = {
			picture = Ignacio_Mendez_Alino
			allowed = {
				tag = COS
			}
			available = {
				date > 1933.1.1
				date < 1964.1.1
				A_Minister_Allowed = yes
				NOT = {
					has_country_flag = Ignacio_Mendez_Alino_unavailable
				}
			}
			traits = {
				ideology_A
				AM_Corrupt_Kleptocrat
			}
		}
		# Juan Cortes Castro
		COS_AM_Juan_Cortes_Castro = {
			picture = Juan_Cortes_Castro
			allowed = {
				tag = COS
			}
			available = {
				date > 1933.1.1
				date < 1964.1.1
				D_Minister_Allowed = yes
				NOT = {
					has_country_flag = Juan_Cortes_Castro_unavailable
				}
			}
			traits = {
				ideology_D
				AM_Laissez-faire_Capitalist
			}
		}
		# Otto Cortes Fernandez
		COS_AM_Otto_Cortes_Fernandez = {
			picture = Otto_Cortes_Fernandez
			allowed = {
				tag = COS
			}
			available = {
				date > 1938.1.1
				date < 1964.1.1
				D_Minister_Allowed = yes
				NOT = {
					has_country_flag = Otto_Cortes_Fernandez_unavailable
				}
			}
			traits = {
				ideology_D
				AM_Administrative_Genius
			}
		}
		# Tobias Picado Cortes
		COS_AM_Tobias_Picado_Cortes = {
			picture = Tobias_Picado_Cortes
			allowed = {
				tag = COS
			}
			available = {
				date > 1941.1.1
				date < 1964.1.1
				D_Minister_Allowed = yes
				NOT = {
					has_country_flag = Tobias_Picado_Cortes_unavailable
				}
			}
			traits = {
				ideology_D
				AM_Battle_Fleet_Proponent
			}
		}
		# Ricardo Jiménez Oreamuno
		COS_AM_Ricardo_Jimenez_Oreamuno = {
			picture = Ricardo_Jimenez_Oreamuno
			allowed = {
				tag = COS
			}
			available = {
				date > 1914.1.1
				date < 1933.1.1
				D_Minister_Allowed = yes
				NOT = {
					has_country_flag = Ricardo_Jimenez_Oreamuno_unavailable
				}
			}
			traits = {
				ideology_D
				AM_Administrative_Genius
			}
		}
		# Julio Acosta Garcia
		COS_AM_Julio_Acosta_Garcia = {
			picture = Julio_Acosta_Garcia
			allowed = {
				tag = COS
			}
			available = {
				date > 1933.1.1
				date < 1964.1.1
				D_Minister_Allowed = yes
				NOT = {
					has_country_flag = Julio_Acosta_Garcia_unavailable
				}
			}
			traits = {
				ideology_D
				AM_Military_Entrepreneur
			}
		}
		# Chico Orlich Bolmarich
		COS_AM_Chico_Orlich_Bolmarich = {
			picture = Chico_Orlich_Bolmarich
			allowed = {
				tag = COS
			}
			available = {
				date > 1940.1.1
				date < 1964.1.1
				D_Minister_Allowed = yes
				NOT = {
					has_country_flag = Chico_Orlich_Bolmarich_unavailable
				}
			}
			traits = {
				ideology_D
				AM_Tank_Proponent
			}
		}
		# Roberto Brenes Mesen
		COS_AM_Roberto_Brenes_Mesen = {
			picture = Roberto_Brenes_Mesen
			allowed = {
				tag = COS
			}
			available = {
				date > 1944.1.1
				date < 1964.1.1
				D_Minister_Allowed = yes
				NOT = {
					has_country_flag = Roberto_Brenes_Mesen_unavailable
				}
			}
			traits = {
				ideology_D
				AM_Infantry_Proponent
			}
		}
		# Tobias Zúñiaga Montúfar
		COS_AM_Tobias_Zuniaga_Montufar = {
			picture = Tobias_Zuniaga_Montufar
			allowed = {
				tag = COS
			}
			available = {
				date > 1947.1.1
				date < 1964.1.1
				D_Minister_Allowed = yes
				NOT = {
					has_country_flag = Tobias_Zuniaga_Montufar_unavailable
				}
			}
			traits = {
				ideology_D
				AM_Air_To_Ground_Proponent
			}
		}
		# Jose Figueres Ferrer
		COS_AM_Jose_Figueres_Ferrer = {
			picture = Jose_Figueres_Ferrer
			allowed = {
				tag = COS
			}
			available = {
				date > 1944.1.1
				date < 1964.1.1
				D_Minister_Allowed = yes
				NOT = {
					has_country_flag = Jose_Figueres_Ferrer_unavailable
				}
			}
			traits = {
				ideology_D
				AM_Administrative_Genius
			}
		}
		# Calufa Fallas Sinaja
		COS_AM_Calufa_Fallas_Sinaja = {
			picture = Calufa_Fallas_Sinaja
			allowed = {
				tag = COS
			}
			available = {
				date > 1947.1.1
				date < 1964.1.1
				D_Minister_Allowed = yes
				NOT = {
					has_country_flag = Calufa_Fallas_Sinaja_unavailable
				}
			}
			traits = {
				ideology_D
				AM_Submarine_Proponent
			}
		}
		# Ignacio Mendéz Alino
		COS_AM_Ignacio_Mendez_Alino_2 = {
			picture = Ignacio_Mendez_Alino_2
			allowed = {
				tag = COS
			}
			available = {
				date > 1947.1.1
				date < 1964.1.1
				S_Minister_Allowed = yes
				NOT = {
					has_country_flag = Ignacio_Mendez_Alino_unavailable
				}
			}
			traits = {
				ideology_S
				AM_Corrupt_Kleptocrat
			}
		}
		# Luís Fernandéz Rodríguez
		COS_AM_Luis_Fernandez_Rodriguez = {
			picture = Luis_Fernandez_Rodriguez
			allowed = {
				tag = COS
			}
			available = {
				date > 1940.1.1
				date < 1964.1.1
				C_Minister_Allowed = yes
				NOT = {
					has_country_flag = Luis_Fernandez_Rodriguez_unavailable
				}
			}
			traits = {
				ideology_C
				AM_Air_To_Ground_Proponent
			}
		}
	}
	#################################################
	### Head of Intelligence
	#################################################
	Head_of_Intelligence = {
		# Juan Bautista Quirós Segura
		COS_HoI_Juan_Bautista_Quiros_Segura = {
			picture = Juan_Bautista_Quiros_Segura
			allowed = {
				tag = COS
			}
			available = {
				date > 1914.1.1
				date < 1933.1.1
				A_Minister_Allowed = yes
				NOT = {
					has_country_flag = Juan_Bautista_Quiros_Segura_unavailable
				}
			}
			traits = {
				ideology_A
				HoI_Political_Specialist
			}
		}
		# José Mendéz Alino
		COS_HoI_Jose_Mendez_Alino = {
			picture = Jose_Mendez_Alino
			allowed = {
				tag = COS
			}
			available = {
				date > 1933.1.1
				date < 1964.1.1
				A_Minister_Allowed = yes
				NOT = {
					has_country_flag = Jose_Mendez_Alino_unavailable
				}
			}
			traits = {
				ideology_A
				HoI_Industrial_Specialist
			}
		}
		# Benjamin Nuñez Vargas
		COS_HoI_Benjamin_Nunez_Vargas = {
			picture = Benjamin_Nunez_Vargas
			allowed = {
				tag = COS
			}
			available = {
				date > 1933.1.1
				date < 1964.1.1
				D_Minister_Allowed = yes
				NOT = {
					has_country_flag = Benjamin_Nunez_Vargas_unavailable
				}
			}
			traits = {
				ideology_D
				HoI_Logistics_Specialist
			}
		}
		# Romualdo Pino Roja
		COS_HoI_Romualdo_Pino_Roja = {
			picture = Romualdo_Pino_Roja
			allowed = {
				tag = COS
			}
			available = {
				date > 1946.1.1
				date < 1964.1.1
				D_Minister_Allowed = yes
				NOT = {
					has_country_flag = Romualdo_Pino_Roja_unavailable
				}
			}
			traits = {
				ideology_D
				HoI_Dismal_Enigma
			}
		}
		# Federico Tinoco
		COS_HoI_Federico_Tinoco = {
			picture = Federico_Tinoco
			allowed = {
				tag = COS
			}
			available = {
				date > 1933.1.1
				date < 1964.1.1
				D_Minister_Allowed = yes
				NOT = {
					has_country_flag = Federico_Tinoco_unavailable
				}
			}
			traits = {
				ideology_D
				HoI_Industrial_Specialist
			}
		}
		# Romualdo Jímenez Oreamuno
		COS_HoI_Romualdo_Jimenez_Oreamuno = {
			picture = Romualdo_Jimenez_Oreamuno
			allowed = {
				tag = COS
			}
			available = {
				date > 1933.1.1
				date < 1964.1.1
				D_Minister_Allowed = yes
				NOT = {
					has_country_flag = Romualdo_Jimenez_Oreamuno_unavailable
				}
			}
			traits = {
				ideology_D
				HoI_Technical_Specialist
			}
		}
		# Raúl Gundían
		COS_HoI_Raul_Gundian = {
			picture = Raul_Gundian
			allowed = {
				tag = COS
			}
			available = {
				date > 1933.1.1
				date < 1964.1.1
				D_Minister_Allowed = yes
				NOT = {
					has_country_flag = Raul_Gundian_unavailable
				}
			}
			traits = {
				ideology_D
				HoI_Dismal_Enigma
			}
		}
		# Enrique Díaz Toledo
		COS_HoI_Enrique_Diaz_Toledo = {
			picture = Enrique_Diaz_Toledo
			allowed = {
				tag = COS
			}
			available = {
				date > 1944.1.1
				date < 1964.1.1
				D_Minister_Allowed = yes
				NOT = {
					has_country_flag = Enrique_Diaz_Toledo_unavailable
				}
			}
			traits = {
				ideology_D
				HoI_Logistics_Specialist
			}
		}
		# Tobias Zúñiaga Montúfar
		COS_HoI_Tobias_Zuniaga_Montufar = {
			picture = Tobias_Zuniaga_Montufar
			allowed = {
				tag = COS
			}
			available = {
				date > 1947.1.1
				date < 1964.1.1
				D_Minister_Allowed = yes
				NOT = {
					has_country_flag = Tobias_Zuniaga_Montufar_unavailable
				}
			}
			traits = {
				ideology_D
				HoI_Political_Specialist
			}
		}
		# Jose Figueres Ferrer
		COS_HoI_Jose_Figueres_Ferrer = {
			picture = Jose_Figueres_Ferrer
			allowed = {
				tag = COS
			}
			available = {
				date > 1944.1.1
				date < 1964.1.1
				D_Minister_Allowed = yes
				NOT = {
					has_country_flag = Jose_Figueres_Ferrer_unavailable
				}
			}
			traits = {
				ideology_D
				HoI_Political_Specialist
			}
		}
		# Miguel Ramirez Alcantara
		COS_HoI_Miguel_Ramirez_Alcantara = {
			picture = Miguel_Ramirez_Alcantara
			allowed = {
				tag = COS
			}
			available = {
				date > 1947.1.1
				date < 1964.1.1
				S_Minister_Allowed = yes
				NOT = {
					has_country_flag = Miguel_Ramirez_Alcantara_unavailable
				}
			}
			traits = {
				ideology_S
				HoI_Dismal_Enigma
			}
		}
		# Hugo Montés Ramirez
		COS_HoI_Hugo_Montes_Ramirez = {
			picture = Hugo_Montes_Ramirez
			allowed = {
				tag = COS
			}
			available = {
				date > 1940.1.1
				date < 1964.1.1
				C_Minister_Allowed = yes
				NOT = {
					has_country_flag = Hugo_Montes_Ramirez_unavailable
				}
			}
			traits = {
				ideology_C
				HoI_Logistics_Specialist
			}
		}
	}
	#################################################
	### Chief of Staff
	#################################################
	Chief_of_Staff = {
		# Federico Tinoco Granados
		COS_CoStaff_Federico_Tinoco_Granados = {
			picture = Federico_Tinoco_Granados
			allowed = {
				tag = COS
			}
			available = {
				date > 1914.1.1
				date < 1933.1.1
				A_Minister_Allowed = yes
				NOT = {
					has_country_flag = Federico_Tinoco_Granados_unavailable
				}
			}
			traits = {
				ideology_A
				CoStaff_School_Of_Manoeuvre
			}
		}
		# Jorge Volio Jimenéz
		COS_CoStaff_Jorge_Volio_Jimenez = {
			picture = Jorge_Volio_Jimenez
			allowed = {
				tag = COS
			}
			available = {
				date > 1944.1.1
				date < 1964.1.1
				D_Minister_Allowed = yes
				NOT = {
					has_country_flag = Jorge_Volio_Jimenez_unavailable
				}
			}
			traits = {
				ideology_D
				CoStaff_School_Of_Manoeuvre
			}
		}
		# Federico Tinoco
		COS_CoStaff_Federico_Tinoco = {
			picture = Federico_Tinoco
			allowed = {
				tag = COS
			}
			available = {
				date > 1933.1.1
				date < 1964.1.1
				D_Minister_Allowed = yes
				NOT = {
					has_country_flag = Federico_Tinoco_unavailable
				}
			}
			traits = {
				ideology_D
				CoStaff_School_Of_Defence
			}
		}
		# Alejandro de Castro Lopez
		COS_CoStaff_Alejandro_de_Castro_Lopez = {
			picture = Alejandro_de_Castro_Lopez
			allowed = {
				tag = COS
			}
			available = {
				date > 1947.1.1
				date < 1964.1.1
				D_Minister_Allowed = yes
				NOT = {
					has_country_flag = Alejandro_de_Castro_Lopez_unavailable
				}
			}
			traits = {
				ideology_D
				CoStaff_School_Of_Mass_Combat
			}
		}
		# Felipe Abreu Castro
		COS_CoStaff_Felipe_Abreu_Castro = {
			picture = Felipe_Abreu_Castro
			allowed = {
				tag = COS
			}
			available = {
				date > 1945.1.1
				date < 1964.1.1
				D_Minister_Allowed = yes
				NOT = {
					has_country_flag = Felipe_Abreu_Castro_unavailable
				}
			}
			traits = {
				ideology_D
				CoStaff_School_Of_Fire_Support
			}
		}
		# Jose Figueres Ferrer
		COS_CoStaff_Jose_Figueres_Ferrer = {
			picture = Jose_Figueres_Ferrer
			allowed = {
				tag = COS
			}
			available = {
				date > 1947.1.1
				date < 1964.1.1
				D_Minister_Allowed = yes
				NOT = {
					has_country_flag = Jose_Figueres_Ferrer_unavailable
				}
			}
			traits = {
				ideology_D
				CoStaff_School_Of_Mass_Combat
			}
		}
		# Miguel Ramirez Alcantara
		COS_CoStaff_Miguel_Ramirez_Alcantara = {
			picture = Miguel_Ramirez_Alcantara
			allowed = {
				tag = COS
			}
			available = {
				date > 1947.1.1
				date < 1964.1.1
				S_Minister_Allowed = yes
				NOT = {
					has_country_flag = Miguel_Ramirez_Alcantara_unavailable
				}
			}
			traits = {
				ideology_S
				CoStaff_School_Of_Fire_Support
			}
		}
		# Hugo Montés Ramirez
		COS_CoStaff_Hugo_Montes_Ramirez = {
			picture = Hugo_Montes_Ramirez
			allowed = {
				tag = COS
			}
			available = {
				date > 1940.1.1
				date < 1964.1.1
				C_Minister_Allowed = yes
				NOT = {
					has_country_flag = Hugo_Montes_Ramirez_unavailable
				}
			}
			traits = {
				ideology_C
				CoStaff_School_Of_Psychology
			}
		}
	}
	#################################################
	### Chief of Army
	#################################################
	Chief_of_Army = {
		# Federico Tinoco Granados
		COS_CoArmy_Federico_Tinoco_Granados = {
			picture = Federico_Tinoco_Granados
			allowed = {
				tag = COS
			}
			available = {
				date > 1914.1.1
				date < 1933.1.1
				A_Minister_Allowed = yes
				NOT = {
					has_country_flag = Federico_Tinoco_Granados_unavailable
				}
			}
			traits = {
				ideology_A
				CoArmy_Guns_And_Butter_Doctrine
			}
		}
		# Jaoquin Jose Tinoco Granados
		COS_CoArmy_Jaoquin_Jose_Tinoco_Granados = {
			picture = Jaoquin_Jose_Tinoco_Granados
			allowed = {
				tag = COS
			}
			available = {
				date > 1914.1.1
				date < 1933.1.1
				A_Minister_Allowed = yes
				NOT = {
					has_country_flag = Jaoquin_Jose_Tinoco_Granados_unavailable
				}
			}
			traits = {
				ideology_A
				CoArmy_Decisive_Battle_Doctrine
			}
		}
		# Baptista E. Gutierrez
		COS_CoArmy_Baptista_E_Gutierrez = {
			picture = Baptista_E_Gutierrez
			allowed = {
				tag = COS
			}
			available = {
				date > 1933.1.1
				date < 1964.1.1
				A_Minister_Allowed = yes
				NOT = {
					has_country_flag = Baptista_E_Gutierrez_unavailable
				}
			}
			traits = {
				ideology_A
				CoArmy_Elastic_Defence_Doctrine
			}
		}
		# Don Arnaldo Zamora
		COS_CoArmy_Don_Arnaldo_Zamora = {
			picture = Don_Arnaldo_Zamora
			allowed = {
				tag = COS
			}
			available = {
				date > 1940.1.1
				date < 1964.1.1
				D_Minister_Allowed = yes
				NOT = {
					has_country_flag = Don_Arnaldo_Zamora_unavailable
				}
			}
			traits = {
				ideology_D
				CoArmy_Guns_And_Butter_Doctrine
			}
		}
		# Jorge Volio Jimenéz
		COS_CoArmy_Jorge_Volio_Jimenez = {
			picture = Jorge_Volio_Jimenez
			allowed = {
				tag = COS
			}
			available = {
				date > 1944.1.1
				date < 1964.1.1
				D_Minister_Allowed = yes
				NOT = {
					has_country_flag = Jorge_Volio_Jimenez_unavailable
				}
			}
			traits = {
				ideology_D
				CoArmy_Armoured_Spearhead_Doctrine
			}
		}
		# Federico Tinoco
		COS_CoArmy_Federico_Tinoco = {
			picture = Federico_Tinoco
			allowed = {
				tag = COS
			}
			available = {
				date > 1933.1.1
				date < 1964.1.1
				D_Minister_Allowed = yes
				NOT = {
					has_country_flag = Federico_Tinoco_unavailable
				}
			}
			traits = {
				ideology_D
				CoArmy_Static_Defence_Doctrine
			}
		}
		# Tobias Zúñiaga Montúfar
		COS_CoArmy_Tobias_Zuniaga_Montufar = {
			picture = Tobias_Zuniaga_Montufar
			allowed = {
				tag = COS
			}
			available = {
				date > 1947.1.1
				date < 1964.1.1
				D_Minister_Allowed = yes
				NOT = {
					has_country_flag = Tobias_Zuniaga_Montufar_unavailable
				}
			}
			traits = {
				ideology_D
				CoArmy_Elastic_Defence_Doctrine
			}
		}
		# Jose Figueres Ferrer
		COS_CoArmy_Jose_Figueres_Ferrer = {
			picture = Jose_Figueres_Ferrer
			allowed = {
				tag = COS
			}
			available = {
				date > 1947.1.1
				date < 1964.1.1
				D_Minister_Allowed = yes
				NOT = {
					has_country_flag = Jose_Figueres_Ferrer_unavailable
				}
			}
			traits = {
				ideology_D
				CoArmy_Decisive_Battle_Doctrine
			}
		}
		# Francisco Rosendo Arguello
		COS_CoArmy_Francisco_Rosendo_Arguello = {
			picture = Francisco_Rosendo_Arguello
			allowed = {
				tag = COS
			}
			available = {
				date > 1947.1.1
				date < 1964.1.1
				S_Minister_Allowed = yes
				NOT = {
					has_country_flag = Francisco_Rosendo_Arguello_unavailable
				}
			}
			traits = {
				ideology_S
				CoArmy_Guns_And_Butter_Doctrine
			}
		}
		# Hugo Montés Ramirez
		COS_CoArmy_Hugo_Montes_Ramirez = {
			picture = Hugo_Montes_Ramirez
			allowed = {
				tag = COS
			}
			available = {
				date > 1940.1.1
				date < 1964.1.1
				C_Minister_Allowed = yes
				NOT = {
					has_country_flag = Hugo_Montes_Ramirez_unavailable
				}
			}
			traits = {
				ideology_C
				CoArmy_Decisive_Battle_Doctrine
			}
		}
	}
	#################################################
	### Chief of Navy
	#################################################
	Chief_of_Navy = {
		# Federico Tinoco Granados
		COS_CoNavy_Federico_Tinoco_Granados = {
			picture = Federico_Tinoco_Granados
			allowed = {
				tag = COS
			}
			available = {
				date > 1914.1.1
				date < 1933.1.1
				A_Minister_Allowed = yes
				NOT = {
					has_country_flag = Federico_Tinoco_Granados_unavailable
				}
			}
			traits = {
				ideology_A
				CoNavy_Power_Projection_Doctrine
			}
		}
		# Jaoquin Jose Tinoco Granados
		COS_CoNavy_Jaoquin_Jose_Tinoco_Granados = {
			picture = Jaoquin_Jose_Tinoco_Granados
			allowed = {
				tag = COS
			}
			available = {
				date > 1914.1.1
				date < 1933.1.1
				A_Minister_Allowed = yes
				NOT = {
					has_country_flag = Jaoquin_Jose_Tinoco_Granados_unavailable
				}
			}
			traits = {
				ideology_A
				CoNavy_Base_Control_Doctrine
			}
		}
		# Roberto Juarez Camposino
		COS_CoNavy_Roberto_Juarez_Camposino = {
			picture = Roberto_Juarez_Camposino
			allowed = {
				tag = COS
			}
			available = {
				date > 1933.1.1
				date < 1964.1.1
				D_Minister_Allowed = yes
				NOT = {
					has_country_flag = Roberto_Juarez_Camposino_unavailable
				}
			}
			traits = {
				ideology_D
				CoNavy_Open_Seas_Doctrine
			}
		}
		# Felipe Abreu Castro
		COS_CoNavy_Felipe_Abreu_Castro = {
			picture = Felipe_Abreu_Castro
			allowed = {
				tag = COS
			}
			available = {
				date > 1944.1.1
				date < 1964.1.1
				D_Minister_Allowed = yes
				NOT = {
					has_country_flag = Felipe_Abreu_Castro_unavailable
				}
			}
			traits = {
				ideology_D
				CoNavy_Power_Projection_Doctrine
			}
		}
		# Hugo Siedler Mendoza
		COS_CoNavy_Hugo_Siedler_Mendoza = {
			picture = Hugo_Siedler_Mendoza
			allowed = {
				tag = COS
			}
			available = {
				date > 1947.1.1
				date < 1964.1.1
				S_Minister_Allowed = yes
				NOT = {
					has_country_flag = Hugo_Siedler_Mendoza_unavailable
				}
			}
			traits = {
				ideology_S
				CoNavy_Indirect_Approach_Doctrine
			}
		}
		# Manuel Mora Valverde
		COS_CoNavy_Manuel_Mora_Valverde = {
			picture = Manuel_Mora_Valverde
			allowed = {
				tag = COS
			}
			available = {
				date > 1940.1.1
				date < 1964.1.1
				C_Minister_Allowed = yes
				NOT = {
					has_country_flag = Manuel_Mora_Valverde_unavailable
				}
			}
			traits = {
				ideology_C
				CoNavy_Base_Control_Doctrine
			}
		}
	}
	#################################################
	### Chief of Airforce
	#################################################
	Chief_of_Airforce = {
		# Carlos Uribé Alpoveda
		COS_CoAir_Carlos_Uribe_Alpoveda = {
			picture = Carlos_Uribe_Alpoveda
			allowed = {
				tag = COS
			}
			available = {
				date > 1933.1.1
				date < 1964.1.1
				D_Minister_Allowed = yes
				NOT = {
					has_country_flag = Carlos_Uribe_Alpoveda_unavailable
				}
			}
			traits = {
				ideology_D
				CoAir_Carpet_Bombing_Doctrine
			}
		}
		# Don Arnaldo Zamora
		COS_CoAir_Don_Arnaldo_Zamora = {
			picture = Don_Arnaldo_Zamora
			allowed = {
				tag = COS
			}
			available = {
				date > 1933.1.1
				date < 1964.1.1
				D_Minister_Allowed = yes
				NOT = {
					has_country_flag = Don_Arnaldo_Zamora_unavailable
				}
			}
			traits = {
				ideology_D
				CoAir_Army_Aviation_Doctrine
			}
		}
		# Guillermo Macho Nuñez
		COS_CoAir_Guillermo_Macho_Nunez = {
			picture = Guillermo_Macho_Nunez
			allowed = {
				tag = COS
			}
			available = {
				date > 1944.1.1
				date < 1964.1.1
				D_Minister_Allowed = yes
				NOT = {
					has_country_flag = Guillermo_Macho_Nunez_unavailable
				}
			}
			traits = {
				ideology_D
				CoAir_Air_Superiority_Doctrine
			}
		}
		# Oscar Padilla Sellean
		COS_CoAir_Oscar_Padilla_Sellean = {
			picture = Oscar_Padilla_Sellean
			allowed = {
				tag = COS
			}
			available = {
				date > 1933.1.1
				date < 1964.1.1
				S_Minister_Allowed = yes
				NOT = {
					has_country_flag = Oscar_Padilla_Sellean_unavailable
				}
			}
			traits = {
				ideology_S
				CoAir_Naval_Aviation_Doctrine
			}
		}
		# Oscar Padilla Sellean
		COS_CoAir_Oscar_Padilla_Sellean_2 = {
			picture = Oscar_Padilla_Sellean_2
			allowed = {
				tag = COS
			}
			available = {
				date > 1947.1.1
				date < 1964.1.1
				S_Minister_Allowed = yes
				NOT = {
					has_country_flag = Oscar_Padilla_Sellean_unavailable
				}
			}
			traits = {
				ideology_S
				CoAir_Naval_Aviation_Doctrine
			}
		}
		# Manuel Mora Valverde
		COS_CoAir_Manuel_Mora_Valverde = {
			picture = Manuel_Mora_Valverde
			allowed = {
				tag = COS
			}
			available = {
				date > 1940.1.1
				date < 1964.1.1
				C_Minister_Allowed = yes
				NOT = {
					has_country_flag = Manuel_Mora_Valverde_unavailable
				}
			}
			traits = {
				ideology_C
				CoAir_Army_Aviation_Doctrine
			}
		}
	}
}
