ideas = {
	#################################################
	### Head of Government
	#################################################
	Head_of_Government = {
		# Alfreds Valdmanis
		LAT_D_Alfreds_Valdmanis = {
			picture = Alfreds_Valdmanis
			allowed = {
				tag = LAT
			}
			available = {
				date > 1941.1.1
				date < 1964.1.1
				F_Minister_Allowed = yes
				NOT = {
					has_country_flag = Alfreds_Valdmanis_unavailable
				}
			}
			traits = {
				ideology_F
				L_Smiling_Oilman
			}
		}
		# Oskars Dankers
		LAT_D_Oskars_Dankers = {
			picture = Oskars_Dankers
			allowed = {
				tag = LAT
			}
			available = {
				date > 1941.1.1
				date < 1964.1.1
				F_Minister_Allowed = yes
				NOT = {
					has_country_flag = Oskars_Dankers_unavailable
				}
			}
			traits = {
				ideology_F
				L_Happy_Amateur
			}
		}
		LAT_D_Adolfs_Blodnieks = {
			picture = Adolfs_Blodnieks
			allowed = {
				tag = LAT
			}
			available = {
				date > 1933.1.1
				date < 1962.3.21
				F_Minister_Allowed = yes
				NOT = {
					has_country_flag = Adolfs_Blodnieks_unavailable
				}
			}
			traits = {
				ideology_F
				POSITION_Prime_Minister
				L_Happy_Amateur
			}
		}
		# Kàrlis Ulmanis
		LAT_D_Karlis_Ulmanis = {
			picture = Karlis_Ulmanis
			allowed = {
				tag = LAT
			}
			available = {
				date > 1933.1.1
				date < 1964.1.1
				A_Minister_Allowed = yes
				NOT = {
					has_country_flag = Karlis_Ulmanis_unavailable
				}
			}
			traits = {
				ideology_A
				POSITION_Prime_Minister
				L_Happy_Amateur
			}
		}
		# Margers Skujenieks
		LAT_D_Margers_Skujenieks = {
			picture = Margers_Skujenieks
			allowed = {
				tag = LAT
			}
			available = {
				date > 1933.1.1
				date < 1964.1.1
				A_Minister_Allowed = yes
				NOT = {
					has_country_flag = Margers_Skujenieks_unavailable
				}
			}
			traits = {
				ideology_A
				L_Naive_Optimist
				POSITION_Prime_Minister
			}
		}
		# Jànis Kaminskis
		LAT_D_Janis_Kaminskis = {
			picture = Janis_Kaminskis
			allowed = {
				tag = LAT
			}
			available = {
				date > 1940.1.1
				date < 1964.1.1
				F_Minister_Allowed = yes
				NOT = {
					has_country_flag = Janis_Kaminskis_unavailable
				}
			}
			traits = {
				ideology_F
				L_Naive_Optimist
			}
		}
		# Rudolfs Bangerskis
		LAT_D_Rudolfs_Bangerskis = {
			picture = Rudolfs_Bangerskis
			allowed = {
				tag = LAT
			}
			available = {
				date > 1945.1.1
				date < 1964.1.1
				A_Minister_Allowed = yes
				NOT = {
					has_country_flag = Rudolfs_Bangerskis_unavailable
				}
			}
			traits = {
				ideology_A
				L_Flamboyant_Tough_Guy
			}
		}
		# Pauls Kalniñs
		LAT_D_Pauls_Kalnins = {
			picture = Pauls_Kalnins
			allowed = {
				tag = LAT
			}
			available = {
				date > 1933.1.1
				date < 1964.1.1
				D_Minister_Allowed = yes
				NOT = {
					has_country_flag = Pauls_Kalnins_unavailable
				}
			}
			traits = {
				ideology_D
				L_Silent_Workhorse
			}
		}
		# Reinhold K. Zariñs
		LAT_D_Reinhold_K_Zarins = {
			picture = Reinhold_K_Zarins
			allowed = {
				tag = LAT
			}
			available = {
				date > 1940.1.1
				date < 1964.1.1
				D_Minister_Allowed = yes
				NOT = {
					has_country_flag = Reinhold_K_Zarins_unavailable
				}
			}
			traits = {
				ideology_D
				L_Political_Protege
			}
		}
		# Karlis Ulmanis
		LAT_D_Karlis_Ulmanis_2 = {
			picture = Karlis_Ulmanis_2
			allowed = {
				tag = LAT
			}
			available = {
				date > 1914.1.1
				date < 1933.1.1
				D_Minister_Allowed = yes
				NOT = {
					has_country_flag = Karlis_Ulmanis_unavailable
				}
			}
			traits = {
				ideology_D
				L_Corporate_Suit
			}
		}
		# Andrievs Niedra
		LAT_D_Andrievs_Niedra = {
			picture = Andrievs_Niedra
			allowed = {
				tag = LAT
			}
			available = {
				date > 1919.1.1
				date < 1933.1.1
				D_Minister_Allowed = yes
				NOT = {
					has_country_flag = Andrievs_Niedra_unavailable
				}
			}
			traits = {
				ideology_D
				L_Backroom_Backstabber
			}
		}
		# Zigfrïds Meierovics
		LAT_D_Zigfrids_Meierovics = {
			picture = Zigfrids_Meierovics
			allowed = {
				tag = LAT
			}
			available = {
				date > 1921.1.1
				date < 1933.1.1
				D_Minister_Allowed = yes
				NOT = {
					has_country_flag = Zigfrids_Meierovics_unavailable
				}
			}
			traits = {
				ideology_D
				L_Political_Protege
			}
		}
		# Janis Pauluks
		LAT_D_Janis_Pauluks = {
			picture = Janis_Pauluks
			allowed = {
				tag = LAT
			}
			available = {
				date > 1923.1.1
				date < 1933.1.1
				D_Minister_Allowed = yes
				NOT = {
					has_country_flag = Janis_Pauluks_unavailable
				}
			}
			traits = {
				ideology_D
				L_Smiling_Oilman
			}
		}
		# Ivars Godmanis
		LAT_D_Ivars_Godmanis = {
			picture = Ivars_Godmanis
			allowed = {
				tag = LAT
			}
			available = {
				date > 1990.1.1
				date < 2020.1.1
				D_Minister_Allowed = yes
				NOT = {
					has_country_flag = Ivars_Godmanis_unavailable
				}
			}
			traits = {
				ideology_D
				L_Naive_Optimist
			}
		}
		# Voldemars Zamuels
		LAT_D_Voldemars_Zamuels = {
			picture = Voldemars_Zamuels
			allowed = {
				tag = LAT
			}
			available = {
				date > 1924.1.1
				date < 1933.1.1
				D_Minister_Allowed = yes
				NOT = {
					has_country_flag = Voldemars_Zamuels_unavailable
				}
			}
			traits = {
				ideology_D
				L_Naive_Optimist
			}
		}
		# Augusts Kirchensteins
		LAT_D_Augusts_Kirchensteins = {
			picture = Augusts_Kirchensteins
			allowed = {
				tag = LAT
			}
			available = {
				date > 1933.1.1
				date < 1964.1.1
				C_Minister_Allowed = yes
				NOT = {
					has_country_flag = Augusts_Kirchensteins_unavailable
				}
			}
			traits = {
				ideology_C
				L_Silent_Workhorse
			}
		}
		# Janis Peive
		LAT_D_Janis_Peive = {
			picture = Janis_Peive
			allowed = {
				tag = LAT
			}
			available = {
				date > 1959.1.1
				date < 1964.1.1
				C_Minister_Allowed = yes
				NOT = {
					has_country_flag = Janis_Peive_unavailable
				}
			}
			traits = {
				ideology_C
				L_Ambitious_Union_Boss
			}
		}
		# Vitalijs Rubenis
		LAT_D_Vitalijs_Rubenis = {
			picture = Vitalijs_Rubenis
			allowed = {
				tag = LAT
			}
			available = {
				date > 1962.1.1
				date < 1964.1.1
				C_Minister_Allowed = yes
				NOT = {
					has_country_flag = Vitalijs_Rubenis_unavailable
				}
			}
			traits = {
				ideology_C
				L_Old_Airmarshal
			}
		}
		# Peteris Strautmanis
		LAT_D_Peteris_Strautmanis = {
			picture = Peteris_Strautmanis
			allowed = {
				tag = LAT
			}
			available = {
				date > 1974.1.1
				date < 1985.1.1
				C_Minister_Allowed = yes
				NOT = {
					has_country_flag = Peteris_Strautmanis_unavailable
				}
			}
			traits = {
				ideology_C
				L_Political_Protege
			}
		}
		# Janis Vagris
		LAT_D_Janis_Vagris = {
			picture = Janis_Vagris
			allowed = {
				tag = LAT
			}
			available = {
				date > 1985.1.1
				date < 2020.1.1
				C_Minister_Allowed = yes
				NOT = {
					has_country_flag = Janis_Vagris_unavailable
				}
			}
			traits = {
				ideology_C
				L_Flamboyant_Tough_Guy
			}
		}
		# Anatolijs Gorbunovs
		LAT_D_Anatolijs_Gorbunovs = {
			picture = Anatolijs_Gorbunovs
			allowed = {
				tag = LAT
			}
			available = {
				date > 1988.1.1
				date < 2020.1.1
				C_Minister_Allowed = yes
				NOT = {
					has_country_flag = Anatolijs_Gorbunovs_unavailable
				}
			}
			traits = {
				ideology_C
				L_Old_General
			}
		}
		# Peteris Stucka
		LAT_D_Peteris_Stucka = {
			picture = Peteris_Stucka
			allowed = {
				tag = LAT
			}
			available = {
				date > 1914.1.1
				date < 1933.1.1
				C_Minister_Allowed = yes
				NOT = {
					has_country_flag = Peteris_Stucka_unavailable
				}
			}
			traits = {
				ideology_C
				L_Ambitious_Union_Boss
			}
		}
		# Roberts Osis
		LAT_D_Roberts_Osis = {
			picture = Roberts_Osis
			allowed = {
				tag = LAT
			}
			available = {
				date > 1945.1.1
				date < 1964.1.1
				C_Minister_Allowed = yes
				NOT = {
					has_country_flag = Roberts_Osis_unavailable
				}
			}
			traits = {
				ideology_C
				L_Old_General
			}
		}
		# Vilis Làcis
		LAT_D_Vilis_Lacis = {
			picture = Vilis_Lacis
			allowed = {
				tag = LAT
			}
			available = {
				date > 1946.1.1
				date < 1964.1.1
				C_Minister_Allowed = yes
				NOT = {
					has_country_flag = Vilis_Lacis_unavailable
				}
			}
			traits = {
				ideology_C
				L_Backroom_Backstabber
			}
		}
		# Andrey Vyshinsky
		LAT_D_Andrey_Vyshinsky = {
			picture = Andrey_Vyshinsky
			allowed = {
				tag = LAT
			}
			visible = {
				has_government = communist
				date > 1933.1.1
				date < 1964.1.1
				C_Minister_Allowed = yes
				NOT = {
					has_country_flag = Andrey_Vyshinsky_unavailable
				}
			}
			traits = {
				ideology_C
				POSITION_Soviet_Envoy
				L_Local_Tyrant
			}
		}
	}
	#################################################
	### Foreign Minister
	#################################################
	Foreign_Minister = {
		# Alfreds Valdmanis
		LAT_FM_Alfreds_Valdmanis = {
			picture = Alfreds_Valdmanis
			allowed = {
				tag = LAT
			}
			available = {
				date > 1941.1.1
				date < 1964.1.1
				F_Minister_Allowed = yes
				NOT = {
					has_country_flag = Alfreds_Valdmanis_unavailable
				}
			}
			traits = {
				ideology_F
				FM_Iron_Fisted_Brute
			}
		}
		# Oskars Dankers
		LAT_FM_Oskars_Dankers = {
			picture = Oskars_Dankers
			allowed = {
				tag = LAT
			}
			available = {
				date > 1941.1.1
				date < 1964.1.1
				F_Minister_Allowed = yes
				NOT = {
					has_country_flag = Oskars_Dankers_unavailable
				}
			}
			traits = {
				ideology_F
				FM_General_Staffer
			}
		}
		# Màrtiñs Prïmanis
		LAT_FM_Martins_Primanis = {
			picture = Martins_Primanis
			allowed = {
				tag = LAT
			}
			available = {
				date > 1944.1.1
				date < 1964.1.1
				F_Minister_Allowed = yes
				NOT = {
					has_country_flag = Martins_Primanis_unavailable
				}
			}
			traits = {
				ideology_F
				FM_Ideological_Crusader
			}
		}
		# Kàrlis Ulmanis
		LAT_FM_Karlis_Ulmanis = {
			picture = Karlis_Ulmanis
			allowed = {
				tag = LAT
			}
			available = {
				date > 1933.1.1
				date < 1964.1.1
				F_Minister_Allowed = yes
				NOT = {
					has_country_flag = Karlis_Ulmanis_unavailable
				}
			}
			traits = {
				ideology_F
				FM_Biased_Intellectual
			}
		}
		# Vilhelms Munters
		LAT_FM_Vilhelms_Munters = {
			picture = Vilhelms_Munters
			allowed = {
				tag = LAT
			}
			available = {
				date > 1933.1.1
				date < 1964.1.1
				F_Minister_Allowed = yes
				NOT = {
					has_country_flag = Vilhelms_Munters_unavailable
				}
			}
			traits = {
				ideology_F
				FM_Great_Compromiser
			}
		}
		# Jànis Kaminskis
		LAT_FM_Janis_Kaminskis = {
			picture = Janis_Kaminskis
			allowed = {
				tag = LAT
			}
			available = {
				date > 1945.1.1
				date < 1964.1.1
				A_Minister_Allowed = yes
				NOT = {
					has_country_flag = Janis_Kaminskis_unavailable
				}
			}
			traits = {
				ideology_A
				FM_Iron_Fisted_Brute
			}
		}
		# Reinhold K. Zariñs
		LAT_FM_Reinhold_K_Zarins = {
			picture = Reinhold_K_Zarins
			allowed = {
				tag = LAT
			}
			available = {
				date > 1933.1.1
				date < 1964.1.1
				D_Minister_Allowed = yes
				NOT = {
					has_country_flag = Reinhold_K_Zarins_unavailable
				}
			}
			traits = {
				ideology_D
				FM_Apologetic_Clerk
			}
		}
		# Alfreds Bïlmanis
		LAT_FM_Alfreds_Bilmanis = {
			picture = Alfreds_Bilmanis
			allowed = {
				tag = LAT
			}
			available = {
				date > 1940.1.1
				date < 1964.1.1
				D_Minister_Allowed = yes
				NOT = {
					has_country_flag = Alfreds_Bilmanis_unavailable
				}
			}
			traits = {
				ideology_D
				FM_Biased_Intellectual
			}
		}
		# Zigfrids Meierovics
		LAT_FM_Zigfrids_Meierovics = {
			picture = Zigfrids_Meierovics
			allowed = {
				tag = LAT
			}
			available = {
				date > 1914.1.1
				date < 1933.1.1
				D_Minister_Allowed = yes
				NOT = {
					has_country_flag = Zigfrids_Meierovics_unavailable
				}
			}
			traits = {
				ideology_D
				FM_Great_Compromiser
			}
		}
		# Georgs Andrejevs
		LAT_FM_Georgs_Andrejevs = {
			picture = Georgs_Andrejevs
			allowed = {
				tag = LAT
			}
			available = {
				date > 1985.1.1
				date < 2020.1.1
				D_Minister_Allowed = yes
				NOT = {
					has_country_flag = Georgs_Andrejevs_unavailable
				}
			}
			traits = {
				ideology_D
				FM_Great_Compromiser
			}
		}
		# Kàrlis Seja
		LAT_FM_Karlis_Seja = {
			picture = Karlis_Seja
			allowed = {
				tag = LAT
			}
			available = {
				date > 1924.1.1
				date < 1933.1.1
				D_Minister_Allowed = yes
				NOT = {
					has_country_flag = Karlis_Seja_unavailable
				}
			}
			traits = {
				ideology_D
				FM_Ideological_Crusader
			}
		}
		# Julijcs Lacis
		LAT_FM_Julijcs_Lacis = {
			picture = Julijcs_Lacis
			allowed = {
				tag = LAT
			}
			available = {
				date > 1933.1.1
				date < 1964.1.1
				C_Minister_Allowed = yes
				NOT = {
					has_country_flag = Julijcs_Lacis_unavailable
				}
			}
			traits = {
				ideology_C
				FM_Great_Compromiser
			}
		}
		# Augusts Kirchensteins
		LAT_FM_Augusts_Kirchensteins = {
			picture = Augusts_Kirchensteins
			allowed = {
				tag = LAT
			}
			available = {
				date > 1940.1.1
				date < 1964.1.1
				C_Minister_Allowed = yes
				NOT = {
					has_country_flag = Augusts_Kirchensteins_unavailable
				}
			}
			traits = {
				ideology_C
				FM_Ideological_Crusader
			}
		}
		# Peteris Stucka
		LAT_FM_Peteris_Stucka = {
			picture = Peteris_Stucka
			allowed = {
				tag = LAT
			}
			available = {
				date > 1914.1.1
				date < 1933.1.1
				C_Minister_Allowed = yes
				NOT = {
					has_country_flag = Peteris_Stucka_unavailable
				}
			}
			traits = {
				ideology_C
				FM_Ideological_Crusader
			}
		}
		# Arnolds Skrebers
		LAT_FM_Arnolds_Skrebers = {
			picture = Arnolds_Skrebers
			allowed = {
				tag = LAT
			}
			available = {
				date > 1945.1.1
				date < 1964.1.1
				C_Minister_Allowed = yes
				NOT = {
					has_country_flag = Arnolds_Skrebers_unavailable
				}
			}
			traits = {
				ideology_C
				FM_Great_Compromiser
			}
		}
		# Peteris Valeskalns
		LAT_FM_Peteris_Valeskalns = {
			picture = Peteris_Valeskalns
			allowed = {
				tag = LAT
			}
			available = {
				date > 1946.1.1
				date < 1964.1.1
				C_Minister_Allowed = yes
				NOT = {
					has_country_flag = Peteris_Valeskalns_unavailable
				}
			}
			traits = {
				ideology_C
				FM_Ideological_Crusader
			}
		}
		# Ernests Kreismanis
		LAT_FM_Ernests_Kreismanis = {
			picture = Ernests_Kreismanis
			allowed = {
				tag = LAT
			}
			available = {
				date > 1947.1.1
				date < 1964.1.1
				C_Minister_Allowed = yes
				NOT = {
					has_country_flag = Ernests_Kreismanis_unavailable
				}
			}
			traits = {
				ideology_C
				FM_The_Cloak_N_Dagger_Schemer
			}
		}
		# Augusts Kirhensteins
		LAT_FM_Augusts_Kirhensteins = {
			picture = Augusts_Kirhensteins
			allowed = {
				tag = LAT
			}
			visible = {
				has_government = communist
				date > 1933.1.1
				date < 1964.1.1
				C_Minister_Allowed = yes
				NOT = {
					has_country_flag = Augusts_Kirhensteins_unavailable
				}
			}
			traits = {
				ideology_C
				FM_Inexperienced_Optimist
			}
		}
	}
	#################################################
	### Minister of Security
	#################################################
	Minister_of_Security = {
		# Alfreds Valdmanis
		LAT_MoS_Alfreds_Valdmanis = {
			picture = Alfreds_Valdmanis
			allowed = {
				tag = LAT
			}
			available = {
				date > 1941.1.1
				date < 1964.1.1
				F_Minister_Allowed = yes
				NOT = {
					has_country_flag = Alfreds_Valdmanis_unavailable
				}
			}
			traits = {
				ideology_F
				MoS_Crime_Fighter
			}
		}
		# Teodors Zvejnieks
		LAT_MoS_Teodors_Zvejnieks = {
			picture = Teodors_Zvejnieks
			allowed = {
				tag = LAT
			}
			available = {
				date > 1941.1.1
				date < 1964.1.1
				F_Minister_Allowed = yes
				NOT = {
					has_country_flag = Teodors_Zvejnieks_unavailable
				}
			}
			traits = {
				ideology_F
				MoS_Efficient_Sociopath
			}
		}
		# Alberts Kviesis
		LAT_MoS_Alberts_Kviesis = {
			picture = Alberts_Kviesis
			allowed = {
				tag = LAT
			}
			available = {
				date > 1943.1.1
				date < 1964.1.1
				F_Minister_Allowed = yes
				NOT = {
					has_country_flag = Alberts_Kviesis_unavailable
				}
			}
			traits = {
				ideology_F
				MoS_Man_Of_The_People
			}
		}
		# Vilis Gulbis
		LAT_MoS_Vilis_Gulbis = {
			picture = Vilis_Gulbis
			allowed = {
				tag = LAT
			}
			available = {
				date > 1933.1.1
				date < 1964.1.1
				F_Minister_Allowed = yes
				NOT = {
					has_country_flag = Vilis_Gulbis_unavailable
				}
			}
			traits = {
				ideology_F
				MoS_Crime_Fighter
			}
		}
		# Hermanis Apsitis
		LAT_MoS_Hermanis_Apsitis = {
			picture = Hermanis_Apsitis
			allowed = {
				tag = LAT
			}
			available = {
				date > 1933.1.1
				date < 1964.1.1
				F_Minister_Allowed = yes
				NOT = {
					has_country_flag = Hermanis_Apsitis_unavailable
				}
			}
			traits = {
				ideology_F
				MoS_Prince_Of_Terror
			}
		}
		# Jànis Balodis
		LAT_MoS_Janis_Balodis = {
			picture = Janis_Balodis
			allowed = {
				tag = LAT
			}
			available = {
				date > 1940.1.1
				date < 1964.1.1
				F_Minister_Allowed = yes
				NOT = {
					has_country_flag = Janis_Balodis_unavailable
				}
			}
			traits = {
				ideology_F
				MoS_Man_Of_The_People
			}
		}
		# Janis Andersons
		LAT_MoS_Janis_Andersons = {
			picture = Janis_Andersons
			allowed = {
				tag = LAT
			}
			available = {
				date > 1945.1.1
				date < 1964.1.1
				A_Minister_Allowed = yes
				NOT = {
					has_country_flag = Janis_Andersons_unavailable
				}
			}
			traits = {
				ideology_A
				MoS_Crooked_Kleptocrat
			}
		}
		# Pauls Kalniñs
		LAT_MoS_Pauls_Kalnins = {
			picture = Pauls_Kalnins
			allowed = {
				tag = LAT
			}
			available = {
				date > 1933.1.1
				date < 1964.1.1
				D_Minister_Allowed = yes
				NOT = {
					has_country_flag = Pauls_Kalnins_unavailable
				}
			}
			traits = {
				ideology_D
				MoS_Efficient_Sociopath
			}
		}
		# Jazeps Rancans
		LAT_MoS_Jazeps_Rancans = {
			picture = Jazeps_Rancans
			allowed = {
				tag = LAT
			}
			available = {
				date > 1945.1.1
				date < 1964.1.1
				D_Minister_Allowed = yes
				NOT = {
					has_country_flag = Jazeps_Rancans_unavailable
				}
			}
			traits = {
				ideology_D
				MoS_Man_Of_The_People
			}
		}
		# Mikelis Valters
		LAT_MoS_Mikelis_Valters = {
			picture = Mikelis_Valters
			allowed = {
				tag = LAT
			}
			available = {
				date > 1914.1.1
				date < 1933.1.1
				D_Minister_Allowed = yes
				NOT = {
					has_country_flag = Mikelis_Valters_unavailable
				}
			}
			traits = {
				ideology_D
				MoS_Man_Of_The_People
			}
		}
		# Arveds Bergs
		LAT_MoS_Arveds_Bergs = {
			picture = Arveds_Bergs
			allowed = {
				tag = LAT
			}
			available = {
				date > 1919.1.1
				date < 1933.1.1
				D_Minister_Allowed = yes
				NOT = {
					has_country_flag = Arveds_Bergs_unavailable
				}
			}
			traits = {
				ideology_D
				MoS_Compassionate_Gentleman
			}
		}
		# Alfreds Birznieks
		LAT_MoS_Alfreds_Birznieks = {
			picture = Alfreds_Birznieks
			allowed = {
				tag = LAT
			}
			available = {
				date > 1919.1.1
				date < 1933.1.1
				D_Minister_Allowed = yes
				NOT = {
					has_country_flag = Alfreds_Birznieks_unavailable
				}
			}
			traits = {
				ideology_D
				MoS_Crime_Fighter
			}
		}
		# Alberts Kviesis
		LAT_MoS_Alberts_Kviesis_2 = {
			picture = Alberts_Kviesis_2
			allowed = {
				tag = LAT
			}
			available = {
				date > 1921.1.1
				date < 1933.1.1
				D_Minister_Allowed = yes
				NOT = {
					has_country_flag = Alberts_Kviesis_unavailable
				}
			}
			traits = {
				ideology_D
				MoS_Compassionate_Gentleman
			}
		}
		# Peteris Bergis
		LAT_MoS_Peteris_Bergis = {
			picture = Peteris_Bergis
			allowed = {
				tag = LAT
			}
			available = {
				date > 1923.1.1
				date < 1933.1.1
				D_Minister_Allowed = yes
				NOT = {
					has_country_flag = Peteris_Bergis_unavailable
				}
			}
			traits = {
				ideology_D
				MoS_Crime_Fighter
			}
		}
		# Talavs Jundzis
		LAT_MoS_Talavs_Jundzis = {
			picture = Talavs_Jundzis
			allowed = {
				tag = LAT
			}
			available = {
				date > 1985.1.1
				date < 2020.1.1
				D_Minister_Allowed = yes
				NOT = {
					has_country_flag = Talavs_Jundzis_unavailable
				}
			}
			traits = {
				ideology_D
				MoS_Crime_Fighter
			}
		}
		# Edvards-Kàrlis Laimiñs
		LAT_MoS_EdvardsKarlis_Laimins = {
			picture = EdvardsKarlis_Laimins
			allowed = {
				tag = LAT
			}
			available = {
				date > 1924.1.1
				date < 1933.1.1
				D_Minister_Allowed = yes
				NOT = {
					has_country_flag = EdvardsKarlis_Laimins_unavailable
				}
			}
			traits = {
				ideology_D
				MoS_Silent_Lawyer
			}
		}
		# Jurijs Rabersz
		LAT_MoS_Jurijs_Rabersz = {
			picture = Jurijs_Rabersz
			allowed = {
				tag = LAT
			}
			available = {
				date > 1933.1.1
				date < 1964.1.1
				C_Minister_Allowed = yes
				NOT = {
					has_country_flag = Jurijs_Rabersz_unavailable
				}
			}
			traits = {
				ideology_C
				MoS_Compassionate_Gentleman
			}
		}
		# Jànis Lencmanis
		LAT_MoS_Janis_Lencmanis = {
			picture = Janis_Lencmanis
			allowed = {
				tag = LAT
			}
			available = {
				date > 1914.1.1
				date < 1933.1.1
				C_Minister_Allowed = yes
				NOT = {
					has_country_flag = Janis_Lencmanis_unavailable
				}
			}
			traits = {
				ideology_C
				MoS_Prince_Of_Terror
			}
		}
		# Rodolfs Rocin
		LAT_MoS_Rodolfs_Rocin = {
			picture = Rodolfs_Rocin
			allowed = {
				tag = LAT
			}
			available = {
				date > 1945.1.1
				date < 1964.1.1
				C_Minister_Allowed = yes
				NOT = {
					has_country_flag = Rodolfs_Rocin_unavailable
				}
			}
			traits = {
				ideology_C
				MoS_Silent_Lawyer
			}
		}
		# Andrejs Jablonskis
		LAT_MoS_Andrejs_Jablonskis = {
			picture = Andrejs_Jablonskis
			allowed = {
				tag = LAT
			}
			available = {
				date > 1946.1.1
				date < 1964.1.1
				C_Minister_Allowed = yes
				NOT = {
					has_country_flag = Andrejs_Jablonskis_unavailable
				}
			}
			traits = {
				ideology_C
				MoS_Prince_Of_Terror
			}
		}
		# Vilis Lacis
		LAT_MoS_Vilis_Lacis = {
			picture = Vilis_Lacis
			allowed = {
				tag = LAT
			}
			visible = {
				has_government = communist
				date > 1933.1.1
				date < 1964.1.1
				C_Minister_Allowed = yes
				NOT = {
					has_country_flag = Vilis_Lacis_unavailable
				}
			}
			traits = {
				ideology_C
				MoS_Ruthless_Organizer
			}
		}
	}
	#################################################
	### Armaments Minister
	#################################################
	Armaments_Minister = {
		# Evalds Andersons
		LAT_AM_Evalds_Andersons = {
			picture = Evalds_Andersons
			allowed = {
				tag = LAT
			}
			available = {
				date > 1941.1.1
				date < 1964.1.1
				F_Minister_Allowed = yes
				NOT = {
					has_country_flag = Evalds_Andersons_unavailable
				}
			}
			traits = {
				ideology_F
				AM_Military_Entrepreneur
			}
		}
		# Jànis Skujevics
		LAT_AM_Janis_Skujevics = {
			picture = Janis_Skujevics
			allowed = {
				tag = LAT
			}
			available = {
				date > 1941.1.1
				date < 1964.1.1
				F_Minister_Allowed = yes
				NOT = {
					has_country_flag = Janis_Skujevics_unavailable
				}
			}
			traits = {
				ideology_F
				AM_Resource_Industrialist
			}
		}
		# Jànis Miezis
		LAT_AM_Janis_Miezis = {
			picture = Janis_Miezis
			allowed = {
				tag = LAT
			}
			available = {
				date > 1944.1.1
				date < 1964.1.1
				F_Minister_Allowed = yes
				NOT = {
					has_country_flag = Janis_Miezis_unavailable
				}
			}
			traits = {
				ideology_F
				AM_Infantry_Proponent
			}
		}
		# Vilis Gulbis
		LAT_AM_Vilis_Gulbis = {
			picture = Vilis_Gulbis
			allowed = {
				tag = LAT
			}
			available = {
				date > 1933.1.1
				date < 1964.1.1
				F_Minister_Allowed = yes
				NOT = {
					has_country_flag = Vilis_Gulbis_unavailable
				}
			}
			traits = {
				ideology_F
				AM_Air_To_Sea_Proponent
			}
		}
		# Kornelijs Veidnieks
		LAT_AM_Kornelijs_Veidnieks = {
			picture = Kornelijs_Veidnieks
			allowed = {
				tag = LAT
			}
			available = {
				date > 1938.1.1
				date < 1964.1.1
				F_Minister_Allowed = yes
				NOT = {
					has_country_flag = Kornelijs_Veidnieks_unavailable
				}
			}
			traits = {
				ideology_F
				AM_Air_Superiority_Proponent
			}
		}
		# Jànis Kaminskis
		LAT_AM_Janis_Kaminskis = {
			picture = Janis_Kaminskis
			allowed = {
				tag = LAT
			}
			available = {
				date > 1939.1.1
				date < 1964.1.1
				F_Minister_Allowed = yes
				NOT = {
					has_country_flag = Janis_Kaminskis_unavailable
				}
			}
			traits = {
				ideology_F
				AM_Resource_Industrialist
			}
		}
		# Alfreds Valdmanis
		LAT_AM_Alfreds_Valdmanis = {
			picture = Alfreds_Valdmanis
			allowed = {
				tag = LAT
			}
			available = {
				date > 1940.1.1
				date < 1964.1.1
				F_Minister_Allowed = yes
				NOT = {
					has_country_flag = Alfreds_Valdmanis_unavailable
				}
			}
			traits = {
				ideology_F
				AM_Administrative_Genius
			}
		}
		# Ludvigs Ctis
		LAT_AM_Ludvigs_Ctis = {
			picture = Ludvigs_Ctis
			allowed = {
				tag = LAT
			}
			available = {
				date > 1933.1.1
				date < 1964.1.1
				A_Minister_Allowed = yes
				NOT = {
					has_country_flag = Ludvigs_Ctis_unavailable
				}
			}
			traits = {
				ideology_A
				AM_Infantry_Proponent
			}
		}
		# Petrus Apskalns
		LAT_AM_Petrus_Apskalns = {
			picture = Petrus_Apskalns
			allowed = {
				tag = LAT
			}
			available = {
				date > 1933.1.1
				date < 1964.1.1
				D_Minister_Allowed = yes
				NOT = {
					has_country_flag = Petrus_Apskalns_unavailable
				}
			}
			traits = {
				ideology_D
				AM_Infantry_Proponent
			}
		}
		# Edgars Andersons
		LAT_AM_Edgars_Andersons = {
			picture = Edgars_Andersons
			allowed = {
				tag = LAT
			}
			available = {
				date > 1945.1.1
				date < 1964.1.1
				D_Minister_Allowed = yes
				NOT = {
					has_country_flag = Edgars_Andersons_unavailable
				}
			}
			traits = {
				ideology_D
				AM_Military_Entrepreneur
			}
		}
		# Kàrlis Puriks
		LAT_AM_Karlis_Puriks = {
			picture = Karlis_Puriks
			allowed = {
				tag = LAT
			}
			available = {
				date > 1914.1.1
				date < 1933.1.1
				D_Minister_Allowed = yes
				NOT = {
					has_country_flag = Karlis_Puriks_unavailable
				}
			}
			traits = {
				ideology_D
				AM_Military_Entrepreneur
			}
		}
		# Roberts Erhards
		LAT_AM_Roberts_Erhards = {
			picture = Roberts_Erhards
			allowed = {
				tag = LAT
			}
			available = {
				date > 1919.1.1
				date < 1933.1.1
				D_Minister_Allowed = yes
				NOT = {
					has_country_flag = Roberts_Erhards_unavailable
				}
			}
			traits = {
				ideology_D
				AM_Infantry_Proponent
			}
		}
		# Ringlods Kalnings
		LAT_AM_Ringlods_Kalnings = {
			picture = Ringlods_Kalnings
			allowed = {
				tag = LAT
			}
			available = {
				date > 1921.1.1
				date < 1933.1.1
				D_Minister_Allowed = yes
				NOT = {
					has_country_flag = Ringlods_Kalnings_unavailable
				}
			}
			traits = {
				ideology_D
				AM_Laissez-faire_Capitalist
			}
		}
		# Alfreds Riekstiks
		LAT_AM_Alfreds_Riekstiks = {
			picture = Alfreds_Riekstiks
			allowed = {
				tag = LAT
			}
			available = {
				date > 1922.1.1
				date < 1933.1.1
				D_Minister_Allowed = yes
				NOT = {
					has_country_flag = Alfreds_Riekstiks_unavailable
				}
			}
			traits = {
				ideology_D
				AM_Administrative_Genius
			}
		}
		# Hermanis Punga
		LAT_AM_Hermanis_Punga = {
			picture = Hermanis_Punga
			allowed = {
				tag = LAT
			}
			available = {
				date > 1923.1.1
				date < 1933.1.1
				D_Minister_Allowed = yes
				NOT = {
					has_country_flag = Hermanis_Punga_unavailable
				}
			}
			traits = {
				ideology_D
				AM_Laissez-faire_Capitalist
			}
		}
		# Ansis Busnevics
		LAT_AM_Ansis_Busnevics = {
			picture = Ansis_Busnevics
			allowed = {
				tag = LAT
			}
			available = {
				date > 1923.1.1
				date < 1933.1.1
				D_Minister_Allowed = yes
				NOT = {
					has_country_flag = Ansis_Busnevics_unavailable
				}
			}
			traits = {
				ideology_D
				AM_Administrative_Genius
			}
		}
		# Talavs Jundzis
		LAT_AM_Talavs_Jundzis = {
			picture = Talavs_Jundzis
			allowed = {
				tag = LAT
			}
			available = {
				date > 1985.1.1
				date < 2020.1.1
				D_Minister_Allowed = yes
				NOT = {
					has_country_flag = Talavs_Jundzis_unavailable
				}
			}
			traits = {
				ideology_D
				AM_Infantry_Proponent
			}
		}
		# Jànis Blumbergs
		LAT_AM_Janis_Blumbergs = {
			picture = Janis_Blumbergs
			allowed = {
				tag = LAT
			}
			available = {
				date > 1924.1.1
				date < 1933.1.1
				D_Minister_Allowed = yes
				NOT = {
					has_country_flag = Janis_Blumbergs_unavailable
				}
			}
			traits = {
				ideology_D
				AM_Resource_Industrialist
			}
		}
		# Roberts Dambïtis
		LAT_AM_Roberts_Dambitis = {
			picture = Roberts_Dambitis
			allowed = {
				tag = LAT
			}
			available = {
				date > 1933.1.1
				date < 1964.1.1
				C_Minister_Allowed = yes
				NOT = {
					has_country_flag = Roberts_Dambitis_unavailable
				}
			}
			traits = {
				ideology_C
				AM_Resource_Industrialist
			}
		}
		# Kàrlis Karlsons
		LAT_AM_Karlis_Karlsons = {
			picture = Karlis_Karlsons
			allowed = {
				tag = LAT
			}
			available = {
				date > 1940.1.1
				date < 1964.1.1
				C_Minister_Allowed = yes
				NOT = {
					has_country_flag = Karlis_Karlsons_unavailable
				}
			}
			traits = {
				ideology_C
				AM_Military_Entrepreneur
			}
		}
		# Rudolfs Endrups
		LAT_AM_Rudolfs_Endrups = {
			picture = Rudolfs_Endrups
			allowed = {
				tag = LAT
			}
			available = {
				date > 1914.1.1
				date < 1933.1.1
				C_Minister_Allowed = yes
				NOT = {
					has_country_flag = Rudolfs_Endrups_unavailable
				}
			}
			traits = {
				ideology_C
				AM_Resource_Industrialist
			}
		}
		# Aleksandrs Bulle
		LAT_AM_Aleksandrs_Bulle = {
			picture = Aleksandrs_Bulle
			allowed = {
				tag = LAT
			}
			available = {
				date > 1945.1.1
				date < 1964.1.1
				C_Minister_Allowed = yes
				NOT = {
					has_country_flag = Aleksandrs_Bulle_unavailable
				}
			}
			traits = {
				ideology_C
				AM_Laissez-faire_Capitalist
			}
		}
		# Arnolds Tabaks
		LAT_AM_Arnolds_Tabaks = {
			picture = Arnolds_Tabaks
			allowed = {
				tag = LAT
			}
			available = {
				date > 1946.1.1
				date < 1964.1.1
				C_Minister_Allowed = yes
				NOT = {
					has_country_flag = Arnolds_Tabaks_unavailable
				}
			}
			traits = {
				ideology_C
				AM_Resource_Industrialist
			}
		}
		# Julijs Lacis
		LAT_AM_Julijs_Lacis = {
			picture = Julijs_Lacis
			allowed = {
				tag = LAT
			}
			visible = {
				has_government = communist
				date > 1933.1.1
				date < 1964.1.1
				C_Minister_Allowed = yes
				NOT = {
					has_country_flag = Julijs_Lacis_unavailable
				}
			}
			traits = {
				ideology_C
				AM_Collectivizer
			}
		}
	}
	#################################################
	### Head of Intelligence
	#################################################
	Head_of_Intelligence = {
		# Hans Heinrich Lohse
		LAT_HoI_Hans_Heinrich_Lohse = {
			picture = Hans_Heinrich_Lohse
			allowed = {
				tag = LAT
			}
			available = {
				date > 1941.1.1
				date < 1964.1.1
				F_Minister_Allowed = yes
				NOT = {
					has_country_flag = Hans_Heinrich_Lohse_unavailable
				}
			}
			traits = {
				ideology_F
				HoI_Industrial_Specialist
			}
		}
		# Erich Koch
		LAT_HoI_Erich_Koch = {
			picture = Erich_Koch
			allowed = {
				tag = LAT
			}
			available = {
				date > 1943.1.1
				date < 1964.1.1
				F_Minister_Allowed = yes
				NOT = {
					has_country_flag = Erich_Koch_unavailable
				}
			}
			traits = {
				ideology_F
				HoI_Logistics_Specialist
			}
		}
		# Hermanis Apsitis
		LAT_HoI_Hermanis_Apsitis = {
			picture = Hermanis_Apsitis
			allowed = {
				tag = LAT
			}
			available = {
				date > 1933.1.1
				date < 1964.1.1
				F_Minister_Allowed = yes
				NOT = {
					has_country_flag = Hermanis_Apsitis_unavailable
				}
			}
			traits = {
				ideology_F
				HoI_Political_Specialist
			}
		}
		# Kàrlis Ulmanis
		LAT_HoI_Karlis_Ulmanis = {
			picture = Karlis_Ulmanis
			allowed = {
				tag = LAT
			}
			available = {
				date > 1938.1.1
				date < 1964.1.1
				F_Minister_Allowed = yes
				NOT = {
					has_country_flag = Karlis_Ulmanis_unavailable
				}
			}
			traits = {
				ideology_F
				HoI_Dismal_Enigma
			}
		}
		# Felix Cielens
		LAT_HoI_Felix_Cielens = {
			picture = Felix_Cielens
			allowed = {
				tag = LAT
			}
			available = {
				date > 1933.1.1
				date < 1964.1.1
				D_Minister_Allowed = yes
				NOT = {
					has_country_flag = Felix_Cielens_unavailable
				}
			}
			traits = {
				ideology_D
				HoI_Industrial_Specialist
			}
		}
		# Fricis Celmins
		LAT_HoI_Fricis_Celmins = {
			picture = Fricis_Celmins
			allowed = {
				tag = LAT
			}
			available = {
				date > 1940.1.1
				date < 1964.1.1
				D_Minister_Allowed = yes
				NOT = {
					has_country_flag = Fricis_Celmins_unavailable
				}
			}
			traits = {
				ideology_D
				HoI_Dismal_Enigma
			}
		}
		# Reinhold K. Zariñs
		LAT_HoI_Reinhold_K_Zarins = {
			picture = Reinhold_K_Zarins
			allowed = {
				tag = LAT
			}
			available = {
				date > 1945.1.1
				date < 1964.1.1
				D_Minister_Allowed = yes
				NOT = {
					has_country_flag = Reinhold_K_Zarins_unavailable
				}
			}
			traits = {
				ideology_D
				HoI_Technical_Specialist
			}
		}
		# Talavs Jundzis
		LAT_HoI_Talavs_Jundzis = {
			picture = Talavs_Jundzis
			allowed = {
				tag = LAT
			}
			available = {
				date > 1985.1.1
				date < 2020.1.1
				D_Minister_Allowed = yes
				NOT = {
					has_country_flag = Talavs_Jundzis_unavailable
				}
			}
			traits = {
				ideology_D
				HoI_Political_Specialist
			}
		}
		# Jurijs Rabersz
		LAT_HoI_Jurijs_Rabersz = {
			picture = Jurijs_Rabersz
			allowed = {
				tag = LAT
			}
			available = {
				date > 1933.1.1
				date < 1964.1.1
				C_Minister_Allowed = yes
				NOT = {
					has_country_flag = Jurijs_Rabersz_unavailable
				}
			}
			traits = {
				ideology_C
				HoI_Technical_Specialist
			}
		}
		# Jànis Lencmanis
		LAT_HoI_Janis_Lencmanis = {
			picture = Janis_Lencmanis
			allowed = {
				tag = LAT
			}
			available = {
				date > 1914.1.1
				date < 1933.1.1
				C_Minister_Allowed = yes
				NOT = {
					has_country_flag = Janis_Lencmanis_unavailable
				}
			}
			traits = {
				ideology_C
				HoI_Political_Specialist
			}
		}
		# Teodors Zvejnieks
		LAT_HoI_Teodors_Zvejnieks = {
			picture = Teodors_Zvejnieks
			allowed = {
				tag = LAT
			}
			available = {
				date > 1945.1.1
				date < 1964.1.1
				C_Minister_Allowed = yes
				NOT = {
					has_country_flag = Teodors_Zvejnieks_unavailable
				}
			}
			traits = {
				ideology_C
				HoI_Naval_Intelligence_Specialist
			}
		}
		# Vilis Làcis
		LAT_HoI_Vilis_Lacis = {
			picture = Vilis_Lacis
			allowed = {
				tag = LAT
			}
			available = {
				date > 1946.1.1
				date < 1964.1.1
				C_Minister_Allowed = yes
				NOT = {
					has_country_flag = Vilis_Lacis_unavailable
				}
			}
			traits = {
				ideology_C
				HoI_Logistics_Specialist
			}
		}
	}
	#################################################
	### Minister
	#################################################
	Minister = {
		# Juris Paberzs
		LAT_M_Juris_Paberzs = {
			picture = Juris_Paberzs
			allowed = {
				tag = LAT
			}
			visible = {
				has_government = communist
				date > 1933.1.1
				date < 1964.1.1
				C_Minister_Allowed = yes
				NOT = {
					has_country_flag = Juris_Paberzs_unavailable
				}
			}
			traits = {
				ideology_C
				POSITION_Minister_of_Justice
				FM_Biased_Intellectual
			}
		}
		# Peteris Blaus
		LAT_M_Peteris_Blaus = {
			picture = Peteris_Blaus
			allowed = {
				tag = LAT
			}
			visible = {
				has_government = communist
				date > 1933.1.1
				date < 1964.1.1
				C_Minister_Allowed = yes
				NOT = {
					has_country_flag = Peteris_Blaus_unavailable
				}
			}
			traits = {
				ideology_C
				POSITION_Minister_of_Public_Affairs
				MoS_Propagandist
			}
		}
	}
	#################################################
	### Chief of Staff
	#################################################
	Chief_of_Staff = {
		# Konstantins Cakste
		LAT_CoStaff_Konstantins_Cakste = {
			picture = Konstantins_Cakste
			allowed = {
				tag = LAT
			}
			available = {
				date > 1941.1.1
				date < 1964.1.1
				F_Minister_Allowed = yes
				NOT = {
					has_country_flag = Konstantins_Cakste_unavailable
				}
			}
			traits = {
				ideology_F
				CoStaff_School_Of_Fire_Support
			}
		}
		# Arturs M. Silgailis
		LAT_CoStaff_Arturs_M_Silgailis = {
			picture = Arturs_M_Silgailis
			allowed = {
				tag = LAT
			}
			available = {
				date > 1943.1.1
				date < 1964.1.1
				F_Minister_Allowed = yes
				NOT = {
					has_country_flag = Arturs_M_Silgailis_unavailable
				}
			}
			traits = {
				ideology_F
				CoStaff_School_Of_Fire_Support
			}
		}
		# Jànis Balodis
		LAT_CoStaff_Janis_Balodis = {
			picture = Janis_Balodis
			allowed = {
				tag = LAT
			}
			available = {
				date > 1933.1.1
				date < 1964.1.1
				F_Minister_Allowed = yes
				NOT = {
					has_country_flag = Janis_Balodis_unavailable
				}
			}
			traits = {
				ideology_F
				CoStaff_School_Of_Defence
			}
		}
		# Krisjànis Berkis
		LAT_CoStaff_Krisjanis_Berkis = {
			picture = Krisjanis_Berkis
			allowed = {
				tag = LAT
			}
			available = {
				date > 1939.1.1
				date < 1964.1.1
				F_Minister_Allowed = yes
				NOT = {
					has_country_flag = Krisjanis_Berkis_unavailable
				}
			}
			traits = {
				ideology_F
				CoStaff_School_Of_Manoeuvre
			}
		}
		# Rudolfs Kociñs
		LAT_CoStaff_Rudolfs_Kocins = {
			picture = Rudolfs_Kocins
			allowed = {
				tag = LAT
			}
			available = {
				date > 1945.1.1
				date < 1964.1.1
				A_Minister_Allowed = yes
				NOT = {
					has_country_flag = Rudolfs_Kocins_unavailable
				}
			}
			traits = {
				ideology_A
				CoStaff_School_Of_Psychology
			}
		}
		# Verners Tefpers
		LAT_CoStaff_Verners_Tefpers = {
			picture = Verners_Tefpers
			allowed = {
				tag = LAT
			}
			available = {
				date > 1933.1.1
				date < 1964.1.1
				D_Minister_Allowed = yes
				NOT = {
					has_country_flag = Verners_Tefpers_unavailable
				}
			}
			traits = {
				ideology_D
				CoStaff_School_Of_Manoeuvre
			}
		}
		# Rudolfs Bangerskis
		LAT_CoStaff_Rudolfs_Bangerskis = {
			picture = Rudolfs_Bangerskis
			allowed = {
				tag = LAT
			}
			available = {
				date > 1914.1.1
				date < 1933.1.1
				D_Minister_Allowed = yes
				NOT = {
					has_country_flag = Rudolfs_Bangerskis_unavailable
				}
			}
			traits = {
				ideology_D
				CoStaff_School_Of_Defence
			}
		}
		# Janis Berzins
		LAT_CoStaff_Janis_Berzins = {
			picture = Janis_Berzins
			allowed = {
				tag = LAT
			}
			available = {
				date > 1933.1.1
				date < 1964.1.1
				C_Minister_Allowed = yes
				NOT = {
					has_country_flag = Janis_Berzins_unavailable
				}
			}
			traits = {
				ideology_C
				CoStaff_School_Of_Mass_Combat
			}
		}
		# Roberts Dambïtis
		LAT_CoStaff_Roberts_Dambitis = {
			picture = Roberts_Dambitis
			allowed = {
				tag = LAT
			}
			available = {
				date > 1938.1.1
				date < 1964.1.1
				C_Minister_Allowed = yes
				NOT = {
					has_country_flag = Roberts_Dambitis_unavailable
				}
			}
			traits = {
				ideology_C
				CoStaff_School_Of_Fire_Support
			}
		}
		# Izglitibas Tautas
		LAT_CoStaff_Izglitibas_Tautas = {
			picture = Izglitibas_Tautas
			allowed = {
				tag = LAT
			}
			available = {
				date > 1945.1.1
				date < 1964.1.1
				C_Minister_Allowed = yes
				NOT = {
					has_country_flag = Izglitibas_Tautas_unavailable
				}
			}
			traits = {
				ideology_C
				CoStaff_School_Of_Mass_Combat
			}
		}
		# Arturs Sprogis
		LAT_CoStaff_Arturs_Sprogis = {
			picture = Arturs_Sprogis
			allowed = {
				tag = LAT
			}
			available = {
				date > 1946.1.1
				date < 1964.1.1
				C_Minister_Allowed = yes
				NOT = {
					has_country_flag = Arturs_Sprogis_unavailable
				}
			}
			traits = {
				ideology_C
				CoStaff_School_Of_Fire_Support
			}
		}
	}
	#################################################
	### Chief of Army
	#################################################
	Chief_of_Army = {
		# Otto Hellmich
		LAT_CoArmy_Otto_Hellmich = {
			picture = Otto_Hellmich
			allowed = {
				tag = LAT
			}
			available = {
				date > 1941.1.1
				date < 1964.1.1
				F_Minister_Allowed = yes
				NOT = {
					has_country_flag = Otto_Hellmich_unavailable
				}
			}
			traits = {
				ideology_F
				CoArmy_Elastic_Defence_Doctrine
			}
		}
		# Rudolfs Bangerskis
		LAT_CoArmy_Rudolfs_Bangerskis = {
			picture = Rudolfs_Bangerskis
			allowed = {
				tag = LAT
			}
			available = {
				date > 1933.1.1
				date < 1964.1.1
				F_Minister_Allowed = yes
				NOT = {
					has_country_flag = Rudolfs_Bangerskis_unavailable
				}
			}
			traits = {
				ideology_F
				CoArmy_Static_Defence_Doctrine
			}
		}
		# Fricis Celmins
		LAT_CoArmy_Fricis_Celmins = {
			picture = Fricis_Celmins
			allowed = {
				tag = LAT
			}
			available = {
				date > 1937.1.1
				date < 1964.1.1
				F_Minister_Allowed = yes
				NOT = {
					has_country_flag = Fricis_Celmins_unavailable
				}
			}
			traits = {
				ideology_F
				CoArmy_Elastic_Defence_Doctrine
			}
		}
		# Rudolfs Kociñs
		LAT_CoArmy_Rudolfs_Kocins = {
			picture = Rudolfs_Kocins
			allowed = {
				tag = LAT
			}
			available = {
				date > 1945.1.1
				date < 1964.1.1
				A_Minister_Allowed = yes
				NOT = {
					has_country_flag = Rudolfs_Kocins_unavailable
				}
			}
			traits = {
				ideology_A
				CoArmy_Elastic_Defence_Doctrine
			}
		}
		# von Timroth
		LAT_CoArmy_von_Timroth = {
			picture = von_Timroth
			allowed = {
				tag = LAT
			}
			available = {
				date > 1914.1.1
				date < 1933.1.1
				D_Minister_Allowed = yes
				NOT = {
					has_country_flag = von_Timroth_unavailable
				}
			}
			traits = {
				ideology_D
				CoArmy_Static_Defence_Doctrine
			}
		}
		# Janis Berzins
		LAT_CoArmy_Janis_Berzins = {
			picture = Janis_Berzins
			allowed = {
				tag = LAT
			}
			available = {
				date > 1933.1.1
				date < 1964.1.1
				C_Minister_Allowed = yes
				NOT = {
					has_country_flag = Janis_Berzins_unavailable
				}
			}
			traits = {
				ideology_C
				CoArmy_Decisive_Battle_Doctrine
			}
		}
		# Roberts Dambïtis
		LAT_CoArmy_Roberts_Dambitis = {
			picture = Roberts_Dambitis
			allowed = {
				tag = LAT
			}
			available = {
				date > 1938.1.1
				date < 1964.1.1
				C_Minister_Allowed = yes
				NOT = {
					has_country_flag = Roberts_Dambitis_unavailable
				}
			}
			traits = {
				ideology_C
				CoArmy_Guns_And_Butter_Doctrine
			}
		}
		# Arturs Sprogis
		LAT_CoArmy_Arturs_Sprogis = {
			picture = Arturs_Sprogis
			allowed = {
				tag = LAT
			}
			available = {
				date > 1945.1.1
				date < 1964.1.1
				C_Minister_Allowed = yes
				NOT = {
					has_country_flag = Arturs_Sprogis_unavailable
				}
			}
			traits = {
				ideology_C
				CoArmy_Decisive_Battle_Doctrine
			}
		}
		# Roberts Osis
		LAT_CoArmy_Roberts_Osis = {
			picture = Roberts_Osis
			allowed = {
				tag = LAT
			}
			available = {
				date > 1946.1.1
				date < 1964.1.1
				C_Minister_Allowed = yes
				NOT = {
					has_country_flag = Roberts_Osis_unavailable
				}
			}
			traits = {
				ideology_C
				CoArmy_Guns_And_Butter_Doctrine
			}
		}
		# Roberts Kļaviņš
		LAT_CoArmy_Roberts_Klavins = {
			picture = Roberts_Klavins
			allowed = {
				tag = LAT
			}
			visible = {
				has_government = communist
				date > 1933.1.1
				date < 1964.1.1
				C_Minister_Allowed = yes
				NOT = {
					has_country_flag = Roberts_Klavins_unavailable
				}
			}
			traits = {
				ideology_C
				CoArmy_Political_Appointee
			}
		}
	}
	#################################################
	### Chief of Navy
	#################################################
	Chief_of_Navy = {
		# Konstantins Cakste
		LAT_CoNavy_Konstantins_Cakste = {
			picture = Konstantins_Cakste
			allowed = {
				tag = LAT
			}
			available = {
				date > 1941.1.1
				date < 1964.1.1
				F_Minister_Allowed = yes
				NOT = {
					has_country_flag = Konstantins_Cakste_unavailable
				}
			}
			traits = {
				ideology_F
				CoNavy_Base_Control_Doctrine
			}
		}
		# Tomas Spade
		LAT_CoNavy_Tomas_Spade = {
			picture = Tomas_Spade
			allowed = {
				tag = LAT
			}
			available = {
				date > 1933.1.1
				date < 1964.1.1
				F_Minister_Allowed = yes
				NOT = {
					has_country_flag = Tomas_Spade_unavailable
				}
			}
			traits = {
				ideology_F
				CoNavy_Decisive_Naval_Battle_Doctrine
			}
		}
		# Janis Andersons
		LAT_CoNavy_Janis_Andersons = {
			picture = Janis_Andersons
			allowed = {
				tag = LAT
			}
			available = {
				date > 1933.1.1
				date < 1964.1.1
				D_Minister_Allowed = yes
				NOT = {
					has_country_flag = Janis_Andersons_unavailable
				}
			}
			traits = {
				ideology_D
				CoNavy_Base_Control_Doctrine
			}
		}
		# Augusts Kirchensteins
		LAT_CoNavy_Augusts_Kirchensteins = {
			picture = Augusts_Kirchensteins
			allowed = {
				tag = LAT
			}
			available = {
				date > 1933.1.1
				date < 1964.1.1
				C_Minister_Allowed = yes
				NOT = {
					has_country_flag = Augusts_Kirchensteins_unavailable
				}
			}
			traits = {
				ideology_C
				CoNavy_Open_Seas_Doctrine
			}
		}
		# Julijcs Lacis
		LAT_CoNavy_Julijcs_Lacis = {
			picture = Julijcs_Lacis
			allowed = {
				tag = LAT
			}
			available = {
				date > 1940.1.1
				date < 1964.1.1
				C_Minister_Allowed = yes
				NOT = {
					has_country_flag = Julijcs_Lacis_unavailable
				}
			}
			traits = {
				ideology_C
				CoNavy_Indirect_Approach_Doctrine
			}
		}
		# Teodors Zvejnieks
		LAT_CoNavy_Teodors_Zvejnieks = {
			picture = Teodors_Zvejnieks
			allowed = {
				tag = LAT
			}
			available = {
				date > 1945.1.1
				date < 1964.1.1
				C_Minister_Allowed = yes
				NOT = {
					has_country_flag = Teodors_Zvejnieks_unavailable
				}
			}
			traits = {
				ideology_C
				CoNavy_Power_Projection_Doctrine
			}
		}
	}
	#################################################
	### Chief of Airforce
	#################################################
	Chief_of_Airforce = {
		# Konstantins Cakste
		LAT_CoAir_Konstantins_Cakste = {
			picture = Konstantins_Cakste
			allowed = {
				tag = LAT
			}
			available = {
				date > 1941.1.1
				date < 1964.1.1
				F_Minister_Allowed = yes
				NOT = {
					has_country_flag = Konstantins_Cakste_unavailable
				}
			}
			traits = {
				ideology_F
				CoAir_Army_Aviation_Doctrine
			}
		}
		# Janis Indans
		LAT_CoAir_Janis_Indans = {
			picture = Janis_Indans
			allowed = {
				tag = LAT
			}
			available = {
				date > 1933.1.1
				date < 1964.1.1
				F_Minister_Allowed = yes
				NOT = {
					has_country_flag = Janis_Indans_unavailable
				}
			}
			traits = {
				ideology_F
				CoAir_Army_Aviation_Doctrine
			}
		}
		# Rudolfs Bangerskis
		LAT_CoAir_Rudolfs_Bangerskis = {
			picture = Rudolfs_Bangerskis
			allowed = {
				tag = LAT
			}
			available = {
				date > 1945.1.1
				date < 1964.1.1
				A_Minister_Allowed = yes
				NOT = {
					has_country_flag = Rudolfs_Bangerskis_unavailable
				}
			}
			traits = {
				ideology_A
				CoAir_Army_Aviation_Doctrine
			}
		}
		# Jucums Vacietis
		LAT_CoAir_Jucums_Vacietis = {
			picture = Jucums_Vacietis
			allowed = {
				tag = LAT
			}
			available = {
				date > 1933.1.1
				date < 1964.1.1
				D_Minister_Allowed = yes
				NOT = {
					has_country_flag = Jucums_Vacietis_unavailable
				}
			}
			traits = {
				ideology_D
				CoAir_Air_Superiority_Doctrine
			}
		}
		# Edgars Andersons
		LAT_CoAir_Edgars_Andersons = {
			picture = Edgars_Andersons
			allowed = {
				tag = LAT
			}
			available = {
				date > 1945.1.1
				date < 1964.1.1
				D_Minister_Allowed = yes
				NOT = {
					has_country_flag = Edgars_Andersons_unavailable
				}
			}
			traits = {
				ideology_D
				CoAir_Vertical_Envelopment_Doctrine
			}
		}
		# Izglitibas Tautas
		LAT_CoAir_Izglitibas_Tautas = {
			picture = Izglitibas_Tautas
			allowed = {
				tag = LAT
			}
			available = {
				date > 1933.1.1
				date < 1964.1.1
				C_Minister_Allowed = yes
				NOT = {
					has_country_flag = Izglitibas_Tautas_unavailable
				}
			}
			traits = {
				ideology_C
				CoAir_Naval_Aviation_Doctrine
			}
		}
	}
}
