ideas = {
	#################################################
	### Head of Government
	#################################################
	Head_of_Government = {
		# Nicolás Rodríguez Carrasco
		MEX_D_Nicolas_Rodriguez_Carrasco = {
			picture = Nicolas_Rodriguez_Carrasco
			allowed = {
				tag = MEX
			}
			visible = {
				date > 1936.1.1
				date < 1964.1.1
				F_Minister_Allowed = yes
				NOT = {
					has_country_flag = Nicolas_Rodriguez_Carrasco_unavailable
				}
			}
			traits = {
				ideology_F
				L_Old_General
			}
		}
		# Tomás Garrido Canabal
		MEX_D_Tomas_Garrido_Canabal = {
			picture = Tomas_Garrido_Canabal
			allowed = {
				tag = MEX
			}
			visible = {
				date > 1939.1.1
				date < 1964.1.1
				F_Minister_Allowed = yes
				NOT = {
					has_country_flag = Tomas_Garrido_Canabal_unavailable
				}
			}
			traits = {
				ideology_F
				L_Silent_Workhorse
			}
		}
		# Luis G. Quintana
		MEX_D_Luis_G_Quintana = {
			picture = Luis_G_Quintana
			allowed = {
				tag = MEX
			}
			visible = {
				date > 1940.1.1
				date < 1964.1.1
				F_Minister_Allowed = yes
				NOT = {
					has_country_flag = Luis_G_Quintana_unavailable
				}
			}
			traits = {
				ideology_F
				L_Political_Protege
			}
		}
		# Victoriano Huerta
		MEX_D_Victoriano_Huerta = {
			picture = Victoriano_Huerta
			allowed = {
				tag = MEX
			}
			visible = {
				date > 1913.1.1
				date < 1917.1.1
				A_Minister_Allowed = yes
				NOT = {
					has_country_flag = Victoriano_Huerta_unavailable
				}
			}
			traits = {
				ideology_A
				L_Old_General
			}
		}
		# Félix Díaz
		MEX_D_Felix_Diaz = {
			picture = Felix_Diaz
			allowed = {
				tag = MEX
			}
			visible = {
				date > 1917.1.1
				date < 1930.1.1
				A_Minister_Allowed = yes
				NOT = {
					has_country_flag = Felix_Diaz_unavailable
				}
			}
			traits = {
				ideology_A
				L_Flamboyant_Tough_Guy
			}
		}
		# Juan Andrew Almazan
		MEX_D_Juan_Andrew_Almazan = {
			picture = Juan_Andrew_Almazan
			allowed = {
				tag = MEX
			}
			visible = {
				date > 1946.1.1
				date < 1964.1.1
				A_Minister_Allowed = yes
				NOT = {
					has_country_flag = Juan_Andrew_Almazan_unavailable
				}
			}
			traits = {
				ideology_A
				L_Happy_Amateur
			}
		}
		# Manuel M. Marquez
		MEX_D_Manuel_M_Marquez = {
			picture = Manuel_M_Marquez
			allowed = {
				tag = MEX
			}
			visible = {
				date > 1940.1.1
				date < 1964.1.1
				D_Minister_Allowed = yes
				NOT = {
					has_country_flag = Manuel_M_Marquez_unavailable
				}
			}
			traits = {
				ideology_D
				L_Old_General
			}
		}
		# Luis Bustamanté Benítez
		MEX_D_Luis_Bustamante_Benitez = {
			picture = Luis_Bustamante_Benitez
			allowed = {
				tag = MEX
			}
			visible = {
				date > 1946.1.1
				date < 1964.1.1
				D_Minister_Allowed = yes
				NOT = {
					has_country_flag = Luis_Bustamante_Benitez_unavailable
				}
			}
			traits = {
				ideology_D
				L_Silent_Workhorse
			}
		}
		# Florentino Santana
		MEX_D_Florentino_Santana = {
			picture = Florentino_Santana
			allowed = {
				tag = MEX
			}
			visible = {
				date > 1952.1.1
				date < 1964.1.1
				D_Minister_Allowed = yes
				NOT = {
					has_country_flag = Florentino_Santana_unavailable
				}
			}
			traits = {
				ideology_D
				L_Smiling_Oilman
			}
		}
		# Luis Hector Alvarez
		MEX_D_Luis_Hector_Alvarez = {
			picture = Luis_Hector_Alvarez
			allowed = {
				tag = MEX
			}
			visible = {
				date > 1958.1.1
				date < 2020.1.1
				D_Minister_Allowed = yes
				NOT = {
					has_country_flag = Luis_Hector_Alvarez_unavailable
				}
			}
			traits = {
				ideology_D
				L_Old_Airmarshal
			}
		}
		# José González Torres
		MEX_D_Jose_Gonzalez_Torres = {
			picture = Jose_Gonzalez_Torres
			allowed = {
				tag = MEX
			}
			visible = {
				date > 1964.1.1
				date < 1999.1.1
				D_Minister_Allowed = yes
				NOT = {
					has_country_flag = Jose_Gonzalez_Torres_unavailable
				}
			}
			traits = {
				ideology_D
				L_Smiling_Oilman
			}
		}
		# Efraín González Morfín
		MEX_D_Efrain_Gonzalez_Morfin = {
			picture = Efrain_Gonzalez_Morfin
			allowed = {
				tag = MEX
			}
			visible = {
				date > 1970.1.1
				date < 2013.1.1
				D_Minister_Allowed = yes
				NOT = {
					has_country_flag = Efrain_Gonzalez_Morfin_unavailable
				}
			}
			traits = {
				ideology_D
				L_Naive_Optimist
			}
		}
		# Manuel González Hinojosa
		MEX_D_Manuel_Gonzalez_Hinojosa = {
			picture = Manuel_Gonzalez_Hinojosa
			allowed = {
				tag = MEX
			}
			visible = {
				date > 1976.1.1
				date < 2007.1.1
				D_Minister_Allowed = yes
				NOT = {
					has_country_flag = Manuel_Gonzalez_Hinojosa_unavailable
				}
			}
			traits = {
				ideology_D
				L_Smiling_Oilman
			}
		}
		# Pablo Emilio Madero
		MEX_D_Pablo_Emilio_Madero = {
			picture = Pablo_Emilio_Madero
			allowed = {
				tag = MEX
			}
			visible = {
				date > 1982.1.1
				date < 2008.1.1
				D_Minister_Allowed = yes
				NOT = {
					has_country_flag = Pablo_Emilio_Madero_unavailable
				}
			}
			traits = {
				ideology_D
				L_Ambitious_Union_Boss
			}
		}
		# Manuel Clouthier
		MEX_D_Manuel_Clouthier = {
			picture = Manuel_Clouthier
			allowed = {
				tag = MEX
			}
			visible = {
				date > 1988.1.1
				date < 1990.1.1
				D_Minister_Allowed = yes
				NOT = {
					has_country_flag = Manuel_Clouthier_unavailable
				}
			}
			traits = {
				ideology_D
				L_Ambitious_Union_Boss
			}
		}
		# Venustiano Carranza 
		MEX_D_Venustiano_Carranza_ = {
			picture = Venustiano_Carranza_
			allowed = {
				tag = MEX
			}
			visible = {
				date > 1913.1.1
				date < 1930.1.1
				D_Minister_Allowed = yes
				NOT = {
					has_country_flag = Venustiano_Carranza__unavailable
				}
			}
			traits = {
				ideology_D
				L_Political_Protege
			}
		}
		# Eulalio Gutiérrez Ortiz
		MEX_D_Eulalio_Gutierrez_Ortiz = {
			picture = Eulalio_Gutierrez_Ortiz
			allowed = {
				tag = MEX
			}
			visible = {
				date > 1913.1.1
				date < 1930.1.1
				D_Minister_Allowed = yes
				NOT = {
					has_country_flag = Eulalio_Gutierrez_Ortiz_unavailable
				}
			}
			traits = {
				ideology_D
				L_Naive_Optimist
			}
		}
		# Adolfo de la Huerta 
		MEX_D_Adolfo_de_la_Huerta_ = {
			picture = Adolfo_de_la_Huerta_
			allowed = {
				tag = MEX
			}
			visible = {
				date > 1920.1.1
				date < 1930.1.1
				D_Minister_Allowed = yes
				NOT = {
					has_country_flag = Adolfo_de_la_Huerta__unavailable
				}
			}
			traits = {
				ideology_D
				L_Naive_Optimist
			}
		}
		# Ignacio Bonillas Frajio
		MEX_D_Ignacio_Bonillas_Frajio = {
			picture = Ignacio_Bonillas_Frajio
			allowed = {
				tag = MEX
			}
			visible = {
				date > 1920.1.1
				date < 1930.1.1
				D_Minister_Allowed = yes
				NOT = {
					has_country_flag = Ignacio_Bonillas_Frajio_unavailable
				}
			}
			traits = {
				ideology_D
				L_Naive_Optimist
			}
		}
		# Luis Echeverría
		MEX_D_Luis_Echeverria = {
			picture = Luis_Echeverria
			allowed = {
				tag = MEX
			}
			visible = {
				date > 1970.1.1
				date < 2020.1.1
				D_Minister_Allowed = yes
				NOT = {
					has_country_flag = Luis_Echeverria_unavailable
				}
			}
			traits = {
				ideology_D
				L_Corporate_Suit
			}
		}
		# José López Portillo
		MEX_D_Jose_Lopez_Portillo = {
			picture = Jose_Lopez_Portillo
			allowed = {
				tag = MEX
			}
			visible = {
				date > 1976.1.1
				date < 2005.1.1
				D_Minister_Allowed = yes
				NOT = {
					has_country_flag = Jose_Lopez_Portillo_unavailable
				}
			}
			traits = {
				ideology_D
				L_Corporate_Suit
			}
		}
		# Miguel de la Madrid
		MEX_D_Miguel_de_la_Madrid = {
			picture = Miguel_de_la_Madrid
			allowed = {
				tag = MEX
			}
			visible = {
				date > 1982.1.1
				date < 2013.1.1
				D_Minister_Allowed = yes
				NOT = {
					has_country_flag = Miguel_de_la_Madrid_unavailable
				}
			}
			traits = {
				ideology_D
				L_Corporate_Suit
			}
		}
		# Carlos Salinas
		MEX_D_Carlos_Salinas = {
			picture = Carlos_Salinas
			allowed = {
				tag = MEX
			}
			visible = {
				date > 1988.1.1
				date < 2020.1.1
				D_Minister_Allowed = yes
				NOT = {
					has_country_flag = Carlos_Salinas_unavailable
				}
			}
			traits = {
				ideology_D
				L_Corporate_Suit
			}
		}
		# Cuauhtémoc Cárdenas
		MEX_D_Cuauhtemoc_Cardenas = {
			picture = Cuauhtemoc_Cardenas
			allowed = {
				tag = MEX
			}
			visible = {
				date > 1988.1.1
				date < 2020.1.1
				D_Minister_Allowed = yes
				NOT = {
					has_country_flag = Cuauhtemoc_Cardenas_unavailable
				}
			}
			traits = {
				ideology_D
				L_Ambitious_Union_Boss
			}
		}
		# Francisco Lagos Cházaro
		MEX_D_Francisco_Lagos_Chazaro = {
			picture = Francisco_Lagos_Chazaro
			allowed = {
				tag = MEX
			}
			visible = {
				date > 1913.1.1
				date < 1930.1.1
				D_Minister_Allowed = yes
				NOT = {
					has_country_flag = Francisco_Lagos_Chazaro_unavailable
				}
			}
			traits = {
				ideology_D
				L_Happy_Amateur
			}
		}
		# Álvaro Obregón
		MEX_D_Alvaro_Obregon = {
			picture = Alvaro_Obregon
			allowed = {
				tag = MEX
			}
			visible = {
				date > 1920.1.1
				date < 1930.1.1
				D_Minister_Allowed = yes
				NOT = {
					has_country_flag = Alvaro_Obregon_unavailable
				}
			}
			traits = {
				ideology_D
				L_Old_General
			}
		}
		# Plutarco Elías Calles
		MEX_D_Plutarco_Elias_Calles = {
			picture = Plutarco_Elias_Calles
			allowed = {
				tag = MEX
			}
			visible = {
				date > 1924.1.1
				date < 1945.1.1
				D_Minister_Allowed = yes
				NOT = {
					has_country_flag = Plutarco_Elias_Calles_unavailable
				}
			}
			traits = {
				ideology_A
				POSITION_Jefe_Supremo
				L_Silent_Workhorse
			}
		}
		# Abelardo Rodríguez
		MEX_D_Abelardo_Rodriguez = {
			picture = Abelardo_Rodriguez
			allowed = {
				tag = MEX
			}
			visible = {
				date > 1932.1.1
				date < 1967.1.1
				D_Minister_Allowed = yes
				NOT = {
					has_country_flag = Abelardo_Rodriguez_unavailable
				}
			}
			traits = {
				ideology_D
				L_Happy_Amateur
			}
		}
		# Lázaro Cárdenas
		MEX_D_Lazaro_Cardenas = {
			picture = Lazaro_Cardenas
			allowed = {
				tag = MEX
			}
			visible = {
				date > 1933.1.1
				date < 1964.1.1
				D_Minister_Allowed = yes
				NOT = {
					has_country_flag = Lazaro_Cardenas_unavailable
				}
			}
			traits = {
				ideology_D
				L_Flamboyant_Tough_Guy
			}
		}
		# Manuel Avila Camacho
		MEX_D_Manuel_Avila_Camacho = {
			picture = Manuel_Avila_Camacho
			allowed = {
				tag = MEX
			}
			visible = {
				date > 1940.1.1
				date < 1964.1.1
				D_Minister_Allowed = yes
				NOT = {
					has_country_flag = Manuel_Avila_Camacho_unavailable
				}
			}
			traits = {
				ideology_D
				L_Corporate_Suit
			}
		}
		# Miguel Aleman Valdes
		MEX_D_Miguel_Aleman_Valdes = {
			picture = Miguel_Aleman_Valdes
			allowed = {
				tag = MEX
			}
			visible = {
				date > 1946.1.1
				date < 1964.1.1
				D_Minister_Allowed = yes
				NOT = {
					has_country_flag = Miguel_Aleman_Valdes_unavailable
				}
			}
			traits = {
				ideology_D
				L_Smiling_Oilman
			}
		}
		# Adolfo Ruiz Cortines
		MEX_D_Adolfo_Ruiz_Cortines = {
			picture = Adolfo_Ruiz_Cortines
			allowed = {
				tag = MEX
			}
			visible = {
				date > 1952.1.1
				date < 1964.1.1
				D_Minister_Allowed = yes
				NOT = {
					has_country_flag = Adolfo_Ruiz_Cortines_unavailable
				}
			}
			traits = {
				ideology_D
				L_Political_Protege
			}
		}
		# Gustavo Diaz Ordaz
		MEX_D_Gustavo_Diaz_Ordaz = {
			picture = Gustavo_Diaz_Ordaz
			allowed = {
				tag = MEX
			}
			visible = {
				date > 1958.1.1
				date < 1980.1.1
				D_Minister_Allowed = yes
				NOT = {
					has_country_flag = Gustavo_Diaz_Ordaz_unavailable
				}
			}
			traits = {
				ideology_D
				L_Silent_Workhorse
			}
		}
		# Francisco 'Pancho' Villa
		MEX_D_Francisco_Pancho_Villa = {
			picture = Francisco_Pancho_Villa
			allowed = {
				tag = MEX
			}
			visible = {
				date > 1913.1.1
				date < 1930.1.1
				S_Minister_Allowed = yes
				NOT = {
					has_country_flag = Francisco_Pancho_Villa_unavailable
				}
			}
			traits = {
				ideology_S
				L_Flamboyant_Tough_Guy
			}
		}
		# Emiliano Zapata
		MEX_D_Emiliano_Zapata = {
			picture = Emiliano_Zapata
			allowed = {
				tag = MEX
			}
			visible = {
				date > 1913.1.1
				date < 1930.1.1
				S_Minister_Allowed = yes
				NOT = {
					has_country_flag = Emiliano_Zapata_unavailable
				}
			}
			traits = {
				ideology_S
				L_Revolutionary_Leader
			}
		}
		# Vicente Lombardo Toledano
		MEX_D_Vicente_Lombardo_Toledano = {
			picture = Vicente_Lombardo_Toledano
			allowed = {
				tag = MEX
			}
			visible = {
				date > 1940.1.1
				date < 1964.1.1
				C_Minister_Allowed = yes
				NOT = {
					has_country_flag = Vicente_Lombardo_Toledano_unavailable
				}
			}
			traits = {
				ideology_C
				L_Happy_Amateur
			}
		}
		# Procopio Herrera
		MEX_D_Procopio_Herrera = {
			picture = Procopio_Herrera
			allowed = {
				tag = MEX
			}
			visible = {
				date > 1946.1.1
				date < 1964.1.1
				C_Minister_Allowed = yes
				NOT = {
					has_country_flag = Procopio_Herrera_unavailable
				}
			}
			traits = {
				ideology_C
				L_Naive_Optimist
			}
		}
	}
	#################################################
	### Foreign Minister
	#################################################
	Foreign_Minister = {
		# Salvador Abascal Infante
		MEX_FM_Salvador_Abascal_Infante = {
			picture = Salvador_Abascal_Infante
			allowed = {
				tag = MEX
			}
			visible = {
				date > 1936.1.1
				date < 1964.1.1
				F_Minister_Allowed = yes
				NOT = {
					has_country_flag = Salvador_Abascal_Infante_unavailable
				}
			}
			traits = {
				ideology_F
				FM_Ideological_Crusader
			}
		}
		# Francisco León de la Barra
		MEX_FM_Francisco_Leon_de_la_Barra = {
			picture = Francisco_Leon_de_la_Barra
			allowed = {
				tag = MEX
			}
			visible = {
				date > 1913.1.1
				date < 1930.1.1
				A_Minister_Allowed = yes
				NOT = {
					has_country_flag = Francisco_Leon_de_la_Barra_unavailable
				}
			}
			traits = {
				ideology_A
				FM_Iron_Fisted_Brute
			}
		}
		# Carlos Pereyra
		MEX_FM_Carlos_Pereyra = {
			picture = Carlos_Pereyra
			allowed = {
				tag = MEX
			}
			visible = {
				date > 1913.1.1
				date < 1930.1.1
				A_Minister_Allowed = yes
				NOT = {
					has_country_flag = Carlos_Pereyra_unavailable
				}
			}
			traits = {
				ideology_A
				FM_General_Staffer
			}
		}
		# Manuel Garza Aldape
		MEX_FM_Manuel_Garza_Aldape = {
			picture = Manuel_Garza_Aldape
			allowed = {
				tag = MEX
			}
			visible = {
				date > 1913.1.1
				date < 1924.1.1
				A_Minister_Allowed = yes
				NOT = {
					has_country_flag = Manuel_Garza_Aldape_unavailable
				}
			}
			traits = {
				ideology_A
				FM_Ideological_Crusader
			}
		}
		# Federico Gamboa
		MEX_FM_Federico_Gamboa = {
			picture = Federico_Gamboa
			allowed = {
				tag = MEX
			}
			visible = {
				date > 1913.1.1
				date < 1930.1.1
				A_Minister_Allowed = yes
				NOT = {
					has_country_flag = Federico_Gamboa_unavailable
				}
			}
			traits = {
				ideology_A
				FM_Great_Compromiser
			}
		}
		# Antonio de la Peña y Reyes
		MEX_FM_Antonio_de_la_Pena_y_Reyes = {
			picture = Antonio_de_la_Pena_y_Reyes
			allowed = {
				tag = MEX
			}
			visible = {
				date > 1913.1.1
				date < 1928.1.1
				A_Minister_Allowed = yes
				NOT = {
					has_country_flag = Antonio_de_la_Pena_y_Reyes_unavailable
				}
			}
			traits = {
				ideology_A
				FM_Apologetic_Clerk
			}
		}
		# Querido Moheno
		MEX_FM_Querido_Moheno = {
			picture = Querido_Moheno
			allowed = {
				tag = MEX
			}
			visible = {
				date > 1913.1.1
				date < 1930.1.1
				A_Minister_Allowed = yes
				NOT = {
					has_country_flag = Querido_Moheno_unavailable
				}
			}
			traits = {
				ideology_A
				FM_Biased_Intellectual
			}
		}
		# José López Portillo y Rojas
		MEX_FM_Jose_Lopez_Portillo_y_Rojas = {
			picture = Jose_Lopez_Portillo_y_Rojas
			allowed = {
				tag = MEX
			}
			visible = {
				date > 1914.1.1
				date < 1923.1.1
				A_Minister_Allowed = yes
				NOT = {
					has_country_flag = Jose_Lopez_Portillo_y_Rojas_unavailable
				}
			}
			traits = {
				ideology_A
				FM_The_Cloak_N_Dagger_Schemer
			}
		}
		# Roberto Esteva Ruiz
		MEX_FM_Roberto_Esteva_Ruiz = {
			picture = Roberto_Esteva_Ruiz
			allowed = {
				tag = MEX
			}
			visible = {
				date > 1914.1.1
				date < 1930.1.1
				A_Minister_Allowed = yes
				NOT = {
					has_country_flag = Roberto_Esteva_Ruiz_unavailable
				}
			}
			traits = {
				ideology_A
				FM_Biased_Intellectual
			}
		}
		# Pino G. Calles
		MEX_FM_Pino_G_Calles = {
			picture = Pino_G_Calles
			allowed = {
				tag = MEX
			}
			visible = {
				date > 1940.1.1
				date < 1964.1.1
				A_Minister_Allowed = yes
				NOT = {
					has_country_flag = Pino_G_Calles_unavailable
				}
			}
			traits = {
				ideology_A
				FM_Biased_Intellectual
			}
		}
		# Francisco R. Serrano
		MEX_FM_Francisco_R_Serrano = {
			picture = Francisco_R_Serrano
			allowed = {
				tag = MEX
			}
			visible = {
				date > 1946.1.1
				date < 1964.1.1
				A_Minister_Allowed = yes
				NOT = {
					has_country_flag = Francisco_R_Serrano_unavailable
				}
			}
			traits = {
				ideology_A
				FM_General_Staffer
			}
		}
		# Francisco S. Carvajal
		MEX_FM_Francisco_S_Carvajal = {
			picture = Francisco_S_Carvajal
			allowed = {
				tag = MEX
			}
			visible = {
				date > 1914.1.1
				date < 1930.1.1
				D_Minister_Allowed = yes
				NOT = {
					has_country_flag = Francisco_S_Carvajal_unavailable
				}
			}
			traits = {
				ideology_D
				FM_General_Staffer
			}
		}
		# Alesso Melecio
		MEX_FM_Alesso_Melecio = {
			picture = Alesso_Melecio
			allowed = {
				tag = MEX
			}
			visible = {
				date > 1940.1.1
				date < 1964.1.1
				D_Minister_Allowed = yes
				NOT = {
					has_country_flag = Alesso_Melecio_unavailable
				}
			}
			traits = {
				ideology_D
				FM_Biased_Intellectual
			}
		}
		# Juan Andreu Alamaza
		MEX_FM_Juan_Andreu_Alamaza = {
			picture = Juan_Andreu_Alamaza
			allowed = {
				tag = MEX
			}
			visible = {
				date > 1944.1.1
				date < 1964.1.1
				D_Minister_Allowed = yes
				NOT = {
					has_country_flag = Juan_Andreu_Alamaza_unavailable
				}
			}
			traits = {
				ideology_D
				FM_Great_Compromiser
			}
		}
		# Juan G. Lascaran
		MEX_FM_Juan_G_Lascaran = {
			picture = Juan_G_Lascaran
			allowed = {
				tag = MEX
			}
			visible = {
				date > 1946.1.1
				date < 1964.1.1
				D_Minister_Allowed = yes
				NOT = {
					has_country_flag = Juan_G_Lascaran_unavailable
				}
			}
			traits = {
				ideology_D
				FM_Apologetic_Clerk
			}
		}
		# Luis Bustamanté Benítez
		MEX_FM_Luis_Bustamante_Benitez = {
			picture = Luis_Bustamante_Benitez
			allowed = {
				tag = MEX
			}
			visible = {
				date > 1952.1.1
				date < 1964.1.1
				D_Minister_Allowed = yes
				NOT = {
					has_country_flag = Luis_Bustamante_Benitez_unavailable
				}
			}
			traits = {
				ideology_D
				FM_General_Staffer
			}
		}
		# Isidro Fabela Alfaro
		MEX_FM_Isidro_Fabela_Alfaro = {
			picture = Isidro_Fabela_Alfaro
			allowed = {
				tag = MEX
			}
			visible = {
				date > 1913.1.1
				date < 1930.1.1
				D_Minister_Allowed = yes
				NOT = {
					has_country_flag = Isidro_Fabela_Alfaro_unavailable
				}
			}
			traits = {
				ideology_D
				FM_Ideological_Crusader
			}
		}
		# Jesús Acuña
		MEX_FM_Jesus_Acuna = {
			picture = Jesus_Acuna
			allowed = {
				tag = MEX
			}
			visible = {
				date > 1916.1.1
				date < 1930.1.1
				D_Minister_Allowed = yes
				NOT = {
					has_country_flag = Jesus_Acuna_unavailable
				}
			}
			traits = {
				ideology_D
				FM_Apologetic_Clerk
			}
		}
		# Cándido Aguilar
		MEX_FM_Candido_Aguilar = {
			picture = Candido_Aguilar
			allowed = {
				tag = MEX
			}
			visible = {
				date > 1916.1.1
				date < 1930.1.1
				D_Minister_Allowed = yes
				NOT = {
					has_country_flag = Candido_Aguilar_unavailable
				}
			}
			traits = {
				ideology_D
				FM_General_Staffer
			}
		}
		# Alfonso Siller
		MEX_FM_Alfonso_Siller = {
			picture = Alfonso_Siller
			allowed = {
				tag = MEX
			}
			visible = {
				date > 1916.1.1
				date < 1930.1.1
				D_Minister_Allowed = yes
				NOT = {
					has_country_flag = Alfonso_Siller_unavailable
				}
			}
			traits = {
				ideology_D
				FM_The_Cloak_N_Dagger_Schemer
			}
		}
		# Ernesto Garza Pérez
		MEX_FM_Ernesto_Garza_Perez = {
			picture = Ernesto_Garza_Perez
			allowed = {
				tag = MEX
			}
			visible = {
				date > 1917.1.1
				date < 1930.1.1
				D_Minister_Allowed = yes
				NOT = {
					has_country_flag = Ernesto_Garza_Perez_unavailable
				}
			}
			traits = {
				ideology_D
				FM_Great_Compromiser
			}
		}
		# Salvador Diego Fernández
		MEX_FM_Salvador_Diego_Fernandez = {
			picture = Salvador_Diego_Fernandez
			allowed = {
				tag = MEX
			}
			visible = {
				date > 1919.1.1
				date < 1930.1.1
				D_Minister_Allowed = yes
				NOT = {
					has_country_flag = Salvador_Diego_Fernandez_unavailable
				}
			}
			traits = {
				ideology_D
				FM_Great_Compromiser
			}
		}
		# Hilario Medina
		MEX_FM_Hilario_Medina = {
			picture = Hilario_Medina
			allowed = {
				tag = MEX
			}
			visible = {
				date > 1919.1.1
				date < 1930.1.1
				D_Minister_Allowed = yes
				NOT = {
					has_country_flag = Hilario_Medina_unavailable
				}
			}
			traits = {
				ideology_D
				FM_Apologetic_Clerk
			}
		}
		# Juan Sánchez Azcona
		MEX_FM_Juan_Sanchez_Azcona = {
			picture = Juan_Sanchez_Azcona
			allowed = {
				tag = MEX
			}
			visible = {
				date > 1920.1.1
				date < 1930.1.1
				D_Minister_Allowed = yes
				NOT = {
					has_country_flag = Juan_Sanchez_Azcona_unavailable
				}
			}
			traits = {
				ideology_D
				FM_Biased_Intellectual
			}
		}
		# Miguel Díaz Lombardo
		MEX_FM_Miguel_Diaz_Lombardo = {
			picture = Miguel_Diaz_Lombardo
			allowed = {
				tag = MEX
			}
			visible = {
				date > 1913.1.1
				date < 1930.1.1
				D_Minister_Allowed = yes
				NOT = {
					has_country_flag = Miguel_Diaz_Lombardo_unavailable
				}
			}
			traits = {
				ideology_D
				FM_Ideological_Crusader
			}
		}
		# Ignacio Borrego
		MEX_FM_Ignacio_Borrego = {
			picture = Ignacio_Borrego
			allowed = {
				tag = MEX
			}
			visible = {
				date > 1913.1.1
				date < 1930.1.1
				D_Minister_Allowed = yes
				NOT = {
					has_country_flag = Ignacio_Borrego_unavailable
				}
			}
			traits = {
				ideology_D
				FM_Great_Compromiser
			}
		}
		# Alberto B. Piña
		MEX_FM_Alberto_B_Pina = {
			picture = Alberto_B_Pina
			allowed = {
				tag = MEX
			}
			visible = {
				date > 1913.1.1
				date < 1930.1.1
				D_Minister_Allowed = yes
				NOT = {
					has_country_flag = Alberto_B_Pina_unavailable
				}
			}
			traits = {
				ideology_D
				FM_Biased_Intellectual
			}
		}
		# Francisco Escudero
		MEX_FM_Francisco_Escudero = {
			picture = Francisco_Escudero
			allowed = {
				tag = MEX
			}
			visible = {
				date > 1913.1.1
				date < 1928.1.1
				D_Minister_Allowed = yes
				NOT = {
					has_country_flag = Francisco_Escudero_unavailable
				}
			}
			traits = {
				ideology_D
				FM_Iron_Fisted_Brute
			}
		}
		# Miguel Covarrubias Acosta
		MEX_FM_Miguel_Covarrubias_Acosta = {
			picture = Miguel_Covarrubias_Acosta
			allowed = {
				tag = MEX
			}
			visible = {
				date > 1920.1.1
				date < 1924.1.1
				D_Minister_Allowed = yes
				NOT = {
					has_country_flag = Miguel_Covarrubias_Acosta_unavailable
				}
			}
			traits = {
				ideology_D
				FM_Ideological_Crusader
			}
		}
		# Cutberto Hidalgo
		MEX_FM_Cutberto_Hidalgo = {
			picture = Cutberto_Hidalgo
			allowed = {
				tag = MEX
			}
			visible = {
				date > 1920.1.1
				date < 1930.1.1
				D_Minister_Allowed = yes
				NOT = {
					has_country_flag = Cutberto_Hidalgo_unavailable
				}
			}
			traits = {
				ideology_D
				FM_The_Cloak_N_Dagger_Schemer
			}
		}
		# Bernardo Sepúlveda Amor
		MEX_FM_Bernardo_Sepulveda_Amor = {
			picture = Bernardo_Sepulveda_Amor
			allowed = {
				tag = MEX
			}
			visible = {
				date > 1985.1.1
				date < 1992.1.1
				D_Minister_Allowed = yes
				NOT = {
					has_country_flag = Bernardo_Sepulveda_Amor_unavailable
				}
			}
			traits = {
				ideology_D
				FM_Great_Compromiser
			}
		}
		# Francisco Lagos Cházaro
		MEX_FM_Francisco_Lagos_Chazaro = {
			picture = Francisco_Lagos_Chazaro
			allowed = {
				tag = MEX
			}
			visible = {
				date > 1913.1.1
				date < 1930.1.1
				D_Minister_Allowed = yes
				NOT = {
					has_country_flag = Francisco_Lagos_Chazaro_unavailable
				}
			}
			traits = {
				ideology_D
				FM_Apologetic_Clerk
			}
		}
		# Julio Ramírez Wiella
		MEX_FM_Julio_Ramirez_Wiella = {
			picture = Julio_Ramirez_Wiella
			allowed = {
				tag = MEX
			}
			visible = {
				date > 1913.1.1
				date < 1930.1.1
				D_Minister_Allowed = yes
				NOT = {
					has_country_flag = Julio_Ramirez_Wiella_unavailable
				}
			}
			traits = {
				ideology_D
				FM_The_Cloak_N_Dagger_Schemer
			}
		}
		# Alberto José Pani
		MEX_FM_Alberto_Jose_Pani = {
			picture = Alberto_Jose_Pani
			allowed = {
				tag = MEX
			}
			visible = {
				date > 1921.1.1
				date < 1930.1.1
				D_Minister_Allowed = yes
				NOT = {
					has_country_flag = Alberto_Jose_Pani_unavailable
				}
			}
			traits = {
				ideology_D
				FM_General_Staffer
			}
		}
		# Aarón Sáenz
		MEX_FM_Aaron_Saenz = {
			picture = Aaron_Saenz
			allowed = {
				tag = MEX
			}
			visible = {
				date > 1923.1.1
				date < 1930.1.1
				D_Minister_Allowed = yes
				NOT = {
					has_country_flag = Aaron_Saenz_unavailable
				}
			}
			traits = {
				ideology_D
				FM_Apologetic_Clerk
			}
		}
		# Eduardo Hay
		MEX_FM_Eduardo_Hay = {
			picture = Eduardo_Hay
			allowed = {
				tag = MEX
			}
			visible = {
				date > 1933.1.1
				date < 1964.1.1
				D_Minister_Allowed = yes
				NOT = {
					has_country_flag = Eduardo_Hay_unavailable
				}
			}
			traits = {
				ideology_D
				FM_Great_Compromiser
			}
		}
		# Ezequiel Padilla Peñaloza
		MEX_FM_Ezequiel_Padilla_Penaloza = {
			picture = Ezequiel_Padilla_Penaloza
			allowed = {
				tag = MEX
			}
			visible = {
				date > 1940.1.1
				date < 1964.1.1
				D_Minister_Allowed = yes
				NOT = {
					has_country_flag = Ezequiel_Padilla_Penaloza_unavailable
				}
			}
			traits = {
				ideology_D
				FM_Iron_Fisted_Brute
			}
		}
		# Francisco Castillo Najera
		MEX_FM_Francisco_Castillo_Najera = {
			picture = Francisco_Castillo_Najera
			allowed = {
				tag = MEX
			}
			visible = {
				date > 1945.1.1
				date < 1964.1.1
				D_Minister_Allowed = yes
				NOT = {
					has_country_flag = Francisco_Castillo_Najera_unavailable
				}
			}
			traits = {
				ideology_D
				FM_General_Staffer
			}
		}
		# Jaime Torres Bodet
		MEX_FM_Jaime_Torres_Bodet = {
			picture = Jaime_Torres_Bodet
			allowed = {
				tag = MEX
			}
			visible = {
				date > 1946.1.1
				date < 1964.1.1
				D_Minister_Allowed = yes
				NOT = {
					has_country_flag = Jaime_Torres_Bodet_unavailable
				}
			}
			traits = {
				ideology_D
				FM_Apologetic_Clerk
			}
		}
		# Luis Padilla Nervo
		MEX_FM_Luis_Padilla_Nervo = {
			picture = Luis_Padilla_Nervo
			allowed = {
				tag = MEX
			}
			visible = {
				date > 1952.1.1
				date < 1964.1.1
				D_Minister_Allowed = yes
				NOT = {
					has_country_flag = Luis_Padilla_Nervo_unavailable
				}
			}
			traits = {
				ideology_D
				FM_Iron_Fisted_Brute
			}
		}
		# José Ortiz Rodriguez
		MEX_FM_Jose_Ortiz_Rodriguez = {
			picture = Jose_Ortiz_Rodriguez
			allowed = {
				tag = MEX
			}
			visible = {
				date > 1913.1.1
				date < 1930.1.1
				S_Minister_Allowed = yes
				NOT = {
					has_country_flag = Jose_Ortiz_Rodriguez_unavailable
				}
			}
			traits = {
				ideology_S
				FM_General_Staffer
			}
		}
		# Mariano Ponton
		MEX_FM_Mariano_Ponton = {
			picture = Mariano_Ponton
			allowed = {
				tag = MEX
			}
			visible = {
				date > 1940.1.1
				date < 1964.1.1
				C_Minister_Allowed = yes
				NOT = {
					has_country_flag = Mariano_Ponton_unavailable
				}
			}
			traits = {
				ideology_C
				FM_The_Cloak_N_Dagger_Schemer
			}
		}
		# Vicente Lombardo Toledano
		MEX_FM_Vicente_Lombardo_Toledano = {
			picture = Vicente_Lombardo_Toledano
			allowed = {
				tag = MEX
			}
			visible = {
				date > 1943.1.1
				date < 1964.1.1
				C_Minister_Allowed = yes
				NOT = {
					has_country_flag = Vicente_Lombardo_Toledano_unavailable
				}
			}
			traits = {
				ideology_C
				FM_Biased_Intellectual
			}
		}
		# Manuel C. Tellez
		MEX_FM_Manuel_C_Tellez = {
			picture = Manuel_C_Tellez
			allowed = {
				tag = MEX
			}
			visible = {
				date > 1946.1.1
				date < 1964.1.1
				C_Minister_Allowed = yes
				NOT = {
					has_country_flag = Manuel_C_Tellez_unavailable
				}
			}
			traits = {
				ideology_C
				FM_Apologetic_Clerk
			}
		}
	}
	#################################################
	### Minister of Security
	#################################################
	Minister_of_Security = {
		# Tomás Garrido Canabal
		MEX_MoS_Tomas_Garrido_Canabal = {
			picture = Tomas_Garrido_Canabal
			allowed = {
				tag = MEX
			}
			visible = {
				date > 1933.1.1
				date < 1964.1.1
				F_Minister_Allowed = yes
				NOT = {
					has_country_flag = Tomas_Garrido_Canabal_unavailable
				}
			}
			traits = {
				ideology_F
				MoS_Prince_Of_Terror
			}
		}
		# Juan Andrew Almazan
		MEX_MoS_Juan_Andrew_Almazan = {
			picture = Juan_Andrew_Almazan
			allowed = {
				tag = MEX
			}
			visible = {
				date > 1940.1.1
				date < 1964.1.1
				F_Minister_Allowed = yes
				NOT = {
					has_country_flag = Juan_Andrew_Almazan_unavailable
				}
			}
			traits = {
				ideology_F
				MoS_Crooked_Kleptocrat
			}
		}
		# Felix Maragaño Flores
		MEX_MoS_Felix_Maragano_Flores = {
			picture = Felix_Maragano_Flores
			allowed = {
				tag = MEX
			}
			visible = {
				date > 1943.1.1
				date < 1964.1.1
				F_Minister_Allowed = yes
				NOT = {
					has_country_flag = Felix_Maragano_Flores_unavailable
				}
			}
			traits = {
				ideology_F
				MoS_Back_Stabber
			}
		}
		# Alberto García Granados
		MEX_MoS_Alberto_Garcia_Granados = {
			picture = Alberto_Garcia_Granados
			allowed = {
				tag = MEX
			}
			visible = {
				date > 1913.1.1
				date < 1930.1.1
				A_Minister_Allowed = yes
				NOT = {
					has_country_flag = Alberto_Garcia_Granados_unavailable
				}
			}
			traits = {
				ideology_A
				MoS_Prince_Of_Terror
			}
		}
		# Aureliano Urrutia
		MEX_MoS_Aureliano_Urrutia = {
			picture = Aureliano_Urrutia
			allowed = {
				tag = MEX
			}
			visible = {
				date > 1913.1.1
				date < 1930.1.1
				A_Minister_Allowed = yes
				NOT = {
					has_country_flag = Aureliano_Urrutia_unavailable
				}
			}
			traits = {
				ideology_A
				MoS_Crime_Fighter
			}
		}
		# Manuel Garza Aldape
		MEX_MoS_Manuel_Garza_Aldape = {
			picture = Manuel_Garza_Aldape
			allowed = {
				tag = MEX
			}
			visible = {
				date > 1913.1.1
				date < 1924.1.1
				A_Minister_Allowed = yes
				NOT = {
					has_country_flag = Manuel_Garza_Aldape_unavailable
				}
			}
			traits = {
				ideology_A
				MoS_Silent_Lawyer
			}
		}
		# Ignacio Alcocer
		MEX_MoS_Ignacio_Alcocer = {
			picture = Ignacio_Alcocer
			allowed = {
				tag = MEX
			}
			visible = {
				date > 1913.1.1
				date < 1930.1.1
				A_Minister_Allowed = yes
				NOT = {
					has_country_flag = Ignacio_Alcocer_unavailable
				}
			}
			traits = {
				ideology_A
				MoS_Back_Stabber
			}
		}
		# Pedro Peña Cavazos
		MEX_MoS_Pedro_Pena_Cavazos = {
			picture = Pedro_Pena_Cavazos
			allowed = {
				tag = MEX
			}
			visible = {
				date > 1946.1.1
				date < 1964.1.1
				A_Minister_Allowed = yes
				NOT = {
					has_country_flag = Pedro_Pena_Cavazos_unavailable
				}
			}
			traits = {
				ideology_A
				MoS_Man_Of_The_People
			}
		}
		# Enrique C. del Rio
		MEX_MoS_Enrique_C_del_Rio = {
			picture = Enrique_C_del_Rio
			allowed = {
				tag = MEX
			}
			visible = {
				date > 1940.1.1
				date < 1964.1.1
				D_Minister_Allowed = yes
				NOT = {
					has_country_flag = Enrique_C_del_Rio_unavailable
				}
			}
			traits = {
				ideology_D
				MoS_Compassionate_Gentleman
			}
		}
		# Manuel Gomez Marin
		MEX_MoS_Manuel_Gomez_Marin = {
			picture = Manuel_Gomez_Marin
			allowed = {
				tag = MEX
			}
			visible = {
				date > 1946.1.1
				date < 1964.1.1
				D_Minister_Allowed = yes
				NOT = {
					has_country_flag = Manuel_Gomez_Marin_unavailable
				}
			}
			traits = {
				ideology_D
				MoS_Man_Of_The_People
			}
		}
		# Manuel Aguirre Berlanga
		MEX_MoS_Manuel_Aguirre_Berlanga = {
			picture = Manuel_Aguirre_Berlanga
			allowed = {
				tag = MEX
			}
			visible = {
				date > 1917.1.1
				date < 1930.1.1
				D_Minister_Allowed = yes
				NOT = {
					has_country_flag = Manuel_Aguirre_Berlanga_unavailable
				}
			}
			traits = {
				ideology_D
				MoS_Efficient_Sociopath
			}
		}
		# José Quevedo
		MEX_MoS_Jose_Quevedo = {
			picture = Jose_Quevedo
			allowed = {
				tag = MEX
			}
			visible = {
				date > 1913.1.1
				date < 1930.1.1
				D_Minister_Allowed = yes
				NOT = {
					has_country_flag = Jose_Quevedo_unavailable
				}
			}
			traits = {
				ideology_D
				MoS_Efficient_Sociopath
			}
		}
		# Adolfo de la Huerta
		MEX_MoS_Adolfo_de_la_Huerta = {
			picture = Adolfo_de_la_Huerta
			allowed = {
				tag = MEX
			}
			visible = {
				date > 1915.1.1
				date < 1930.1.1
				D_Minister_Allowed = yes
				NOT = {
					has_country_flag = Adolfo_de_la_Huerta_unavailable
				}
			}
			traits = {
				ideology_D
				MoS_Crime_Fighter
			}
		}
		# Gilberto Valenzuela
		MEX_MoS_Gilberto_Valenzuela = {
			picture = Gilberto_Valenzuela
			allowed = {
				tag = MEX
			}
			visible = {
				date > 1920.1.1
				date < 1930.1.1
				D_Minister_Allowed = yes
				NOT = {
					has_country_flag = Gilberto_Valenzuela_unavailable
				}
			}
			traits = {
				ideology_D
				MoS_Man_Of_The_People
			}
		}
		#  José Inocente Lugo
		MEX_MoS__Jose_Inocente_Lugo = {
			picture = _Jose_Inocente_Lugo
			allowed = {
				tag = MEX
			}
			visible = {
				date > 1920.1.1
				date < 1930.1.1
				D_Minister_Allowed = yes
				NOT = {
					has_country_flag = _Jose_Inocente_Lugo_unavailable
				}
			}
			traits = {
				ideology_D
				MoS_Prince_Of_Terror
			}
		}
		# Manuel Bartlett Díaz
		MEX_MoS_Manuel_Bartlett_Diaz = {
			picture = Manuel_Bartlett_Diaz
			allowed = {
				tag = MEX
			}
			visible = {
				date > 1985.1.1
				date < 1992.1.1
				D_Minister_Allowed = yes
				NOT = {
					has_country_flag = Manuel_Bartlett_Diaz_unavailable
				}
			}
			traits = {
				ideology_D
				MoS_Back_Stabber
			}
		}
		# Amalia García
		MEX_MoS_Amalia_Garcia = {
			picture = Amalia_Garcia
			allowed = {
				tag = MEX
			}
			visible = {
				date > 1985.1.1
				date < 1992.1.1
				D_Minister_Allowed = yes
				NOT = {
					has_country_flag = Amalia_Garcia_unavailable
				}
			}
			traits = {
				ideology_D
				MoS_Man_Of_The_People
			}
		}
		# José Lucio Blanco Fuentes
		MEX_MoS_Jose_Lucio_Blanco_Fuentes = {
			picture = Jose_Lucio_Blanco_Fuentes
			allowed = {
				tag = MEX
			}
			visible = {
				date > 1913.1.1
				date < 1930.1.1
				D_Minister_Allowed = yes
				NOT = {
					has_country_flag = Jose_Lucio_Blanco_Fuentes_unavailable
				}
			}
			traits = {
				ideology_D
				MoS_Prince_Of_Terror
			}
		}
		# Francisco Lagos Cházaro
		MEX_MoS_Francisco_Lagos_Chazaro = {
			picture = Francisco_Lagos_Chazaro
			allowed = {
				tag = MEX
			}
			visible = {
				date > 1913.1.1
				date < 1930.1.1
				D_Minister_Allowed = yes
				NOT = {
					has_country_flag = Francisco_Lagos_Chazaro_unavailable
				}
			}
			traits = {
				ideology_D
				MoS_Compassionate_Gentleman
			}
		}
		# Rafael Zubarán Capmany
		MEX_MoS_Rafael_Zubaran_Capmany = {
			picture = Rafael_Zubaran_Capmany
			allowed = {
				tag = MEX
			}
			visible = {
				date > 1913.1.1
				date < 1930.1.1
				D_Minister_Allowed = yes
				NOT = {
					has_country_flag = Rafael_Zubaran_Capmany_unavailable
				}
			}
			traits = {
				ideology_D
				MoS_Compassionate_Gentleman
			}
		}
		# Plutarco Elías Calles
		MEX_MoS_Plutarco_Elias_Calles = {
			picture = Plutarco_Elias_Calles
			allowed = {
				tag = MEX
			}
			visible = {
				date > 1920.1.1
				date < 1930.1.1
				D_Minister_Allowed = yes
				NOT = {
					has_country_flag = Plutarco_Elias_Calles_unavailable
				}
			}
			traits = {
				ideology_D
				MoS_Silent_Lawyer
			}
		}
		# Enrique Colunga
		MEX_MoS_Enrique_Colunga = {
			picture = Enrique_Colunga
			allowed = {
				tag = MEX
			}
			visible = {
				date > 1923.1.1
				date < 1930.1.1
				D_Minister_Allowed = yes
				NOT = {
					has_country_flag = Enrique_Colunga_unavailable
				}
			}
			traits = {
				ideology_D
				MoS_Back_Stabber
			}
		}
		# Romeo Ortega
		MEX_MoS_Romeo_Ortega = {
			picture = Romeo_Ortega
			allowed = {
				tag = MEX
			}
			visible = {
				date > 1924.1.1
				date < 1930.1.1
				D_Minister_Allowed = yes
				NOT = {
					has_country_flag = Romeo_Ortega_unavailable
				}
			}
			traits = {
				ideology_D
				MoS_Efficient_Sociopath
			}
		}
		# Francisco U. Benavides
		MEX_MoS_Francisco_U_Benavides = {
			picture = Francisco_U_Benavides
			allowed = {
				tag = MEX
			}
			visible = {
				date > 1933.1.1
				date < 1964.1.1
				D_Minister_Allowed = yes
				NOT = {
					has_country_flag = Francisco_U_Benavides_unavailable
				}
			}
			traits = {
				ideology_D
				MoS_Man_Of_The_People
			}
		}
		# Andres F. Figueroa
		MEX_MoS_Andres_F_Figueroa = {
			picture = Andres_F_Figueroa
			allowed = {
				tag = MEX
			}
			visible = {
				date > 1938.1.1
				date < 1964.1.1
				D_Minister_Allowed = yes
				NOT = {
					has_country_flag = Andres_F_Figueroa_unavailable
				}
			}
			traits = {
				ideology_D
				MoS_Crime_Fighter
			}
		}
		# Genaro Estrada
		MEX_MoS_Genaro_Estrada = {
			picture = Genaro_Estrada
			allowed = {
				tag = MEX
			}
			visible = {
				date > 1940.1.1
				date < 1964.1.1
				D_Minister_Allowed = yes
				NOT = {
					has_country_flag = Genaro_Estrada_unavailable
				}
			}
			traits = {
				ideology_D
				MoS_Prince_Of_Terror
			}
		}
		# Joaquin Amaro Dominguez
		MEX_MoS_Joaquin_Amaro_Dominguez = {
			picture = Joaquin_Amaro_Dominguez
			allowed = {
				tag = MEX
			}
			visible = {
				date > 1942.1.1
				date < 1964.1.1
				D_Minister_Allowed = yes
				NOT = {
					has_country_flag = Joaquin_Amaro_Dominguez_unavailable
				}
			}
			traits = {
				ideology_D
				MoS_Back_Stabber
			}
		}
		# Miguel Aleman Valdes
		MEX_MoS_Miguel_Aleman_Valdes = {
			picture = Miguel_Aleman_Valdes
			allowed = {
				tag = MEX
			}
			visible = {
				date > 1943.1.1
				date < 1964.1.1
				D_Minister_Allowed = yes
				NOT = {
					has_country_flag = Miguel_Aleman_Valdes_unavailable
				}
			}
			traits = {
				ideology_D
				MoS_Man_Of_The_People
			}
		}
		# Adolfo Ruiz Cortines
		MEX_MoS_Adolfo_Ruiz_Cortines = {
			picture = Adolfo_Ruiz_Cortines
			allowed = {
				tag = MEX
			}
			visible = {
				date > 1945.1.1
				date < 1964.1.1
				D_Minister_Allowed = yes
				NOT = {
					has_country_flag = Adolfo_Ruiz_Cortines_unavailable
				}
			}
			traits = {
				ideology_D
				MoS_Silent_Lawyer
			}
		}
		# Manuel Tello Baurraud
		MEX_MoS_Manuel_Tello_Baurraud = {
			picture = Manuel_Tello_Baurraud
			allowed = {
				tag = MEX
			}
			visible = {
				date > 1946.1.1
				date < 1964.1.1
				D_Minister_Allowed = yes
				NOT = {
					has_country_flag = Manuel_Tello_Baurraud_unavailable
				}
			}
			traits = {
				ideology_D
				MoS_Compassionate_Gentleman
			}
		}
		# Orson Juarez Brown
		MEX_MoS_Orson_Juarez_Brown = {
			picture = Orson_Juarez_Brown
			allowed = {
				tag = MEX
			}
			visible = {
				date > 1952.1.1
				date < 1964.1.1
				D_Minister_Allowed = yes
				NOT = {
					has_country_flag = Orson_Juarez_Brown_unavailable
				}
			}
			traits = {
				ideology_D
				MoS_Crime_Fighter
			}
		}
		# Procopio Herrera
		MEX_MoS_Procopio_Herrera = {
			picture = Procopio_Herrera
			allowed = {
				tag = MEX
			}
			visible = {
				date > 1940.1.1
				date < 1964.1.1
				C_Minister_Allowed = yes
				NOT = {
					has_country_flag = Procopio_Herrera_unavailable
				}
			}
			traits = {
				ideology_C
				MoS_Efficient_Sociopath
			}
		}
		# Mariano Ponton
		MEX_MoS_Mariano_Ponton = {
			picture = Mariano_Ponton
			allowed = {
				tag = MEX
			}
			visible = {
				date > 1946.1.1
				date < 1964.1.1
				C_Minister_Allowed = yes
				NOT = {
					has_country_flag = Mariano_Ponton_unavailable
				}
			}
			traits = {
				ideology_C
				MoS_Back_Stabber
			}
		}
	}
	#################################################
	### Armaments Minister
	#################################################
	Armaments_Minister = {
		# Juan Andrew Almazan
		MEX_AM_Juan_Andrew_Almazan = {
			picture = Juan_Andrew_Almazan
			allowed = {
				tag = MEX
			}
			visible = {
				date > 1940.1.1
				date < 1964.1.1
				F_Minister_Allowed = yes
				NOT = {
					has_country_flag = Juan_Andrew_Almazan_unavailable
				}
			}
			traits = {
				ideology_F
				AM_Corrupt_Kleptocrat
			}
		}
		# Manuel Garza Aldape
		MEX_AM_Manuel_Garza_Aldape = {
			picture = Manuel_Garza_Aldape
			allowed = {
				tag = MEX
			}
			visible = {
				date > 1913.1.1
				date < 1924.1.1
				A_Minister_Allowed = yes
				NOT = {
					has_country_flag = Manuel_Garza_Aldape_unavailable
				}
			}
			traits = {
				ideology_A
				AM_Military_Entrepreneur
			}
		}
		# Querido Moheno
		MEX_AM_Querido_Moheno = {
			picture = Querido_Moheno
			allowed = {
				tag = MEX
			}
			visible = {
				date > 1913.1.1
				date < 1930.1.1
				A_Minister_Allowed = yes
				NOT = {
					has_country_flag = Querido_Moheno_unavailable
				}
			}
			traits = {
				ideology_A
				AM_Laissez-faire_Capitalist
			}
		}
		# Ignacio Alcocer
		MEX_AM_Ignacio_Alcocer = {
			picture = Ignacio_Alcocer
			allowed = {
				tag = MEX
			}
			visible = {
				date > 1914.1.1
				date < 1930.1.1
				A_Minister_Allowed = yes
				NOT = {
					has_country_flag = Ignacio_Alcocer_unavailable
				}
			}
			traits = {
				ideology_A
				AM_Air_Superiority_Proponent
			}
		}
		# Salomé Botello
		MEX_AM_Salome_Botello = {
			picture = Salome_Botello
			allowed = {
				tag = MEX
			}
			visible = {
				date > 1914.1.1
				date < 1930.1.1
				A_Minister_Allowed = yes
				NOT = {
					has_country_flag = Salome_Botello_unavailable
				}
			}
			traits = {
				ideology_A
				AM_Administrative_Genius
			}
		}
		# Manuel M. Marquez
		MEX_AM_Manuel_M_Marquez = {
			picture = Manuel_M_Marquez
			allowed = {
				tag = MEX
			}
			visible = {
				date > 1943.1.1
				date < 1964.1.1
				A_Minister_Allowed = yes
				NOT = {
					has_country_flag = Manuel_M_Marquez_unavailable
				}
			}
			traits = {
				ideology_A
				AM_Laissez-faire_Capitalist
			}
		}
		# Luis G. Quintana
		MEX_AM_Luis_G_Quintana = {
			picture = Luis_G_Quintana
			allowed = {
				tag = MEX
			}
			visible = {
				date > 1946.1.1
				date < 1964.1.1
				A_Minister_Allowed = yes
				NOT = {
					has_country_flag = Luis_G_Quintana_unavailable
				}
			}
			traits = {
				ideology_A
				AM_Military_Entrepreneur
			}
		}
		# Francisco R. Serrano
		MEX_AM_Francisco_R_Serrano = {
			picture = Francisco_R_Serrano
			allowed = {
				tag = MEX
			}
			visible = {
				date > 1940.1.1
				date < 1964.1.1
				D_Minister_Allowed = yes
				NOT = {
					has_country_flag = Francisco_R_Serrano_unavailable
				}
			}
			traits = {
				ideology_D
				AM_Resource_Industrialist
			}
		}
		# Florentino Santana
		MEX_AM_Florentino_Santana = {
			picture = Florentino_Santana
			allowed = {
				tag = MEX
			}
			visible = {
				date > 1946.1.1
				date < 1964.1.1
				D_Minister_Allowed = yes
				NOT = {
					has_country_flag = Florentino_Santana_unavailable
				}
			}
			traits = {
				ideology_D
				AM_Laissez-faire_Capitalist
			}
		}
		# Antonio Gomez Robledo
		MEX_AM_Antonio_Gomez_Robledo = {
			picture = Antonio_Gomez_Robledo
			allowed = {
				tag = MEX
			}
			visible = {
				date > 1952.1.1
				date < 1964.1.1
				D_Minister_Allowed = yes
				NOT = {
					has_country_flag = Antonio_Gomez_Robledo_unavailable
				}
			}
			traits = {
				ideology_D
				AM_Battle_Fleet_Proponent
			}
		}
		# Pastor Rouaix
		MEX_AM_Pastor_Rouaix = {
			picture = Pastor_Rouaix
			allowed = {
				tag = MEX
			}
			visible = {
				date > 1914.1.1
				date < 1930.1.1
				D_Minister_Allowed = yes
				NOT = {
					has_country_flag = Pastor_Rouaix_unavailable
				}
			}
			traits = {
				ideology_D
				AM_Laissez-faire_Capitalist
			}
		}
		# Francisco Escudero
		MEX_AM_Francisco_Escudero = {
			picture = Francisco_Escudero
			allowed = {
				tag = MEX
			}
			visible = {
				date > 1913.1.1
				date < 1928.1.1
				D_Minister_Allowed = yes
				NOT = {
					has_country_flag = Francisco_Escudero_unavailable
				}
			}
			traits = {
				ideology_D
				AM_Theoretical_Scientist
			}
		}
		# Adolfo Francisco Salinas
		MEX_AM_Adolfo_Francisco_Salinas = {
			picture = Adolfo_Francisco_Salinas
			allowed = {
				tag = MEX
			}
			visible = {
				date > 1913.1.1
				date < 1930.1.1
				D_Minister_Allowed = yes
				NOT = {
					has_country_flag = Adolfo_Francisco_Salinas_unavailable
				}
			}
			traits = {
				ideology_D
				AM_Military_Entrepreneur
			}
		}
		# Santiago González Cordero
		MEX_AM_Santiago_Gonzalez_Cordero = {
			picture = Santiago_Gonzalez_Cordero
			allowed = {
				tag = MEX
			}
			visible = {
				date > 1913.1.1
				date < 1930.1.1
				D_Minister_Allowed = yes
				NOT = {
					has_country_flag = Santiago_Gonzalez_Cordero_unavailable
				}
			}
			traits = {
				ideology_D
				AM_Battle_Fleet_Proponent
			}
		}
		# Francisco Escudero
		MEX_AM_Francisco_Escudero_2 = {
			picture = Francisco_Escudero_2
			allowed = {
				tag = MEX
			}
			visible = {
				date > 1913.1.1
				date < 1928.1.1
				D_Minister_Allowed = yes
				NOT = {
					has_country_flag = Francisco_Escudero_unavailable
				}
			}
			traits = {
				ideology_D
				AM_Administrative_Genius
			}
		}
		# Jacinto Blas Treviño
		MEX_AM_Jacinto_Blas_Trevino = {
			picture = Jacinto_Blas_Trevino
			allowed = {
				tag = MEX
			}
			visible = {
				date > 1920.1.1
				date < 1930.1.1
				D_Minister_Allowed = yes
				NOT = {
					has_country_flag = Jacinto_Blas_Trevino_unavailable
				}
			}
			traits = {
				ideology_D
				AM_Infantry_Proponent
			}
		}
		# Jesús Silva Herzog Flores
		MEX_AM_Jesus_Silva_Herzog_Flores = {
			picture = Jesus_Silva_Herzog_Flores
			allowed = {
				tag = MEX
			}
			visible = {
				date > 1985.1.1
				date < 1992.1.1
				D_Minister_Allowed = yes
				NOT = {
					has_country_flag = Jesus_Silva_Herzog_Flores_unavailable
				}
			}
			traits = {
				ideology_D
				AM_Laissez-faire_Capitalist
			}
		}
		# Rosario Robles
		MEX_AM_Rosario_Robles = {
			picture = Rosario_Robles
			allowed = {
				tag = MEX
			}
			visible = {
				date > 1985.1.1
				date < 1992.1.1
				D_Minister_Allowed = yes
				NOT = {
					has_country_flag = Rosario_Robles_unavailable
				}
			}
			traits = {
				ideology_D
				AM_Administrative_Genius
			}
		}
		# Valentín Gama y Cruz
		MEX_AM_Valentin_Gama_y_Cruz = {
			picture = Valentin_Gama_y_Cruz
			allowed = {
				tag = MEX
			}
			visible = {
				date > 1913.1.1
				date < 1930.1.1
				D_Minister_Allowed = yes
				NOT = {
					has_country_flag = Valentin_Gama_y_Cruz_unavailable
				}
			}
			traits = {
				ideology_D
				AM_Infantry_Proponent
			}
		}
		# Alberto José Pani
		MEX_AM_Alberto_Jose_Pani = {
			picture = Alberto_Jose_Pani
			allowed = {
				tag = MEX
			}
			visible = {
				date > 1917.1.1
				date < 1930.1.1
				D_Minister_Allowed = yes
				NOT = {
					has_country_flag = Alberto_Jose_Pani_unavailable
				}
			}
			traits = {
				ideology_D
				AM_Corrupt_Kleptocrat
			}
		}
		# Plutarco Elías Calles
		MEX_AM_Plutarco_Elias_Calles = {
			picture = Plutarco_Elias_Calles
			allowed = {
				tag = MEX
			}
			visible = {
				date > 1919.1.1
				date < 1930.1.1
				D_Minister_Allowed = yes
				NOT = {
					has_country_flag = Plutarco_Elias_Calles_unavailable
				}
			}
			traits = {
				ideology_D
				AM_Military_Entrepreneur
			}
		}
		# Rafael Zubarán Capmany
		MEX_AM_Rafael_Zubaran_Capmany = {
			picture = Rafael_Zubaran_Capmany
			allowed = {
				tag = MEX
			}
			visible = {
				date > 1920.1.1
				date < 1930.1.1
				D_Minister_Allowed = yes
				NOT = {
					has_country_flag = Rafael_Zubaran_Capmany_unavailable
				}
			}
			traits = {
				ideology_D
				AM_Theoretical_Scientist
			}
		}
		# Miguel Alessio Robles
		MEX_AM_Miguel_Alessio_Robles = {
			picture = Miguel_Alessio_Robles
			allowed = {
				tag = MEX
			}
			visible = {
				date > 1922.1.1
				date < 1930.1.1
				D_Minister_Allowed = yes
				NOT = {
					has_country_flag = Miguel_Alessio_Robles_unavailable
				}
			}
			traits = {
				ideology_D
				AM_Air_Superiority_Proponent
			}
		}
		# Manuel Pérez Treviño
		MEX_AM_Manuel_Perez_Trevino = {
			picture = Manuel_Perez_Trevino
			allowed = {
				tag = MEX
			}
			visible = {
				date > 1923.1.1
				date < 1930.1.1
				D_Minister_Allowed = yes
				NOT = {
					has_country_flag = Manuel_Perez_Trevino_unavailable
				}
			}
			traits = {
				ideology_D
				AM_Battle_Fleet_Proponent
			}
		}
		# Luis Napoleón Morones
		MEX_AM_Luis_Napoleon_Morones = {
			picture = Luis_Napoleon_Morones
			allowed = {
				tag = MEX
			}
			visible = {
				date > 1924.1.1
				date < 1930.1.1
				D_Minister_Allowed = yes
				NOT = {
					has_country_flag = Luis_Napoleon_Morones_unavailable
				}
			}
			traits = {
				ideology_D
				AM_Infantry_Proponent
			}
		}
		# Enrique Estrada Reynoso
		MEX_AM_Enrique_Estrada_Reynoso = {
			picture = Enrique_Estrada_Reynoso
			allowed = {
				tag = MEX
			}
			visible = {
				date > 1933.1.1
				date < 1964.1.1
				D_Minister_Allowed = yes
				NOT = {
					has_country_flag = Enrique_Estrada_Reynoso_unavailable
				}
			}
			traits = {
				ideology_D
				AM_Infantry_Proponent
			}
		}
		# Emilio Portes Gil
		MEX_AM_Emilio_Portes_Gil = {
			picture = Emilio_Portes_Gil
			allowed = {
				tag = MEX
			}
			visible = {
				date > 1938.1.1
				date < 1964.1.1
				D_Minister_Allowed = yes
				NOT = {
					has_country_flag = Emilio_Portes_Gil_unavailable
				}
			}
			traits = {
				ideology_D
				AM_Submarine_Proponent
			}
		}
		# Rioberto G. Maqueo
		MEX_AM_Rioberto_G_Maqueo = {
			picture = Rioberto_G_Maqueo
			allowed = {
				tag = MEX
			}
			visible = {
				date > 1940.1.1
				date < 1964.1.1
				D_Minister_Allowed = yes
				NOT = {
					has_country_flag = Rioberto_G_Maqueo_unavailable
				}
			}
			traits = {
				ideology_D
				AM_Battle_Fleet_Proponent
			}
		}
		# Jose Manuel Puig
		MEX_AM_Jose_Manuel_Puig = {
			picture = Jose_Manuel_Puig
			allowed = {
				tag = MEX
			}
			visible = {
				date > 1942.1.1
				date < 1964.1.1
				D_Minister_Allowed = yes
				NOT = {
					has_country_flag = Jose_Manuel_Puig_unavailable
				}
			}
			traits = {
				ideology_D
				AM_Theoretical_Scientist
			}
		}
		# Antonio Castro Leal
		MEX_AM_Antonio_Castro_Leal = {
			picture = Antonio_Castro_Leal
			allowed = {
				tag = MEX
			}
			visible = {
				date > 1944.1.1
				date < 1964.1.1
				D_Minister_Allowed = yes
				NOT = {
					has_country_flag = Antonio_Castro_Leal_unavailable
				}
			}
			traits = {
				ideology_D
				AM_Tank_Proponent
			}
		}
		# Adolfo Ruiz Cortines
		MEX_AM_Adolfo_Ruiz_Cortines = {
			picture = Adolfo_Ruiz_Cortines
			allowed = {
				tag = MEX
			}
			visible = {
				date > 1946.1.1
				date < 1964.1.1
				D_Minister_Allowed = yes
				NOT = {
					has_country_flag = Adolfo_Ruiz_Cortines_unavailable
				}
			}
			traits = {
				ideology_D
				AM_Administrative_Genius
			}
		}
		# Manuel Tello Baurraud
		MEX_AM_Manuel_Tello_Baurraud = {
			picture = Manuel_Tello_Baurraud
			allowed = {
				tag = MEX
			}
			visible = {
				date > 1952.1.1
				date < 1964.1.1
				D_Minister_Allowed = yes
				NOT = {
					has_country_flag = Manuel_Tello_Baurraud_unavailable
				}
			}
			traits = {
				ideology_D
				AM_Military_Entrepreneur
			}
		}
		# Luis Zubiría y Campa
		MEX_AM_Luis_Zubiria_y_Campa = {
			picture = Luis_Zubiria_y_Campa
			allowed = {
				tag = MEX
			}
			visible = {
				date > 1913.1.1
				date < 1930.1.1
				S_Minister_Allowed = yes
				NOT = {
					has_country_flag = Luis_Zubiria_y_Campa_unavailable
				}
			}
			traits = {
				ideology_S
				AM_Administrative_Genius
			}
		}
		# Dolores Santapiavo
		MEX_AM_Dolores_Santapiavo = {
			picture = Dolores_Santapiavo
			allowed = {
				tag = MEX
			}
			visible = {
				date > 1940.1.1
				date < 1964.1.1
				C_Minister_Allowed = yes
				NOT = {
					has_country_flag = Dolores_Santapiavo_unavailable
				}
			}
			traits = {
				ideology_C
				AM_Air_To_Ground_Proponent
			}
		}
		# Francisco I. Casian
		MEX_AM_Francisco_I_Casian = {
			picture = Francisco_I_Casian
			allowed = {
				tag = MEX
			}
			visible = {
				date > 1943.1.1
				date < 1964.1.1
				C_Minister_Allowed = yes
				NOT = {
					has_country_flag = Francisco_I_Casian_unavailable
				}
			}
			traits = {
				ideology_C
				AM_Administrative_Genius
			}
		}
	}
	#################################################
	### Head of Intelligence
	#################################################
	Head_of_Intelligence = {
		# Pascual Orozco
		MEX_HoI_Pascual_Orozco = {
			picture = Pascual_Orozco
			allowed = {
				tag = MEX
			}
			visible = {
				date > 1913.1.1
				date < 1930.1.1
				A_Minister_Allowed = yes
				NOT = {
					has_country_flag = Pascual_Orozco_unavailable
				}
			}
			traits = {
				ideology_A
				HoI_Industrial_Specialist
			}
		}
		# Manuel Mondragón
		MEX_HoI_Manuel_Mondragon = {
			picture = Manuel_Mondragon
			allowed = {
				tag = MEX
			}
			visible = {
				date > 1913.1.1
				date < 1922.1.1
				A_Minister_Allowed = yes
				NOT = {
					has_country_flag = Manuel_Mondragon_unavailable
				}
			}
			traits = {
				ideology_A
				HoI_Political_Specialist
			}
		}
		# Aureliano Blanquet
		MEX_HoI_Aureliano_Blanquet = {
			picture = Aureliano_Blanquet
			allowed = {
				tag = MEX
			}
			visible = {
				date > 1913.1.1
				date < 1918.1.1
				A_Minister_Allowed = yes
				NOT = {
					has_country_flag = Aureliano_Blanquet_unavailable
				}
			}
			traits = {
				ideology_A
				HoI_Dismal_Enigma
			}
		}
		# Victor Muñoz Cardenas
		MEX_HoI_Victor_Munoz_Cardenas = {
			picture = Victor_Munoz_Cardenas
			allowed = {
				tag = MEX
			}
			visible = {
				date > 1940.1.1
				date < 1964.1.1
				A_Minister_Allowed = yes
				NOT = {
					has_country_flag = Victor_Munoz_Cardenas_unavailable
				}
			}
			traits = {
				ideology_A
				HoI_Industrial_Specialist
			}
		}
		# Jesus Garza Siller
		MEX_HoI_Jesus_Garza_Siller = {
			picture = Jesus_Garza_Siller
			allowed = {
				tag = MEX
			}
			visible = {
				date > 1946.1.1
				date < 1964.1.1
				A_Minister_Allowed = yes
				NOT = {
					has_country_flag = Jesus_Garza_Siller_unavailable
				}
			}
			traits = {
				ideology_A
				HoI_Logistics_Specialist
			}
		}
		# Juan Andreu Alamaza
		MEX_HoI_Juan_Andreu_Alamaza = {
			picture = Juan_Andreu_Alamaza
			allowed = {
				tag = MEX
			}
			visible = {
				date > 1940.1.1
				date < 1964.1.1
				D_Minister_Allowed = yes
				NOT = {
					has_country_flag = Juan_Andreu_Alamaza_unavailable
				}
			}
			traits = {
				ideology_D
				HoI_Logistics_Specialist
			}
		}
		# Luis Bustamanté Benítez
		MEX_HoI_Luis_Bustamante_Benitez = {
			picture = Luis_Bustamante_Benitez
			allowed = {
				tag = MEX
			}
			visible = {
				date > 1946.1.1
				date < 1964.1.1
				D_Minister_Allowed = yes
				NOT = {
					has_country_flag = Luis_Bustamante_Benitez_unavailable
				}
			}
			traits = {
				ideology_D
				HoI_Naval_Intelligence_Specialist
			}
		}
		# Eduardo Hay
		MEX_HoI_Eduardo_Hay = {
			picture = Eduardo_Hay
			allowed = {
				tag = MEX
			}
			visible = {
				date > 1913.1.1
				date < 1930.1.1
				D_Minister_Allowed = yes
				NOT = {
					has_country_flag = Eduardo_Hay_unavailable
				}
			}
			traits = {
				ideology_D
				HoI_Naval_Intelligence_Specialist
			}
		}
		# Jacinto Blas Treviño
		MEX_HoI_Jacinto_Blas_Trevino = {
			picture = Jacinto_Blas_Trevino
			allowed = {
				tag = MEX
			}
			visible = {
				date > 1913.1.1
				date < 1928.1.1
				D_Minister_Allowed = yes
				NOT = {
					has_country_flag = Jacinto_Blas_Trevino_unavailable
				}
			}
			traits = {
				ideology_D
				HoI_Logistics_Specialist
			}
		}
		# Manuel Bartlett Díaz
		MEX_HoI_Manuel_Bartlett_Diaz = {
			picture = Manuel_Bartlett_Diaz
			allowed = {
				tag = MEX
			}
			visible = {
				date > 1985.1.1
				date < 1992.1.1
				D_Minister_Allowed = yes
				NOT = {
					has_country_flag = Manuel_Bartlett_Diaz_unavailable
				}
			}
			traits = {
				ideology_D
				HoI_Political_Specialist
			}
		}
		# Amalia García
		MEX_HoI_Amalia_Garcia = {
			picture = Amalia_Garcia
			allowed = {
				tag = MEX
			}
			visible = {
				date > 1985.1.1
				date < 1992.1.1
				D_Minister_Allowed = yes
				NOT = {
					has_country_flag = Amalia_Garcia_unavailable
				}
			}
			traits = {
				ideology_D
				HoI_Political_Specialist
			}
		}
		# José Isabel Robles
		MEX_HoI_Jose_Isabel_Robles = {
			picture = Jose_Isabel_Robles
			allowed = {
				tag = MEX
			}
			visible = {
				date > 1913.1.1
				date < 1930.1.1
				D_Minister_Allowed = yes
				NOT = {
					has_country_flag = Jose_Isabel_Robles_unavailable
				}
			}
			traits = {
				ideology_D
				HoI_Technical_Specialist
			}
		}
		# Álvaro Obregón
		MEX_HoI_Alvaro_Obregon = {
			picture = Alvaro_Obregon
			allowed = {
				tag = MEX
			}
			visible = {
				date > 1913.1.1
				date < 1930.1.1
				D_Minister_Allowed = yes
				NOT = {
					has_country_flag = Alvaro_Obregon_unavailable
				}
			}
			traits = {
				ideology_D
				HoI_Technical_Specialist
			}
		}
		# Plutarco E.Calles
		MEX_HoI_Plutarco_ECalles = {
			picture = Plutarco_ECalles
			allowed = {
				tag = MEX
			}
			visible = {
				date > 1933.1.1
				date < 1964.1.1
				D_Minister_Allowed = yes
				NOT = {
					has_country_flag = Plutarco_ECalles_unavailable
				}
			}
			traits = {
				ideology_D
				HoI_Political_Specialist
			}
		}
		# Lázaro Cárdenas
		MEX_HoI_Lazaro_Cardenas = {
			picture = Lazaro_Cardenas
			allowed = {
				tag = MEX
			}
			visible = {
				date > 1938.1.1
				date < 1964.1.1
				D_Minister_Allowed = yes
				NOT = {
					has_country_flag = Lazaro_Cardenas_unavailable
				}
			}
			traits = {
				ideology_D
				HoI_Naval_Intelligence_Specialist
			}
		}
		# Manuel Avila Camacho
		MEX_HoI_Manuel_Avila_Camacho = {
			picture = Manuel_Avila_Camacho
			allowed = {
				tag = MEX
			}
			visible = {
				date > 1940.1.1
				date < 1964.1.1
				D_Minister_Allowed = yes
				NOT = {
					has_country_flag = Manuel_Avila_Camacho_unavailable
				}
			}
			traits = {
				ideology_D
				HoI_Political_Specialist
			}
		}
		# Enrique Estrada Reynoso
		MEX_HoI_Enrique_Estrada_Reynoso = {
			picture = Enrique_Estrada_Reynoso
			allowed = {
				tag = MEX
			}
			visible = {
				date > 1946.1.1
				date < 1964.1.1
				D_Minister_Allowed = yes
				NOT = {
					has_country_flag = Enrique_Estrada_Reynoso_unavailable
				}
			}
			traits = {
				ideology_D
				HoI_Dismal_Enigma
			}
		}
		# Emiliano Zapata
		MEX_HoI_Emiliano_Zapata = {
			picture = Emiliano_Zapata
			allowed = {
				tag = MEX
			}
			visible = {
				date > 1913.1.1
				date < 1930.1.1
				S_Minister_Allowed = yes
				NOT = {
					has_country_flag = Emiliano_Zapata_unavailable
				}
			}
			traits = {
				ideology_S
				HoI_Logistics_Specialist
			}
		}
		# Manuel Palafox
		MEX_HoI_Manuel_Palafox = {
			picture = Manuel_Palafox
			allowed = {
				tag = MEX
			}
			visible = {
				date > 1940.1.1
				date < 1964.1.1
				C_Minister_Allowed = yes
				NOT = {
					has_country_flag = Manuel_Palafox_unavailable
				}
			}
			traits = {
				ideology_C
				HoI_Dismal_Enigma
			}
		}
		# Miguel Colazzo
		MEX_HoI_Miguel_Colazzo = {
			picture = Miguel_Colazzo
			allowed = {
				tag = MEX
			}
			visible = {
				date > 1946.1.1
				date < 1964.1.1
				C_Minister_Allowed = yes
				NOT = {
					has_country_flag = Miguel_Colazzo_unavailable
				}
			}
			traits = {
				ideology_C
				HoI_Political_Specialist
			}
		}
	}
	#################################################
	### Chief of Staff
	#################################################
	Chief_of_Staff = {
		# Tomás Garrido Canabal
		MEX_CoStaff_Tomas_Garrido_Canabal = {
			picture = Tomas_Garrido_Canabal
			allowed = {
				tag = MEX
			}
			visible = {
				date > 1934.1.1
				date < 1964.1.1
				F_Minister_Allowed = yes
				NOT = {
					has_country_flag = Tomas_Garrido_Canabal_unavailable
				}
			}
			traits = {
				ideology_F
				CoStaff_School_Of_Psychology
			}
		}
		# Jesús Ballestreros Miranda
		MEX_CoStaff_Jesus_Ballestreros_Miranda = {
			picture = Jesus_Ballestreros_Miranda
			allowed = {
				tag = MEX
			}
			visible = {
				date > 1940.1.1
				date < 1964.1.1
				F_Minister_Allowed = yes
				NOT = {
					has_country_flag = Jesus_Ballestreros_Miranda_unavailable
				}
			}
			traits = {
				ideology_F
				CoStaff_School_Of_Manoeuvre
			}
		}
		# Pascual Orozco
		MEX_CoStaff_Pascual_Orozco = {
			picture = Pascual_Orozco
			allowed = {
				tag = MEX
			}
			visible = {
				date > 1913.1.1
				date < 1930.1.1
				A_Minister_Allowed = yes
				NOT = {
					has_country_flag = Pascual_Orozco_unavailable
				}
			}
			traits = {
				ideology_A
				CoStaff_School_Of_Fire_Support
			}
		}
		# Manuel Mondragón
		MEX_CoStaff_Manuel_Mondragon = {
			picture = Manuel_Mondragon
			allowed = {
				tag = MEX
			}
			visible = {
				date > 1913.1.1
				date < 1922.1.1
				A_Minister_Allowed = yes
				NOT = {
					has_country_flag = Manuel_Mondragon_unavailable
				}
			}
			traits = {
				ideology_A
				CoStaff_School_Of_Manoeuvre
			}
		}
		# Aureliano Blanquet
		MEX_CoStaff_Aureliano_Blanquet = {
			picture = Aureliano_Blanquet
			allowed = {
				tag = MEX
			}
			visible = {
				date > 1913.1.1
				date < 1918.1.1
				A_Minister_Allowed = yes
				NOT = {
					has_country_flag = Aureliano_Blanquet_unavailable
				}
			}
			traits = {
				ideology_A
				CoStaff_School_Of_Defence
			}
		}
		# José Refugio Velasco
		MEX_CoStaff_Jose_Refugio_Velasco = {
			picture = Jose_Refugio_Velasco
			allowed = {
				tag = MEX
			}
			visible = {
				date > 1913.1.1
				date < 1919.1.1
				A_Minister_Allowed = yes
				NOT = {
					has_country_flag = Jose_Refugio_Velasco_unavailable
				}
			}
			traits = {
				ideology_A
				CoStaff_School_Of_Psychology
			}
		}
		# Enrique  C. del Rio
		MEX_CoStaff_Enrique__C_del_Rio = {
			picture = Enrique__C_del_Rio
			allowed = {
				tag = MEX
			}
			visible = {
				date > 1946.1.1
				date < 1964.1.1
				A_Minister_Allowed = yes
				NOT = {
					has_country_flag = Enrique__C_del_Rio_unavailable
				}
			}
			traits = {
				ideology_A
				CoStaff_School_Of_Psychology
			}
		}
		# Hector Meixueiro
		MEX_CoStaff_Hector_Meixueiro = {
			picture = Hector_Meixueiro
			allowed = {
				tag = MEX
			}
			visible = {
				date > 1940.1.1
				date < 1964.1.1
				D_Minister_Allowed = yes
				NOT = {
					has_country_flag = Hector_Meixueiro_unavailable
				}
			}
			traits = {
				ideology_D
				CoStaff_School_Of_Manoeuvre
			}
		}
		# Juan Arévalo Gardoqui
		MEX_CoStaff_Juan_Arevalo_Gardoqui = {
			picture = Juan_Arevalo_Gardoqui
			allowed = {
				tag = MEX
			}
			visible = {
				date > 1985.1.1
				date < 1992.1.1
				D_Minister_Allowed = yes
				NOT = {
					has_country_flag = Juan_Arevalo_Gardoqui_unavailable
				}
			}
			traits = {
				ideology_D
				CoStaff_School_Of_Defence
			}
		}
		# Miguel Angel Gómez Ortega
		MEX_CoStaff_Miguel_Angel_Gomez_Ortega = {
			picture = Miguel_Angel_Gomez_Ortega
			allowed = {
				tag = MEX
			}
			visible = {
				date > 1985.1.1
				date < 1992.1.1
				D_Minister_Allowed = yes
				NOT = {
					has_country_flag = Miguel_Angel_Gomez_Ortega_unavailable
				}
			}
			traits = {
				ideology_D
				CoStaff_School_Of_Defence
			}
		}
		# Eduardo Hay
		MEX_CoStaff_Eduardo_Hay = {
			picture = Eduardo_Hay
			allowed = {
				tag = MEX
			}
			visible = {
				date > 1914.1.1
				date < 1930.1.1
				D_Minister_Allowed = yes
				NOT = {
					has_country_flag = Eduardo_Hay_unavailable
				}
			}
			traits = {
				ideology_D
				CoStaff_School_Of_Manoeuvre
			}
		}
		# Ignacio L. Pesqueira
		MEX_CoStaff_Ignacio_L_Pesqueira = {
			picture = Ignacio_L_Pesqueira
			allowed = {
				tag = MEX
			}
			visible = {
				date > 1914.1.1
				date < 1930.1.1
				D_Minister_Allowed = yes
				NOT = {
					has_country_flag = Ignacio_L_Pesqueira_unavailable
				}
			}
			traits = {
				ideology_D
				CoStaff_School_Of_Psychology
			}
		}
		# Jesús Agustín Castro
		MEX_CoStaff_Jesus_Agustin_Castro = {
			picture = Jesus_Agustin_Castro
			allowed = {
				tag = MEX
			}
			visible = {
				date > 1917.1.1
				date < 1930.1.1
				D_Minister_Allowed = yes
				NOT = {
					has_country_flag = Jesus_Agustin_Castro_unavailable
				}
			}
			traits = {
				ideology_D
				CoStaff_School_Of_Fire_Support
			}
		}
		# Juan José Ríos
		MEX_CoStaff_Juan_Jose_Rios = {
			picture = Juan_Jose_Rios
			allowed = {
				tag = MEX
			}
			visible = {
				date > 1918.1.1
				date < 1930.1.1
				D_Minister_Allowed = yes
				NOT = {
					has_country_flag = Juan_Jose_Rios_unavailable
				}
			}
			traits = {
				ideology_D
				CoStaff_School_Of_Manoeuvre
			}
		}
		# Francisco L. Urquizo
		MEX_CoStaff_Francisco_L_Urquizo = {
			picture = Francisco_L_Urquizo
			allowed = {
				tag = MEX
			}
			visible = {
				date > 1920.1.1
				date < 1930.1.1
				D_Minister_Allowed = yes
				NOT = {
					has_country_flag = Francisco_L_Urquizo_unavailable
				}
			}
			traits = {
				ideology_D
				CoStaff_School_Of_Defence
			}
		}
		# Jacinto Blas Treviño
		MEX_CoStaff_Jacinto_Blas_Trevino = {
			picture = Jacinto_Blas_Trevino
			allowed = {
				tag = MEX
			}
			visible = {
				date > 1914.1.1
				date < 1930.1.1
				D_Minister_Allowed = yes
				NOT = {
					has_country_flag = Jacinto_Blas_Trevino_unavailable
				}
			}
			traits = {
				ideology_D
				CoStaff_School_Of_Defence
			}
		}
		# José Isabel Robles
		MEX_CoStaff_Jose_Isabel_Robles = {
			picture = Jose_Isabel_Robles
			allowed = {
				tag = MEX
			}
			visible = {
				date > 1913.1.1
				date < 1930.1.1
				D_Minister_Allowed = yes
				NOT = {
					has_country_flag = Jose_Isabel_Robles_unavailable
				}
			}
			traits = {
				ideology_D
				CoStaff_School_Of_Manoeuvre
			}
		}
		# Francisco Pacheco
		MEX_CoStaff_Francisco_Pacheco = {
			picture = Francisco_Pacheco
			allowed = {
				tag = MEX
			}
			visible = {
				date > 1913.1.1
				date < 1930.1.1
				D_Minister_Allowed = yes
				NOT = {
					has_country_flag = Francisco_Pacheco_unavailable
				}
			}
			traits = {
				ideology_D
				CoStaff_School_Of_Defence
			}
		}
		# Alfredo Serratos Amador
		MEX_CoStaff_Alfredo_Serratos_Amador = {
			picture = Alfredo_Serratos_Amador
			allowed = {
				tag = MEX
			}
			visible = {
				date > 1913.1.1
				date < 1930.1.1
				D_Minister_Allowed = yes
				NOT = {
					has_country_flag = Alfredo_Serratos_Amador_unavailable
				}
			}
			traits = {
				ideology_D
				CoStaff_School_Of_Fire_Support
			}
		}
		# Álvaro Obregón
		MEX_CoStaff_Alvaro_Obregon = {
			picture = Alvaro_Obregon
			allowed = {
				tag = MEX
			}
			visible = {
				date > 1916.1.1
				date < 1928.1.1
				D_Minister_Allowed = yes
				NOT = {
					has_country_flag = Alvaro_Obregon_unavailable
				}
			}
			traits = {
				ideology_D
				CoStaff_School_Of_Mass_Combat
			}
		}
		# Plutarco Elías Calles
		MEX_CoStaff_Plutarco_Elias_Calles = {
			picture = Plutarco_Elias_Calles
			allowed = {
				tag = MEX
			}
			visible = {
				date > 1920.1.1
				date < 1930.1.1
				D_Minister_Allowed = yes
				NOT = {
					has_country_flag = Plutarco_Elias_Calles_unavailable
				}
			}
			traits = {
				ideology_D
				CoStaff_School_Of_Psychology
			}
		}
		# Benjamín Hill
		MEX_CoStaff_Benjamin_Hill = {
			picture = Benjamin_Hill
			allowed = {
				tag = MEX
			}
			visible = {
				date > 1920.1.1
				date < 1920.1.1
				D_Minister_Allowed = yes
				NOT = {
					has_country_flag = Benjamin_Hill_unavailable
				}
			}
			traits = {
				ideology_D
				CoStaff_School_Of_Mass_Combat
			}
		}
		# Enrique Estrada Reynoso
		MEX_CoStaff_Enrique_Estrada_Reynoso = {
			picture = Enrique_Estrada_Reynoso
			allowed = {
				tag = MEX
			}
			visible = {
				date > 1920.1.1
				date < 1930.1.1
				D_Minister_Allowed = yes
				NOT = {
					has_country_flag = Enrique_Estrada_Reynoso_unavailable
				}
			}
			traits = {
				ideology_D
				CoStaff_School_Of_Fire_Support
			}
		}
		# Francisco Roque Serrano
		MEX_CoStaff_Francisco_Roque_Serrano = {
			picture = Francisco_Roque_Serrano
			allowed = {
				tag = MEX
			}
			visible = {
				date > 1922.1.1
				date < 1927.1.1
				D_Minister_Allowed = yes
				NOT = {
					has_country_flag = Francisco_Roque_Serrano_unavailable
				}
			}
			traits = {
				ideology_D
				CoStaff_School_Of_Manoeuvre
			}
		}
		# Joaquín Amaro Domínguez
		MEX_CoStaff_Joaquin_Amaro_Dominguez = {
			picture = Joaquin_Amaro_Dominguez
			allowed = {
				tag = MEX
			}
			visible = {
				date > 1924.1.1
				date < 1930.1.1
				D_Minister_Allowed = yes
				NOT = {
					has_country_flag = Joaquin_Amaro_Dominguez_unavailable
				}
			}
			traits = {
				ideology_D
				CoStaff_School_Of_Defence
			}
		}
		# Benjamin G. Hill
		MEX_CoStaff_Benjamin_G_Hill = {
			picture = Benjamin_G_Hill
			allowed = {
				tag = MEX
			}
			visible = {
				date > 1933.1.1
				date < 1964.1.1
				D_Minister_Allowed = yes
				NOT = {
					has_country_flag = Benjamin_G_Hill_unavailable
				}
			}
			traits = {
				ideology_D
				CoStaff_School_Of_Defence
			}
		}
		# Pablo Quiroga Escamillo
		MEX_CoStaff_Pablo_Quiroga_Escamillo = {
			picture = Pablo_Quiroga_Escamillo
			allowed = {
				tag = MEX
			}
			visible = {
				date > 1933.1.1
				date < 1964.1.1
				D_Minister_Allowed = yes
				NOT = {
					has_country_flag = Pablo_Quiroga_Escamillo_unavailable
				}
			}
			traits = {
				ideology_D
				CoStaff_School_Of_Mass_Combat
			}
		}
		# Gustavo Salinas Camina
		MEX_CoStaff_Gustavo_Salinas_Camina = {
			picture = Gustavo_Salinas_Camina
			allowed = {
				tag = MEX
			}
			visible = {
				date > 1940.1.1
				date < 1964.1.1
				D_Minister_Allowed = yes
				NOT = {
					has_country_flag = Gustavo_Salinas_Camina_unavailable
				}
			}
			traits = {
				ideology_D
				CoStaff_School_Of_Defence
			}
		}
		# Francisco 'Pancho' Villa 
		MEX_CoStaff_Francisco_Pancho_Villa_ = {
			picture = Francisco_Pancho_Villa_
			allowed = {
				tag = MEX
			}
			visible = {
				date > 1913.1.1
				date < 1930.1.1
				S_Minister_Allowed = yes
				NOT = {
					has_country_flag = Francisco_Pancho_Villa__unavailable
				}
			}
			traits = {
				ideology_S
				CoStaff_School_Of_Psychology
			}
		}
		# Augustín Mendoza Caïs
		MEX_CoStaff_Augustin_Mendoza_Cais = {
			picture = Augustin_Mendoza_Cais
			allowed = {
				tag = MEX
			}
			visible = {
				date > 1940.1.1
				date < 1964.1.1
				C_Minister_Allowed = yes
				NOT = {
					has_country_flag = Augustin_Mendoza_Cais_unavailable
				}
			}
			traits = {
				ideology_C
				CoStaff_School_Of_Defence
			}
		}
		# Manuel Palafox
		MEX_CoStaff_Manuel_Palafox = {
			picture = Manuel_Palafox
			allowed = {
				tag = MEX
			}
			visible = {
				date > 1946.1.1
				date < 1964.1.1
				C_Minister_Allowed = yes
				NOT = {
					has_country_flag = Manuel_Palafox_unavailable
				}
			}
			traits = {
				ideology_C
				CoStaff_School_Of_Fire_Support
			}
		}
	}
	#################################################
	### Chief of Army
	#################################################
	Chief_of_Army = {
		# Pascual Orozco
		MEX_CoArmy_Pascual_Orozco = {
			picture = Pascual_Orozco
			allowed = {
				tag = MEX
			}
			visible = {
				date > 1913.1.1
				date < 1930.1.1
				A_Minister_Allowed = yes
				NOT = {
					has_country_flag = Pascual_Orozco_unavailable
				}
			}
			traits = {
				ideology_A
				CoArmy_Decisive_Battle_Doctrine
			}
		}
		# Manuel Mondragón
		MEX_CoArmy_Manuel_Mondragon = {
			picture = Manuel_Mondragon
			allowed = {
				tag = MEX
			}
			visible = {
				date > 1913.1.1
				date < 1922.1.1
				A_Minister_Allowed = yes
				NOT = {
					has_country_flag = Manuel_Mondragon_unavailable
				}
			}
			traits = {
				ideology_A
				CoArmy_Static_Defence_Doctrine
			}
		}
		# Aureliano Blanquet
		MEX_CoArmy_Aureliano_Blanquet = {
			picture = Aureliano_Blanquet
			allowed = {
				tag = MEX
			}
			visible = {
				date > 1913.1.1
				date < 1918.1.1
				A_Minister_Allowed = yes
				NOT = {
					has_country_flag = Aureliano_Blanquet_unavailable
				}
			}
			traits = {
				ideology_A
				CoArmy_Elastic_Defence_Doctrine
			}
		}
		# José Refugio Velasco
		MEX_CoArmy_Jose_Refugio_Velasco = {
			picture = Jose_Refugio_Velasco
			allowed = {
				tag = MEX
			}
			visible = {
				date > 1913.1.1
				date < 1919.1.1
				A_Minister_Allowed = yes
				NOT = {
					has_country_flag = Jose_Refugio_Velasco_unavailable
				}
			}
			traits = {
				ideology_A
				CoArmy_Guns_And_Butter_Doctrine
			}
		}
		# Plutarco E. Calles
		MEX_CoArmy_Plutarco_E_Calles = {
			picture = Plutarco_E_Calles
			allowed = {
				tag = MEX
			}
			visible = {
				date > 1940.1.1
				date < 1964.1.1
				A_Minister_Allowed = yes
				NOT = {
					has_country_flag = Plutarco_E_Calles_unavailable
				}
			}
			traits = {
				ideology_A
				CoArmy_Static_Defence_Doctrine
			}
		}
		# Cesar Parada Henriques
		MEX_CoArmy_Cesar_Parada_Henriques = {
			picture = Cesar_Parada_Henriques
			allowed = {
				tag = MEX
			}
			visible = {
				date > 1946.1.1
				date < 1964.1.1
				A_Minister_Allowed = yes
				NOT = {
					has_country_flag = Cesar_Parada_Henriques_unavailable
				}
			}
			traits = {
				ideology_A
				CoArmy_Elastic_Defence_Doctrine
			}
		}
		# Gilberto Limon Marquez
		MEX_CoArmy_Gilberto_Limon_Marquez = {
			picture = Gilberto_Limon_Marquez
			allowed = {
				tag = MEX
			}
			visible = {
				date > 1940.1.1
				date < 1964.1.1
				D_Minister_Allowed = yes
				NOT = {
					has_country_flag = Gilberto_Limon_Marquez_unavailable
				}
			}
			traits = {
				ideology_D
				CoArmy_Static_Defence_Doctrine
			}
		}
		# Juan Arévalo Gardoqui
		MEX_CoArmy_Juan_Arevalo_Gardoqui = {
			picture = Juan_Arevalo_Gardoqui
			allowed = {
				tag = MEX
			}
			visible = {
				date > 1985.1.1
				date < 1992.1.1
				D_Minister_Allowed = yes
				NOT = {
					has_country_flag = Juan_Arevalo_Gardoqui_unavailable
				}
			}
			traits = {
				ideology_D
				CoArmy_Static_Defence_Doctrine
			}
		}
		# Gerardo Vega Garcia
		MEX_CoArmy_Gerardo_Vega_Garcia = {
			picture = Gerardo_Vega_Garcia
			allowed = {
				tag = MEX
			}
			visible = {
				date > 1985.1.1
				date < 1992.1.1
				D_Minister_Allowed = yes
				NOT = {
					has_country_flag = Gerardo_Vega_Garcia_unavailable
				}
			}
			traits = {
				ideology_D
				CoArmy_Static_Defence_Doctrine
			}
		}
		# Eduardo Hay
		MEX_CoArmy_Eduardo_Hay = {
			picture = Eduardo_Hay
			allowed = {
				tag = MEX
			}
			visible = {
				date > 1914.1.1
				date < 1930.1.1
				D_Minister_Allowed = yes
				NOT = {
					has_country_flag = Eduardo_Hay_unavailable
				}
			}
			traits = {
				ideology_D
				CoArmy_Armoured_Spearhead_Doctrine
			}
		}
		# Ignacio L. Pesqueira
		MEX_CoArmy_Ignacio_L_Pesqueira = {
			picture = Ignacio_L_Pesqueira
			allowed = {
				tag = MEX
			}
			visible = {
				date > 1914.1.1
				date < 1930.1.1
				D_Minister_Allowed = yes
				NOT = {
					has_country_flag = Ignacio_L_Pesqueira_unavailable
				}
			}
			traits = {
				ideology_D
				CoArmy_Static_Defence_Doctrine
			}
		}
		# Jesús Agustín Castro
		MEX_CoArmy_Jesus_Agustin_Castro = {
			picture = Jesus_Agustin_Castro
			allowed = {
				tag = MEX
			}
			visible = {
				date > 1917.1.1
				date < 1930.1.1
				D_Minister_Allowed = yes
				NOT = {
					has_country_flag = Jesus_Agustin_Castro_unavailable
				}
			}
			traits = {
				ideology_D
				CoArmy_Guns_And_Butter_Doctrine
			}
		}
		# Juan José Ríos
		MEX_CoArmy_Juan_Jose_Rios = {
			picture = Juan_Jose_Rios
			allowed = {
				tag = MEX
			}
			visible = {
				date > 1918.1.1
				date < 1930.1.1
				D_Minister_Allowed = yes
				NOT = {
					has_country_flag = Juan_Jose_Rios_unavailable
				}
			}
			traits = {
				ideology_D
				CoArmy_Armoured_Spearhead_Doctrine
			}
		}
		# Francisco L. Urquizo
		MEX_CoArmy_Francisco_L_Urquizo = {
			picture = Francisco_L_Urquizo
			allowed = {
				tag = MEX
			}
			visible = {
				date > 1920.1.1
				date < 1930.1.1
				D_Minister_Allowed = yes
				NOT = {
					has_country_flag = Francisco_L_Urquizo_unavailable
				}
			}
			traits = {
				ideology_D
				CoArmy_Decisive_Battle_Doctrine
			}
		}
		# Jacinto Blas Treviño
		MEX_CoArmy_Jacinto_Blas_Trevino = {
			picture = Jacinto_Blas_Trevino
			allowed = {
				tag = MEX
			}
			visible = {
				date > 1914.1.1
				date < 1930.1.1
				D_Minister_Allowed = yes
				NOT = {
					has_country_flag = Jacinto_Blas_Trevino_unavailable
				}
			}
			traits = {
				ideology_D
				CoArmy_Decisive_Battle_Doctrine
			}
		}
		# Francisco Pacheco
		MEX_CoArmy_Francisco_Pacheco = {
			picture = Francisco_Pacheco
			allowed = {
				tag = MEX
			}
			visible = {
				date > 1913.1.1
				date < 1930.1.1
				D_Minister_Allowed = yes
				NOT = {
					has_country_flag = Francisco_Pacheco_unavailable
				}
			}
			traits = {
				ideology_D
				CoArmy_Decisive_Battle_Doctrine
			}
		}
		# Alfredo Serratos Amador
		MEX_CoArmy_Alfredo_Serratos_Amador = {
			picture = Alfredo_Serratos_Amador
			allowed = {
				tag = MEX
			}
			visible = {
				date > 1913.1.1
				date < 1930.1.1
				D_Minister_Allowed = yes
				NOT = {
					has_country_flag = Alfredo_Serratos_Amador_unavailable
				}
			}
			traits = {
				ideology_D
				CoArmy_Guns_And_Butter_Doctrine
			}
		}
		# Álvaro Obregón
		MEX_CoArmy_Alvaro_Obregon = {
			picture = Alvaro_Obregon
			allowed = {
				tag = MEX
			}
			visible = {
				date > 1916.1.1
				date < 1928.1.1
				D_Minister_Allowed = yes
				NOT = {
					has_country_flag = Alvaro_Obregon_unavailable
				}
			}
			traits = {
				ideology_D
				CoArmy_Elastic_Defence_Doctrine
			}
		}
		# Plutarco Elías Calles
		MEX_CoArmy_Plutarco_Elias_Calles = {
			picture = Plutarco_Elias_Calles
			allowed = {
				tag = MEX
			}
			visible = {
				date > 1920.1.1
				date < 1930.1.1
				D_Minister_Allowed = yes
				NOT = {
					has_country_flag = Plutarco_Elias_Calles_unavailable
				}
			}
			traits = {
				ideology_D
				CoArmy_Static_Defence_Doctrine
			}
		}
		# Benjamín Hill
		MEX_CoArmy_Benjamin_Hill = {
			picture = Benjamin_Hill
			allowed = {
				tag = MEX
			}
			visible = {
				date > 1920.1.1
				date < 1920.1.1
				D_Minister_Allowed = yes
				NOT = {
					has_country_flag = Benjamin_Hill_unavailable
				}
			}
			traits = {
				ideology_D
				CoArmy_Elastic_Defence_Doctrine
			}
		}
		# Enrique Estrada Reynoso
		MEX_CoArmy_Enrique_Estrada_Reynoso = {
			picture = Enrique_Estrada_Reynoso
			allowed = {
				tag = MEX
			}
			visible = {
				date > 1920.1.1
				date < 1930.1.1
				D_Minister_Allowed = yes
				NOT = {
					has_country_flag = Enrique_Estrada_Reynoso_unavailable
				}
			}
			traits = {
				ideology_D
				CoArmy_Guns_And_Butter_Doctrine
			}
		}
		# Francisco Roque Serrano
		MEX_CoArmy_Francisco_Roque_Serrano = {
			picture = Francisco_Roque_Serrano
			allowed = {
				tag = MEX
			}
			visible = {
				date > 1922.1.1
				date < 1927.1.1
				D_Minister_Allowed = yes
				NOT = {
					has_country_flag = Francisco_Roque_Serrano_unavailable
				}
			}
			traits = {
				ideology_D
				CoArmy_Armoured_Spearhead_Doctrine
			}
		}
		# Joaquín Amaro Domínguez
		MEX_CoArmy_Joaquin_Amaro_Dominguez = {
			picture = Joaquin_Amaro_Dominguez
			allowed = {
				tag = MEX
			}
			visible = {
				date > 1924.1.1
				date < 1930.1.1
				D_Minister_Allowed = yes
				NOT = {
					has_country_flag = Joaquin_Amaro_Dominguez_unavailable
				}
			}
			traits = {
				ideology_D
				CoArmy_Decisive_Battle_Doctrine
			}
		}
		# Pablo Quiroga Escamillo
		MEX_CoArmy_Pablo_Quiroga_Escamillo = {
			picture = Pablo_Quiroga_Escamillo
			allowed = {
				tag = MEX
			}
			visible = {
				date > 1933.1.1
				date < 1964.1.1
				D_Minister_Allowed = yes
				NOT = {
					has_country_flag = Pablo_Quiroga_Escamillo_unavailable
				}
			}
			traits = {
				ideology_D
				CoArmy_Static_Defence_Doctrine
			}
		}
		# Pablo M. Valenzuela
		MEX_CoArmy_Pablo_M_Valenzuela = {
			picture = Pablo_M_Valenzuela
			allowed = {
				tag = MEX
			}
			visible = {
				date > 1938.1.1
				date < 1964.1.1
				D_Minister_Allowed = yes
				NOT = {
					has_country_flag = Pablo_M_Valenzuela_unavailable
				}
			}
			traits = {
				ideology_D
				CoArmy_Elastic_Defence_Doctrine
			}
		}
		# Francisco U. Benavides
		MEX_CoArmy_Francisco_U_Benavides = {
			picture = Francisco_U_Benavides
			allowed = {
				tag = MEX
			}
			visible = {
				date > 1940.1.1
				date < 1964.1.1
				D_Minister_Allowed = yes
				NOT = {
					has_country_flag = Francisco_U_Benavides_unavailable
				}
			}
			traits = {
				ideology_D
				CoArmy_Armoured_Spearhead_Doctrine
			}
		}
		# Emiliano Zapata
		MEX_CoArmy_Emiliano_Zapata = {
			picture = Emiliano_Zapata
			allowed = {
				tag = MEX
			}
			visible = {
				date > 1913.1.1
				date < 1930.1.1
				S_Minister_Allowed = yes
				NOT = {
					has_country_flag = Emiliano_Zapata_unavailable
				}
			}
			traits = {
				ideology_S
				CoArmy_Guns_And_Butter_Doctrine
			}
		}
		# Matias Santos Ramos
		MEX_CoArmy_Matias_Santos_Ramos = {
			picture = Matias_Santos_Ramos
			allowed = {
				tag = MEX
			}
			visible = {
				date > 1940.1.1
				date < 1964.1.1
				C_Minister_Allowed = yes
				NOT = {
					has_country_flag = Matias_Santos_Ramos_unavailable
				}
			}
			traits = {
				ideology_C
				CoArmy_Guns_And_Butter_Doctrine
			}
		}
		# Miguel Colazzo
		MEX_CoArmy_Miguel_Colazzo = {
			picture = Miguel_Colazzo
			allowed = {
				tag = MEX
			}
			visible = {
				date > 1946.1.1
				date < 1964.1.1
				C_Minister_Allowed = yes
				NOT = {
					has_country_flag = Miguel_Colazzo_unavailable
				}
			}
			traits = {
				ideology_C
				CoArmy_Armoured_Spearhead_Doctrine
			}
		}
	}
	#################################################
	### Chief of Navy
	#################################################
	Chief_of_Navy = {
		# Manuel Mondragón
		MEX_CoNavy_Manuel_Mondragon = {
			picture = Manuel_Mondragon
			allowed = {
				tag = MEX
			}
			visible = {
				date > 1913.1.1
				date < 1922.1.1
				A_Minister_Allowed = yes
				NOT = {
					has_country_flag = Manuel_Mondragon_unavailable
				}
			}
			traits = {
				ideology_A
				CoNavy_Base_Control_Doctrine
			}
		}
		# Aureliano Blanquet
		MEX_CoNavy_Aureliano_Blanquet = {
			picture = Aureliano_Blanquet
			allowed = {
				tag = MEX
			}
			visible = {
				date > 1913.1.1
				date < 1918.1.1
				A_Minister_Allowed = yes
				NOT = {
					has_country_flag = Aureliano_Blanquet_unavailable
				}
			}
			traits = {
				ideology_A
				CoNavy_Open_Seas_Doctrine
			}
		}
		# José Refugio Velasco
		MEX_CoNavy_Jose_Refugio_Velasco = {
			picture = Jose_Refugio_Velasco
			allowed = {
				tag = MEX
			}
			visible = {
				date > 1913.1.1
				date < 1919.1.1
				A_Minister_Allowed = yes
				NOT = {
					has_country_flag = Jose_Refugio_Velasco_unavailable
				}
			}
			traits = {
				ideology_A
				CoNavy_Decisive_Naval_Battle_Doctrine
			}
		}
		# Victor Tapia Briones
		MEX_CoNavy_Victor_Tapia_Briones = {
			picture = Victor_Tapia_Briones
			allowed = {
				tag = MEX
			}
			visible = {
				date > 1940.1.1
				date < 1964.1.1
				A_Minister_Allowed = yes
				NOT = {
					has_country_flag = Victor_Tapia_Briones_unavailable
				}
			}
			traits = {
				ideology_A
				CoNavy_Open_Seas_Doctrine
			}
		}
		# Luis Hiram Toledo
		MEX_CoNavy_Luis_Hiram_Toledo = {
			picture = Luis_Hiram_Toledo
			allowed = {
				tag = MEX
			}
			visible = {
				date > 1946.1.1
				date < 1964.1.1
				A_Minister_Allowed = yes
				NOT = {
					has_country_flag = Luis_Hiram_Toledo_unavailable
				}
			}
			traits = {
				ideology_A
				CoNavy_Open_Seas_Doctrine
			}
		}
		# Enrique Panizio Vargas
		MEX_CoNavy_Enrique_Panizio_Vargas = {
			picture = Enrique_Panizio_Vargas
			allowed = {
				tag = MEX
			}
			visible = {
				date > 1940.1.1
				date < 1964.1.1
				D_Minister_Allowed = yes
				NOT = {
					has_country_flag = Enrique_Panizio_Vargas_unavailable
				}
			}
			traits = {
				ideology_D
				CoNavy_Open_Seas_Doctrine
			}
		}
		# Eduardo Hay
		MEX_CoNavy_Eduardo_Hay = {
			picture = Eduardo_Hay
			allowed = {
				tag = MEX
			}
			visible = {
				date > 1914.1.1
				date < 1930.1.1
				D_Minister_Allowed = yes
				NOT = {
					has_country_flag = Eduardo_Hay_unavailable
				}
			}
			traits = {
				ideology_D
				CoNavy_Open_Seas_Doctrine
			}
		}
		# Ignacio L. Pesqueira
		MEX_CoNavy_Ignacio_L_Pesqueira = {
			picture = Ignacio_L_Pesqueira
			allowed = {
				tag = MEX
			}
			visible = {
				date > 1914.1.1
				date < 1930.1.1
				D_Minister_Allowed = yes
				NOT = {
					has_country_flag = Ignacio_L_Pesqueira_unavailable
				}
			}
			traits = {
				ideology_D
				CoNavy_Power_Projection_Doctrine
			}
		}
		# Jesús Agustín Castro
		MEX_CoNavy_Jesus_Agustin_Castro = {
			picture = Jesus_Agustin_Castro
			allowed = {
				tag = MEX
			}
			visible = {
				date > 1917.1.1
				date < 1930.1.1
				D_Minister_Allowed = yes
				NOT = {
					has_country_flag = Jesus_Agustin_Castro_unavailable
				}
			}
			traits = {
				ideology_D
				CoNavy_Base_Control_Doctrine
			}
		}
		# Juan José Ríos
		MEX_CoNavy_Juan_Jose_Rios = {
			picture = Juan_Jose_Rios
			allowed = {
				tag = MEX
			}
			visible = {
				date > 1918.1.1
				date < 1930.1.1
				D_Minister_Allowed = yes
				NOT = {
					has_country_flag = Juan_Jose_Rios_unavailable
				}
			}
			traits = {
				ideology_D
				CoNavy_Open_Seas_Doctrine
			}
		}
		# Francisco L. Urquizo
		MEX_CoNavy_Francisco_L_Urquizo = {
			picture = Francisco_L_Urquizo
			allowed = {
				tag = MEX
			}
			visible = {
				date > 1920.1.1
				date < 1930.1.1
				D_Minister_Allowed = yes
				NOT = {
					has_country_flag = Francisco_L_Urquizo_unavailable
				}
			}
			traits = {
				ideology_D
				CoNavy_Decisive_Naval_Battle_Doctrine
			}
		}
		# Miguel Angel Gómez Ortega
		MEX_CoNavy_Miguel_Angel_Gomez_Ortega = {
			picture = Miguel_Angel_Gomez_Ortega
			allowed = {
				tag = MEX
			}
			visible = {
				date > 1985.1.1
				date < 1992.1.1
				D_Minister_Allowed = yes
				NOT = {
					has_country_flag = Miguel_Angel_Gomez_Ortega_unavailable
				}
			}
			traits = {
				ideology_D
				CoNavy_Power_Projection_Doctrine
			}
		}
		# Jacinto Blas Treviño
		MEX_CoNavy_Jacinto_Blas_Trevino = {
			picture = Jacinto_Blas_Trevino
			allowed = {
				tag = MEX
			}
			visible = {
				date > 1914.1.1
				date < 1930.1.1
				D_Minister_Allowed = yes
				NOT = {
					has_country_flag = Jacinto_Blas_Trevino_unavailable
				}
			}
			traits = {
				ideology_D
				CoNavy_Decisive_Naval_Battle_Doctrine
			}
		}
		# José Isabel Robles
		MEX_CoNavy_Jose_Isabel_Robles = {
			picture = Jose_Isabel_Robles
			allowed = {
				tag = MEX
			}
			visible = {
				date > 1913.1.1
				date < 1930.1.1
				D_Minister_Allowed = yes
				NOT = {
					has_country_flag = Jose_Isabel_Robles_unavailable
				}
			}
			traits = {
				ideology_D
				CoNavy_Open_Seas_Doctrine
			}
		}
		# Francisco Pacheco
		MEX_CoNavy_Francisco_Pacheco = {
			picture = Francisco_Pacheco
			allowed = {
				tag = MEX
			}
			visible = {
				date > 1913.1.1
				date < 1930.1.1
				D_Minister_Allowed = yes
				NOT = {
					has_country_flag = Francisco_Pacheco_unavailable
				}
			}
			traits = {
				ideology_D
				CoNavy_Decisive_Naval_Battle_Doctrine
			}
		}
		# Alfredo Serratos Amador
		MEX_CoNavy_Alfredo_Serratos_Amador = {
			picture = Alfredo_Serratos_Amador
			allowed = {
				tag = MEX
			}
			visible = {
				date > 1913.1.1
				date < 1930.1.1
				D_Minister_Allowed = yes
				NOT = {
					has_country_flag = Alfredo_Serratos_Amador_unavailable
				}
			}
			traits = {
				ideology_D
				CoNavy_Indirect_Approach_Doctrine
			}
		}
		# Álvaro Obregón
		MEX_CoNavy_Alvaro_Obregon = {
			picture = Alvaro_Obregon
			allowed = {
				tag = MEX
			}
			visible = {
				date > 1916.1.1
				date < 1928.1.1
				D_Minister_Allowed = yes
				NOT = {
					has_country_flag = Alvaro_Obregon_unavailable
				}
			}
			traits = {
				ideology_D
				CoNavy_Indirect_Approach_Doctrine
			}
		}
		# Plutarco Elías Calles
		MEX_CoNavy_Plutarco_Elias_Calles = {
			picture = Plutarco_Elias_Calles
			allowed = {
				tag = MEX
			}
			visible = {
				date > 1920.1.1
				date < 1930.1.1
				D_Minister_Allowed = yes
				NOT = {
					has_country_flag = Plutarco_Elias_Calles_unavailable
				}
			}
			traits = {
				ideology_D
				CoNavy_Power_Projection_Doctrine
			}
		}
		# Benjamín Hill
		MEX_CoNavy_Benjamin_Hill = {
			picture = Benjamin_Hill
			allowed = {
				tag = MEX
			}
			visible = {
				date > 1920.1.1
				date < 1920.1.1
				D_Minister_Allowed = yes
				NOT = {
					has_country_flag = Benjamin_Hill_unavailable
				}
			}
			traits = {
				ideology_D
				CoNavy_Indirect_Approach_Doctrine
			}
		}
		# Enrique Estrada Reynoso
		MEX_CoNavy_Enrique_Estrada_Reynoso = {
			picture = Enrique_Estrada_Reynoso
			allowed = {
				tag = MEX
			}
			visible = {
				date > 1920.1.1
				date < 1930.1.1
				D_Minister_Allowed = yes
				NOT = {
					has_country_flag = Enrique_Estrada_Reynoso_unavailable
				}
			}
			traits = {
				ideology_D
				CoNavy_Base_Control_Doctrine
			}
		}
		# Francisco Roque Serrano
		MEX_CoNavy_Francisco_Roque_Serrano = {
			picture = Francisco_Roque_Serrano
			allowed = {
				tag = MEX
			}
			visible = {
				date > 1922.1.1
				date < 1927.1.1
				D_Minister_Allowed = yes
				NOT = {
					has_country_flag = Francisco_Roque_Serrano_unavailable
				}
			}
			traits = {
				ideology_D
				CoNavy_Open_Seas_Doctrine
			}
		}
		# Joaquín Amaro Domínguez
		MEX_CoNavy_Joaquin_Amaro_Dominguez = {
			picture = Joaquin_Amaro_Dominguez
			allowed = {
				tag = MEX
			}
			visible = {
				date > 1924.1.1
				date < 1930.1.1
				D_Minister_Allowed = yes
				NOT = {
					has_country_flag = Joaquin_Amaro_Dominguez_unavailable
				}
			}
			traits = {
				ideology_D
				CoNavy_Decisive_Naval_Battle_Doctrine
			}
		}
		# Hector Meixueiro
		MEX_CoNavy_Hector_Meixueiro = {
			picture = Hector_Meixueiro
			allowed = {
				tag = MEX
			}
			visible = {
				date > 1933.1.1
				date < 1964.1.1
				D_Minister_Allowed = yes
				NOT = {
					has_country_flag = Hector_Meixueiro_unavailable
				}
			}
			traits = {
				ideology_D
				CoNavy_Open_Seas_Doctrine
			}
		}
		# Heriberto Jara Corona
		MEX_CoNavy_Heriberto_Jara_Corona = {
			picture = Heriberto_Jara_Corona
			allowed = {
				tag = MEX
			}
			visible = {
				date > 1938.1.1
				date < 1964.1.1
				D_Minister_Allowed = yes
				NOT = {
					has_country_flag = Heriberto_Jara_Corona_unavailable
				}
			}
			traits = {
				ideology_D
				CoNavy_Base_Control_Doctrine
			}
		}
		# Vazquez del Mercado
		MEX_CoNavy_Vazquez_del_Mercado = {
			picture = Vazquez_del_Mercado
			allowed = {
				tag = MEX
			}
			visible = {
				date > 1946.1.1
				date < 1964.1.1
				D_Minister_Allowed = yes
				NOT = {
					has_country_flag = Vazquez_del_Mercado_unavailable
				}
			}
			traits = {
				ideology_D
				CoNavy_Power_Projection_Doctrine
			}
		}
	}
	#################################################
	### Chief of Airforce
	#################################################
	Chief_of_Airforce = {
		# Jesus Garza Siller
		MEX_CoAir_Jesus_Garza_Siller = {
			picture = Jesus_Garza_Siller
			allowed = {
				tag = MEX
			}
			visible = {
				date > 1933.1.1
				date < 1964.1.1
				F_Minister_Allowed = yes
				NOT = {
					has_country_flag = Jesus_Garza_Siller_unavailable
				}
			}
			traits = {
				ideology_F
				CoAir_Carpet_Bombing_Doctrine
			}
		}
		# Efrain Rodriguez Berrios
		MEX_CoAir_Efrain_Rodriguez_Berrios = {
			picture = Efrain_Rodriguez_Berrios
			allowed = {
				tag = MEX
			}
			visible = {
				date > 1940.1.1
				date < 1964.1.1
				F_Minister_Allowed = yes
				NOT = {
					has_country_flag = Efrain_Rodriguez_Berrios_unavailable
				}
			}
			traits = {
				ideology_F
				CoAir_Air_Superiority_Doctrine
			}
		}
		# Miguel Lebrija
		MEX_CoAir_Miguel_Lebrija = {
			picture = Miguel_Lebrija
			allowed = {
				tag = MEX
			}
			visible = {
				date > 1913.1.1
				date < 1914.1.1
				A_Minister_Allowed = yes
				NOT = {
					has_country_flag = Miguel_Lebrija_unavailable
				}
			}
			traits = {
				ideology_A
				CoAir_Carpet_Bombing_Doctrine
			}
		}
		# Julio Hernandez Garcia
		MEX_CoAir_Julio_Hernandez_Garcia = {
			picture = Julio_Hernandez_Garcia
			allowed = {
				tag = MEX
			}
			visible = {
				date > 1946.1.1
				date < 1964.1.1
				A_Minister_Allowed = yes
				NOT = {
					has_country_flag = Julio_Hernandez_Garcia_unavailable
				}
			}
			traits = {
				ideology_A
				CoAir_Carpet_Bombing_Doctrine
			}
		}
		# Juan Guillermo Villasana
		MEX_CoAir_Juan_Guillermo_Villasana = {
			picture = Juan_Guillermo_Villasana
			allowed = {
				tag = MEX
			}
			visible = {
				date > 1913.1.1
				date < 1930.1.1
				D_Minister_Allowed = yes
				NOT = {
					has_country_flag = Juan_Guillermo_Villasana_unavailable
				}
			}
			traits = {
				ideology_D
				CoAir_Army_Aviation_Doctrine
			}
		}
		# Enrique Panizio Vargas
		MEX_CoAir_Enrique_Panizio_Vargas = {
			picture = Enrique_Panizio_Vargas
			allowed = {
				tag = MEX
			}
			visible = {
				date > 1940.1.1
				date < 1964.1.1
				D_Minister_Allowed = yes
				NOT = {
					has_country_flag = Enrique_Panizio_Vargas_unavailable
				}
			}
			traits = {
				ideology_D
				CoAir_Vertical_Envelopment_Doctrine
			}
		}
		# Juan Arévalo Gardoqui
		MEX_CoAir_Juan_Arevalo_Gardoqui = {
			picture = Juan_Arevalo_Gardoqui
			allowed = {
				tag = MEX
			}
			visible = {
				date > 1985.1.1
				date < 1992.1.1
				D_Minister_Allowed = yes
				NOT = {
					has_country_flag = Juan_Arevalo_Gardoqui_unavailable
				}
			}
			traits = {
				ideology_D
				CoAir_Army_Aviation_Doctrine
			}
		}
		# Miguel Angel Gómez Ortega
		MEX_CoAir_Miguel_Angel_Gomez_Ortega = {
			picture = Miguel_Angel_Gomez_Ortega
			allowed = {
				tag = MEX
			}
			visible = {
				date > 1985.1.1
				date < 1992.1.1
				D_Minister_Allowed = yes
				NOT = {
					has_country_flag = Miguel_Angel_Gomez_Ortega_unavailable
				}
			}
			traits = {
				ideology_D
				CoAir_Naval_Aviation_Doctrine
			}
		}
		# Alberto Salinas Carranza
		MEX_CoAir_Alberto_Salinas_Carranza = {
			picture = Alberto_Salinas_Carranza
			allowed = {
				tag = MEX
			}
			visible = {
				date > 1914.1.1
				date < 1930.1.1
				D_Minister_Allowed = yes
				NOT = {
					has_country_flag = Alberto_Salinas_Carranza_unavailable
				}
			}
			traits = {
				ideology_D
				CoAir_Army_Aviation_Doctrine
			}
		}
		# Gustavo Salinas Camina
		MEX_CoAir_Gustavo_Salinas_Camina = {
			picture = Gustavo_Salinas_Camina
			allowed = {
				tag = MEX
			}
			visible = {
				date > 1933.1.1
				date < 1964.1.1
				D_Minister_Allowed = yes
				NOT = {
					has_country_flag = Gustavo_Salinas_Camina_unavailable
				}
			}
			traits = {
				ideology_D
				CoAir_Air_Superiority_Doctrine
			}
		}
		# Alberto Salinas Carraza
		MEX_CoAir_Alberto_Salinas_Carraza = {
			picture = Alberto_Salinas_Carraza
			allowed = {
				tag = MEX
			}
			visible = {
				date > 1938.1.1
				date < 1964.1.1
				D_Minister_Allowed = yes
				NOT = {
					has_country_flag = Alberto_Salinas_Carraza_unavailable
				}
			}
			traits = {
				ideology_D
				CoAir_Army_Aviation_Doctrine
			}
		}
		# Pedro Caloca Larios
		MEX_CoAir_Pedro_Caloca_Larios = {
			picture = Pedro_Caloca_Larios
			allowed = {
				tag = MEX
			}
			visible = {
				date > 1913.1.1
				date < 1930.1.1
				S_Minister_Allowed = yes
				NOT = {
					has_country_flag = Pedro_Caloca_Larios_unavailable
				}
			}
			traits = {
				ideology_S
				CoAir_Army_Aviation_Doctrine
			}
		}
		# Agustin Olachea Aviles
		MEX_CoAir_Agustin_Olachea_Aviles = {
			picture = Agustin_Olachea_Aviles
			allowed = {
				tag = MEX
			}
			visible = {
				date > 1940.1.1
				date < 1964.1.1
				C_Minister_Allowed = yes
				NOT = {
					has_country_flag = Agustin_Olachea_Aviles_unavailable
				}
			}
			traits = {
				ideology_C
				CoAir_Vertical_Envelopment_Doctrine
			}
		}
	}
}
