ideas = {
	#################################################
	### Head of Government
	#################################################
	Head_of_Government = {
		# Davud Monshizadeh
		PER_D_Davud_Monshizadeh = {
			picture = Davud_Monshizadeh
			allowed = {
				tag = PER
			}
			available = {
				date > 1946.1.1
				date < 1964.1.1
				F_Minister_Allowed = yes
				NOT = {
					has_country_flag = Davud_Monshizadeh_unavailable
				}
			}
			traits = {
				ideology_F
				L_Political_Protege
			}
		}
		# Ahmad Matin-Daftary
		PER_D_Ahmad_MatinDaftary = {
			picture = Ahmad_MatinDaftary
			allowed = {
				tag = PER
			}
			available = {
				date > 1939.1.1
				date < 1964.1.1
				F_Minister_Allowed = yes
				NOT = {
					has_country_flag = Ahmad_MatinDaftary_unavailable
				}
			}
			traits = {
				ideology_F
				L_Naive_Optimist
			}
		}
		# Ali Khamenei
		PER_D_Ali_Khamenei = {
			picture = Ali_Khamenei
			allowed = {
				tag = PER
			}
			available = {
				date > 1979.1.1
				date < 2020.1.1
				F_Minister_Allowed = yes
				NOT = {
					has_country_flag = Ali_Khamenei_unavailable
				}
			}
			traits = {
				ideology_F
				L_Silent_Workhorse
			}
		}
		# Mehdi Bazargan
		PER_D_Mehdi_Bazargan = {
			picture = Mehdi_Bazargan
			allowed = {
				tag = PER
			}
			available = {
				date > 1979.1.1
				date < 1996.1.1
				F_Minister_Allowed = yes
				NOT = {
					has_country_flag = Mehdi_Bazargan_unavailable
				}
			}
			traits = {
				ideology_F
				L_Backroom_Backstabber
			}
		}
		# Abulhassan Banisadr
		PER_D_Abulhassan_Banisadr = {
			picture = Abulhassan_Banisadr
			allowed = {
				tag = PER
			}
			available = {
				date > 1980.1.1
				date < 2020.1.1
				F_Minister_Allowed = yes
				NOT = {
					has_country_flag = Abulhassan_Banisadr_unavailable
				}
			}
			traits = {
				ideology_F
				L_Happy_Amateur
			}
		}
		# Akbar Hashemi Rafsanjani
		PER_D_Akbar_Hashemi_Rafsanjani = {
			picture = Akbar_Hashemi_Rafsanjani
			allowed = {
				tag = PER
			}
			available = {
				date > 1989.1.1
				date < 2020.1.1
				F_Minister_Allowed = yes
				NOT = {
					has_country_flag = Akbar_Hashemi_Rafsanjani_unavailable
				}
			}
			traits = {
				ideology_F
				L_Silent_Workhorse
			}
		}
		# Momtaz os-Saltaneh
		PER_D_Momtaz_osSaltaneh = {
			picture = Momtaz_osSaltaneh
			allowed = {
				tag = PER
			}
			available = {
				date > 1918.1.1
				date < 1933.1.1
				A_Minister_Allowed = yes
				NOT = {
					has_country_flag = Momtaz_osSaltaneh_unavailable
				}
			}
			traits = {
				ideology_A
				L_Naive_Optimist
			}
		}
		# Malek Mansur Mirza
		PER_D_Malek_Mansur_Mirza = {
			picture = Malek_Mansur_Mirza
			allowed = {
				tag = PER
			}
			available = {
				date > 1921.1.1
				date < 1933.1.1
				A_Minister_Allowed = yes
				NOT = {
					has_country_flag = Malek_Mansur_Mirza_unavailable
				}
			}
			traits = {
				ideology_A
				L_Ambitious_Union_Boss
			}
		}
		# Mahmud Jam
		PER_D_Mahmud_Jam = {
			picture = Mahmud_Jam
			allowed = {
				tag = PER
			}
			available = {
				date > 1933.1.1
				date < 1964.1.1
				A_Minister_Allowed = yes
				NOT = {
					has_country_flag = Mahmud_Jam_unavailable
				}
			}
			traits = {
				ideology_A
				L_Silent_Workhorse
				POSITION_Prime_Minister
			}
		}
		# Ali Khan Mansour
		PER_D_Ali_Khan_Mansour = {
			picture = Ali_Khan_Mansour
			allowed = {
				tag = PER
			}
			available = {
				date > 1940.1.1
				date < 1964.1.1
				A_Minister_Allowed = yes
				NOT = {
					has_country_flag = Ali_Khan_Mansour_unavailable
				}
			}
			traits = {
				ideology_A
				L_Old_General
			}
		}
		# Ibrahim Hakimi al Mulk
		PER_D_Ibrahim_Hakimi_al_Mulk = {
			picture = Ibrahim_Hakimi_al_Mulk
			allowed = {
				tag = PER
			}
			available = {
				date > 1945.1.1
				date < 1964.1.1
				A_Minister_Allowed = yes
				NOT = {
					has_country_flag = Ibrahim_Hakimi_al_Mulk_unavailable
				}
			}
			traits = {
				ideology_A
				L_Backroom_Backstabber
			}
		}
		# Ali Razmara
		PER_D_Ali_Razmara = {
			picture = Ali_Razmara
			allowed = {
				tag = PER
			}
			available = {
				date > 1950.1.1
				date < 1964.1.1
				A_Minister_Allowed = yes
				NOT = {
					has_country_flag = Ali_Razmara_unavailable
				}
			}
			traits = {
				ideology_A
				L_Old_Airmarshal
			}
		}
		# Hussein Khan Ala
		PER_D_Hussein_Khan_Ala = {
			picture = Hussein_Khan_Ala
			allowed = {
				tag = PER
			}
			available = {
				date > 1951.1.1
				date < 1964.1.1
				A_Minister_Allowed = yes
				NOT = {
					has_country_flag = Hussein_Khan_Ala_unavailable
				}
			}
			traits = {
				ideology_A
				L_Backroom_Backstabber
			}
		}
		# Fazlollah Zahedi
		PER_D_Fazlollah_Zahedi = {
			picture = Fazlollah_Zahedi
			allowed = {
				tag = PER
			}
			available = {
				date > 1953.1.1
				date < 1964.1.1
				A_Minister_Allowed = yes
				NOT = {
					has_country_flag = Fazlollah_Zahedi_unavailable
				}
			}
			traits = {
				ideology_A
				L_Old_General
			}
		}
		# Mohammed Ali Foroughi
		PER_D_Mohammed_Ali_Foroughi2 = {
			picture = Mohammed_Ali_Foroughi2
			allowed = {
				tag = PER
			}
			available = {
				date > 1933.1.1
				date < 1964.1.1
				A_Minister_Allowed = yes
				NOT = {
					has_country_flag = Mohammed_Ali_Foroughi_unavailable
				}
			}
			traits = {
				ideology_A
				L_Political_Protege
			}
		}
		# Mehdi Qoli Hedayat
		PER_D_Mehdi_Qoli_Hedayat = {
			picture = Mehdi_Qoli_Hedayat
			allowed = {
				tag = PER
			}
			available = {
				date > 1933.1.1
				date < 1964.1.1
				A_Minister_Allowed = yes
				NOT = {
					has_country_flag = Mehdi_Qoli_Hedayat_unavailable
				}
			}
			traits = {
				ideology_A
				L_Political_Protege
				POSITION_Prime_Minister
			}
		}
		# Mohammed Ali Foroughi
		PER_D_Mohammed_Ali_Foroughi = {
			picture = Mohammed_Ali_Foroughi
			allowed = {
				tag = PER
			}
			available = {
				date > 1941.1.1
				date < 1964.1.1
				D_Minister_Allowed = yes
				NOT = {
					has_country_flag = Mohammed_Ali_Foroughi_unavailable
				}
			}
			traits = {
				ideology_D
				L_Political_Protege
			}
		}
		# Ahmeed Qawan as Saltana
		PER_D_Ahmeed_Qawan_as_Saltana = {
			picture = Ahmeed_Qawan_as_Saltana
			allowed = {
				tag = PER
			}
			available = {
				date > 1942.1.1
				date < 1964.1.1
				D_Minister_Allowed = yes
				NOT = {
					has_country_flag = Ahmeed_Qawan_as_Saltana_unavailable
				}
			}
			traits = {
				ideology_D
				L_Happy_Amateur
			}
		}
		# Mohammed Said Maraghei
		PER_D_Mohammed_Said_Maraghei = {
			picture = Mohammed_Said_Maraghei
			allowed = {
				tag = PER
			}
			available = {
				date > 1944.1.1
				date < 1964.1.1
				D_Minister_Allowed = yes
				NOT = {
					has_country_flag = Mohammed_Said_Maraghei_unavailable
				}
			}
			traits = {
				ideology_D
				L_Silent_Workhorse
			}
		}
		# Muhsin Sadr al Araf
		PER_D_Muhsin_Sadr_al_Araf = {
			picture = Muhsin_Sadr_al_Araf
			allowed = {
				tag = PER
			}
			available = {
				date > 1945.1.1
				date < 1964.1.1
				D_Minister_Allowed = yes
				NOT = {
					has_country_flag = Muhsin_Sadr_al_Araf_unavailable
				}
			}
			traits = {
				ideology_D
				L_Corporate_Suit
			}
		}
		# Ali Mansour
		PER_D_Ali_Mansour = {
			picture = Ali_Mansour
			allowed = {
				tag = PER
			}
			available = {
				date > 1950.1.1
				date < 1964.1.1
				D_Minister_Allowed = yes
				NOT = {
					has_country_flag = Ali_Mansour_unavailable
				}
			}
			traits = {
				ideology_D
				L_Political_Protege
			}
		}
		# Manouchehr Eghbal
		PER_D_Manouchehr_Eghbal = {
			picture = Manouchehr_Eghbal
			allowed = {
				tag = PER
			}
			available = {
				date > 1957.1.1
				date < 1964.1.1
				D_Minister_Allowed = yes
				NOT = {
					has_country_flag = Manouchehr_Eghbal_unavailable
				}
			}
			traits = {
				ideology_D
				L_Happy_Amateur
			}
		}
		# Jafar Sharif-Emami 
		PER_D_Jafar_SharifEmami_ = {
			picture = Jafar_SharifEmami_
			allowed = {
				tag = PER
			}
			available = {
				date > 1960.1.1
				date < 1964.1.1
				D_Minister_Allowed = yes
				NOT = {
					has_country_flag = Jafar_SharifEmami__unavailable
				}
			}
			traits = {
				ideology_D
				L_Silent_Workhorse
			}
		}
		# Ali Amini
		PER_D_Ali_Amini = {
			picture = Ali_Amini
			allowed = {
				tag = PER
			}
			available = {
				date > 1961.1.1
				date < 1964.1.1
				D_Minister_Allowed = yes
				NOT = {
					has_country_flag = Ali_Amini_unavailable
				}
			}
			traits = {
				ideology_D
				L_Happy_Amateur
			}
		}
		# Jamshid Amouzegar
		PER_D_Jamshid_Amouzegar = {
			picture = Jamshid_Amouzegar
			allowed = {
				tag = PER
			}
			available = {
				date > 1977.1.1
				date < 2016.1.1
				D_Minister_Allowed = yes
				NOT = {
					has_country_flag = Jamshid_Amouzegar_unavailable
				}
			}
			traits = {
				ideology_D
				L_Smiling_Oilman
			}
		}
		# Abdol Majid Mirza
		PER_D_Abdol_Majid_Mirza = {
			picture = Abdol_Majid_Mirza
			allowed = {
				tag = PER
			}
			available = {
				date > 1914.1.1
				date < 1933.1.1
				D_Minister_Allowed = yes
				NOT = {
					has_country_flag = Abdol_Majid_Mirza_unavailable
				}
			}
			traits = {
				ideology_D
				L_Silent_Workhorse
			}
		}
		# Mirza Mohammad-Ali Khan
		PER_D_Mirza_MohammadAli_Khan = {
			picture = Mirza_MohammadAli_Khan
			allowed = {
				tag = PER
			}
			available = {
				date > 1914.1.1
				date < 1933.1.1
				D_Minister_Allowed = yes
				NOT = {
					has_country_flag = Mirza_MohammadAli_Khan_unavailable
				}
			}
			traits = {
				ideology_D
				L_Happy_Amateur
			}
		}
		# Mostowfi ol-Mamalek
		PER_D_Mostowfi_olMamalek = {
			picture = Mostowfi_olMamalek
			allowed = {
				tag = PER
			}
			available = {
				date > 1914.1.1
				date < 1933.1.1
				D_Minister_Allowed = yes
				NOT = {
					has_country_flag = Mostowfi_olMamalek_unavailable
				}
			}
			traits = {
				ideology_D
				L_Silent_Workhorse
			}
		}
		# Vosough od-Dowleh
		PER_D_Vosough_odDowleh = {
			picture = Vosough_odDowleh
			allowed = {
				tag = PER
			}
			available = {
				date > 1914.1.1
				date < 1933.1.1
				D_Minister_Allowed = yes
				NOT = {
					has_country_flag = Vosough_odDowleh_unavailable
				}
			}
			traits = {
				ideology_D
				L_Backroom_Backstabber
			}
		}
		# Hossein Farmanfarma
		PER_D_Hossein_Farmanfarma = {
			picture = Hossein_Farmanfarma
			allowed = {
				tag = PER
			}
			available = {
				date > 1915.1.1
				date < 1933.1.1
				D_Minister_Allowed = yes
				NOT = {
					has_country_flag = Hossein_Farmanfarma_unavailable
				}
			}
			traits = {
				ideology_D
				L_Corporate_Suit
			}
		}
		# Abdol Majid Mirza
		PER_D_Abdol_Majid_Mirza_2 = {
			picture = Abdol_Majid_Mirza_2
			allowed = {
				tag = PER
			}
			available = {
				date > 1915.1.1
				date < 1933.1.1
				D_Minister_Allowed = yes
				NOT = {
					has_country_flag = Abdol_Majid_Mirza_unavailable
				}
			}
			traits = {
				ideology_D
				L_Corporate_Suit
			}
		}
		# Hassan Pirnia
		PER_D_Hassan_Pirnia = {
			picture = Hassan_Pirnia
			allowed = {
				tag = PER
			}
			available = {
				date > 1918.1.1
				date < 1933.1.1
				D_Minister_Allowed = yes
				NOT = {
					has_country_flag = Hassan_Pirnia_unavailable
				}
			}
			traits = {
				ideology_D
				L_Smiling_Oilman
			}
		}
		# Fathollah Khan Akbar
		PER_D_Fathollah_Khan_Akbar = {
			picture = Fathollah_Khan_Akbar
			allowed = {
				tag = PER
			}
			available = {
				date > 1920.1.1
				date < 1933.1.1
				D_Minister_Allowed = yes
				NOT = {
					has_country_flag = Fathollah_Khan_Akbar_unavailable
				}
			}
			traits = {
				ideology_D
				L_Ambitious_Union_Boss
			}
		}
		# Ahmad Qawam as-Saltana
		PER_D_Ahmad_Qawam_asSaltana = {
			picture = Ahmad_Qawam_asSaltana
			allowed = {
				tag = PER
			}
			available = {
				date > 1921.1.1
				date < 1933.1.1
				D_Minister_Allowed = yes
				NOT = {
					has_country_flag = Ahmad_Qawam_asSaltana_unavailable
				}
			}
			traits = {
				ideology_D
				L_Flamboyant_Tough_Guy
			}
		}
		# Zia'eddin Tabatabaee
		PER_D_Ziaeddin_Tabatabaee = {
			picture = Ziaeddin_Tabatabaee
			allowed = {
				tag = PER
			}
			available = {
				date > 1921.1.1
				date < 1933.1.1
				D_Minister_Allowed = yes
				NOT = {
					has_country_flag = Ziaeddin_Tabatabaee_unavailable
				}
			}
			traits = {
				ideology_D
				L_Smiling_Oilman
			}
		}
		# Ahmad Qavam
		PER_D_Ahmad_Qavam = {
			picture = Ahmad_Qavam
			allowed = {
				tag = PER
			}
			available = {
				date > 1921.1.1
				date < 1933.1.1
				D_Minister_Allowed = yes
				NOT = {
					has_country_flag = Ahmad_Qavam_unavailable
				}
			}
			traits = {
				ideology_D
				L_Flamboyant_Tough_Guy
			}
		}
		# Abdol Hossein Hajir
		PER_D_Abdol_Hossein_Hajir = {
			picture = Abdol_Hossein_Hajir
			allowed = {
				tag = PER
			}
			available = {
				date > 1948.1.1
				date < 1964.1.1
				D_Minister_Allowed = yes
				NOT = {
					has_country_flag = Abdol_Hossein_Hajir_unavailable
				}
			}
			traits = {
				ideology_D
				L_Happy_Amateur
			}
		}
		# Mohammed Said Maraghei
		PER_D_Mohammed_Said_Maraghei_2 = {
			picture = Mohammed_Said_Maraghei_2
			allowed = {
				tag = PER
			}
			available = {
				date > 1948.1.1
				date < 1964.1.1
				D_Minister_Allowed = yes
				NOT = {
					has_country_flag = Mohammed_Said_Maraghei_unavailable
				}
			}
			traits = {
				ideology_D
				L_Flamboyant_Tough_Guy
			}
		}
		# Hushang Ansary
		PER_D_Hushang_Ansary = {
			picture = Hushang_Ansary
			allowed = {
				tag = PER
			}
			available = {
				date > 1980.1.1
				date < 2020.1.1
				D_Minister_Allowed = yes
				NOT = {
					has_country_flag = Hushang_Ansary_unavailable
				}
			}
			traits = {
				ideology_D
				L_Smiling_Oilman
			}
		}
		# Ali Zohayli
		PER_D_Ali_Zohayli = {
			picture = Ali_Zohayli
			allowed = {
				tag = PER
			}
			available = {
				date > 1943.1.1
				date < 1964.1.1
				D_Minister_Allowed = yes
				NOT = {
					has_country_flag = Ali_Zohayli_unavailable
				}
			}
			traits = {
				ideology_D
				L_Smiling_Oilman
			}
		}
		# Sayed Morteza Khan Bayat
		PER_D_Sayed_Morteza_Khan_Bayat = {
			picture = Sayed_Morteza_Khan_Bayat
			allowed = {
				tag = PER
			}
			available = {
				date > 1944.1.1
				date < 1964.1.1
				D_Minister_Allowed = yes
				NOT = {
					has_country_flag = Sayed_Morteza_Khan_Bayat_unavailable
				}
			}
			traits = {
				ideology_D
				L_Flamboyant_Tough_Guy
			}
		}
		# Mohammed Mossadeq
		PER_D_Mohammed_Mossadeq = {
			picture = Mohammed_Mossadeq
			allowed = {
				tag = PER
			}
			available = {
				date > 1951.1.1
				date < 1964.1.1
				D_Minister_Allowed = yes
				NOT = {
					has_country_flag = Mohammed_Mossadeq_unavailable
				}
			}
			traits = {
				ideology_D
				L_Smiling_Oilman
			}
		}
		# Asadollah Alam
		PER_D_Asadollah_Alam = {
			picture = Asadollah_Alam
			allowed = {
				tag = PER
			}
			available = {
				date > 1962.1.1
				date < 1979.1.1
				D_Minister_Allowed = yes
				NOT = {
					has_country_flag = Asadollah_Alam_unavailable
				}
			}
			traits = {
				ideology_D
				L_Flamboyant_Tough_Guy
			}
		}
		# Hassan-Ali Mansur
		PER_D_HassanAli_Mansur = {
			picture = HassanAli_Mansur
			allowed = {
				tag = PER
			}
			available = {
				date > 1964.1.1
				date < 1966.1.1
				D_Minister_Allowed = yes
				NOT = {
					has_country_flag = HassanAli_Mansur_unavailable
				}
			}
			traits = {
				ideology_D
				L_Ambitious_Union_Boss
			}
		}
		# Amir-Abbas Hoveida
		PER_D_AmirAbbas_Hoveida = {
			picture = AmirAbbas_Hoveida
			allowed = {
				tag = PER
			}
			available = {
				date > 1965.1.1
				date < 1980.1.1
				D_Minister_Allowed = yes
				NOT = {
					has_country_flag = AmirAbbas_Hoveida_unavailable
				}
			}
			traits = {
				ideology_D
				L_Naive_Optimist
			}
		}
		# Masoud Rajavi
		PER_D_Masoud_Rajavi = {
			picture = Masoud_Rajavi
			allowed = {
				tag = PER
			}
			available = {
				date > 1980.1.1
				date < 2020.1.1
				S_Minister_Allowed = yes
				NOT = {
					has_country_flag = Masoud_Rajavi_unavailable
				}
			}
			traits = {
				ideology_S
				L_Flamboyant_Tough_Guy
			}
		}
		# Soleiman Mirza
		PER_D_Soleiman_Mirza = {
			picture = Soleiman_Mirza
			allowed = {
				tag = PER
			}
			available = {
				date > 1933.1.1
				date < 1964.1.1
				C_Minister_Allowed = yes
				NOT = {
					has_country_flag = Soleiman_Mirza_unavailable
				}
			}
			traits = {
				ideology_C
				L_Happy_Amateur
			}
		}
	}
	#################################################
	### Foreign Minister
	#################################################
	Foreign_Minister = {
		# Davud Monshizadeh
		PER_FM_Davud_Monshizadeh = {
			picture = Davud_Monshizadeh
			allowed = {
				tag = PER
			}
			available = {
				date > 1946.1.1
				date < 1964.1.1
				F_Minister_Allowed = yes
				NOT = {
					has_country_flag = Davud_Monshizadeh_unavailable
				}
			}
			traits = {
				ideology_F
				FM_Biased_Intellectual
			}
		}
		# Ibrahim Alam
		PER_FM_Ibrahim_Alam = {
			picture = Ibrahim_Alam
			allowed = {
				tag = PER
			}
			available = {
				date > 1940.1.1
				date < 1964.1.1
				F_Minister_Allowed = yes
				NOT = {
					has_country_flag = Ibrahim_Alam_unavailable
				}
			}
			traits = {
				ideology_F
				FM_The_Cloak_N_Dagger_Schemer
			}
		}
		# Amari Jawad
		PER_FM_Amari_Jawad = {
			picture = Amari_Jawad
			allowed = {
				tag = PER
			}
			available = {
				date > 1940.1.1
				date < 1964.1.1
				F_Minister_Allowed = yes
				NOT = {
					has_country_flag = Amari_Jawad_unavailable
				}
			}
			traits = {
				ideology_F
				FM_Biased_Intellectual
			}
		}
		# Ali Akbar Velayati
		PER_FM_Ali_Akbar_Velayati = {
			picture = Ali_Akbar_Velayati
			allowed = {
				tag = PER
			}
			available = {
				date > 1980.1.1
				date < 1995.1.1
				F_Minister_Allowed = yes
				NOT = {
					has_country_flag = Ali_Akbar_Velayati_unavailable
				}
			}
			traits = {
				ideology_F
				FM_Ideological_Crusader
			}
		}
		# Mir-Hossein Mousavi
		PER_FM_MirHossein_Mousavi = {
			picture = MirHossein_Mousavi
			allowed = {
				tag = PER
			}
			available = {
				date > 1980.1.1
				date < 1995.1.1
				F_Minister_Allowed = yes
				NOT = {
					has_country_flag = MirHossein_Mousavi_unavailable
				}
			}
			traits = {
				ideology_F
				FM_Great_Compromiser
			}
		}
		# Inoyatullah Khan Sami
		PER_FM_Inoyatullah_Khan_Sami = {
			picture = Inoyatullah_Khan_Sami
			allowed = {
				tag = PER
			}
			available = {
				date > 1933.1.1
				date < 1964.1.1
				A_Minister_Allowed = yes
				NOT = {
					has_country_flag = Inoyatullah_Khan_Sami_unavailable
				}
			}
			traits = {
				ideology_A
				FM_Great_Compromiser
			}
		}
		# Mustafa Adil
		PER_FM_Mustafa_Adil = {
			picture = Mustafa_Adil
			allowed = {
				tag = PER
			}
			available = {
				date > 1937.1.1
				date < 1964.1.1
				A_Minister_Allowed = yes
				NOT = {
					has_country_flag = Mustafa_Adil_unavailable
				}
			}
			traits = {
				ideology_A
				FM_Biased_Intellectual
			}
		}
		# Miria Muhsin Khan
		PER_FM_Miria_Muhsin_Khan = {
			picture = Miria_Muhsin_Khan
			allowed = {
				tag = PER
			}
			available = {
				date > 1938.1.1
				date < 1964.1.1
				A_Minister_Allowed = yes
				NOT = {
					has_country_flag = Miria_Muhsin_Khan_unavailable
				}
			}
			traits = {
				ideology_A
				FM_Ideological_Crusader
			}
		}
		# Ali Zohayli
		PER_FM_Ali_Zohayli = {
			picture = Ali_Zohayli
			allowed = {
				tag = PER
			}
			available = {
				date > 1939.1.1
				date < 1964.1.1
				A_Minister_Allowed = yes
				NOT = {
					has_country_flag = Ali_Zohayli_unavailable
				}
			}
			traits = {
				ideology_A
				FM_Iron_Fisted_Brute
			}
		}
		# Muzzafar Alam
		PER_FM_Muzzafar_Alam = {
			picture = Muzzafar_Alam
			allowed = {
				tag = PER
			}
			available = {
				date > 1939.1.1
				date < 1964.1.1
				A_Minister_Allowed = yes
				NOT = {
					has_country_flag = Muzzafar_Alam_unavailable
				}
			}
			traits = {
				ideology_A
				FM_Apologetic_Clerk
			}
		}
		# Anushirvan Sepahbody
		PER_FM_Anushirvan_Sepahbody = {
			picture = Anushirvan_Sepahbody
			allowed = {
				tag = PER
			}
			available = {
				date > 1945.1.1
				date < 1964.1.1
				A_Minister_Allowed = yes
				NOT = {
					has_country_flag = Anushirvan_Sepahbody_unavailable
				}
			}
			traits = {
				ideology_A
				FM_Apologetic_Clerk
			}
		}
		# Mohammed Said Maraghei
		PER_FM_Mohammed_Said_Maraghei = {
			picture = Mohammed_Said_Maraghei
			allowed = {
				tag = PER
			}
			available = {
				date > 1942.1.1
				date < 1964.1.1
				D_Minister_Allowed = yes
				NOT = {
					has_country_flag = Mohammed_Said_Maraghei_unavailable
				}
			}
			traits = {
				ideology_D
				FM_Great_Compromiser
			}
		}
		# Abul Qasim Najm
		PER_FM_Abul_Qasim_Najm = {
			picture = Abul_Qasim_Najm
			allowed = {
				tag = PER
			}
			available = {
				date > 1945.1.1
				date < 1964.1.1
				D_Minister_Allowed = yes
				NOT = {
					has_country_flag = Abul_Qasim_Najm_unavailable
				}
			}
			traits = {
				ideology_D
				FM_The_Cloak_N_Dagger_Schemer
			}
		}
		# Ahmeed Qawan as Saltana
		PER_FM_Ahmeed_Qawan_as_Saltana = {
			picture = Ahmeed_Qawan_as_Saltana
			allowed = {
				tag = PER
			}
			available = {
				date > 1946.1.1
				date < 1964.1.1
				D_Minister_Allowed = yes
				NOT = {
					has_country_flag = Ahmeed_Qawan_as_Saltana_unavailable
				}
			}
			traits = {
				ideology_D
				FM_Ideological_Crusader
			}
		}
		# Ardeshir Zahedi
		PER_FM_Ardeshir_Zahedi_2 = {
			picture = Ardeshir_Zahedi_2
			allowed = {
				tag = PER
			}
			available = {
				date > 1980.1.1
				date < 2020.1.1
				D_Minister_Allowed = yes
				NOT = {
					has_country_flag = Ardeshir_Zahedi_unavailable
				}
			}
			traits = {
				ideology_D
				FM_Great_Compromiser
			}
		}
		# Abdol Hossein Hajir
		PER_FM_Abdol_Hossein_Hajir = {
			picture = Abdol_Hossein_Hajir
			allowed = {
				tag = PER
			}
			available = {
				date > 1951.1.1
				date < 1964.1.1
				D_Minister_Allowed = yes
				NOT = {
					has_country_flag = Abdol_Hossein_Hajir_unavailable
				}
			}
			traits = {
				ideology_D
				FM_Ideological_Crusader
			}
		}
		# Ardeshir Zahedi
		PER_FM_Ardeshir_Zahedi = {
			picture = Ardeshir_Zahedi
			allowed = {
				tag = PER
			}
			available = {
				date > 1980.1.1
				date < 1995.1.1
				D_Minister_Allowed = yes
				NOT = {
					has_country_flag = Ardeshir_Zahedi_unavailable
				}
			}
			traits = {
				ideology_D
				FM_Great_Compromiser
			}
		}
		# Ali Zohayli
		PER_FM_Ali_Zohayli_2 = {
			picture = Ali_Zohayli_2
			allowed = {
				tag = PER
			}
			available = {
				date > 1941.1.1
				date < 1964.1.1
				D_Minister_Allowed = yes
				NOT = {
					has_country_flag = Ali_Zohayli_unavailable
				}
			}
			traits = {
				ideology_D
				FM_The_Cloak_N_Dagger_Schemer
			}
		}
		# Nusrullah Intizam
		PER_FM_Nusrullah_Intizam = {
			picture = Nusrullah_Intizam
			allowed = {
				tag = PER
			}
			available = {
				date > 1944.1.1
				date < 1964.1.1
				D_Minister_Allowed = yes
				NOT = {
					has_country_flag = Nusrullah_Intizam_unavailable
				}
			}
			traits = {
				ideology_D
				FM_Biased_Intellectual
			}
		}
		# Mohammed Mossadeq
		PER_FM_Mohammed_Mossadeq = {
			picture = Mohammed_Mossadeq
			allowed = {
				tag = PER
			}
			available = {
				date > 1946.1.1
				date < 1964.1.1
				D_Minister_Allowed = yes
				NOT = {
					has_country_flag = Mohammed_Mossadeq_unavailable
				}
			}
			traits = {
				ideology_D
				FM_The_Cloak_N_Dagger_Schemer
			}
		}
		# Abdul Rahman Ghassemlou
		PER_FM_Abdul_Rahman_Ghassemlou = {
			picture = Abdul_Rahman_Ghassemlou
			allowed = {
				tag = PER
			}
			available = {
				date > 1980.1.1
				date < 1995.1.1
				D_Minister_Allowed = yes
				NOT = {
					has_country_flag = Abdul_Rahman_Ghassemlou_unavailable
				}
			}
			traits = {
				ideology_D
				FM_Great_Compromiser
			}
		}
		# Ja'fer Pishevari
		PER_FM_Jafer_Pishevari = {
			picture = Jafer_Pishevari
			allowed = {
				tag = PER
			}
			available = {
				date > 1933.1.1
				date < 1964.1.1
				C_Minister_Allowed = yes
				NOT = {
					has_country_flag = Jafer_Pishevari_unavailable
				}
			}
			traits = {
				ideology_C
				FM_Iron_Fisted_Brute
			}
		}
	}
	#################################################
	### Minister of Security
	#################################################
	Minister_of_Security = {
		# Hussein Khan Ala
		PER_MoS_Hussein_Khan_Ala = {
			picture = Hussein_Khan_Ala
			allowed = {
				tag = PER
			}
			available = {
				date > 1939.1.1
				date < 1964.1.1
				F_Minister_Allowed = yes
				NOT = {
					has_country_flag = Hussein_Khan_Ala_unavailable
				}
			}
			traits = {
				ideology_F
				MoS_Silent_Lawyer
			}
		}
		# Ali-Akbar Nateq-Nouri
		PER_MoS_AliAkbar_NateqNouri = {
			picture = AliAkbar_NateqNouri
			allowed = {
				tag = PER
			}
			available = {
				date > 1980.1.1
				date < 1995.1.1
				F_Minister_Allowed = yes
				NOT = {
					has_country_flag = AliAkbar_NateqNouri_unavailable
				}
			}
			traits = {
				ideology_F
				MoS_Prince_Of_Terror
			}
		}
		# Hossein Farmanfarma
		PER_MoS_Hossein_Farmanfarma = {
			picture = Hossein_Farmanfarma
			allowed = {
				tag = PER
			}
			available = {
				date > 1915.1.1
				date < 1933.1.1
				A_Minister_Allowed = yes
				NOT = {
					has_country_flag = Hossein_Farmanfarma_unavailable
				}
			}
			traits = {
				ideology_A
				MoS_Silent_Lawyer
			}
		}
		# Ali Akbar Deiva
		PER_MoS_Ali_Akbar_Deiva = {
			picture = Ali_Akbar_Deiva
			allowed = {
				tag = PER
			}
			available = {
				date > 1933.1.1
				date < 1964.1.1
				A_Minister_Allowed = yes
				NOT = {
					has_country_flag = Ali_Akbar_Deiva_unavailable
				}
			}
			traits = {
				ideology_A
				MoS_Back_Stabber
			}
		}
		# Soleiman Mirza
		PER_MoS_Soleiman_Mirza = {
			picture = Soleiman_Mirza
			allowed = {
				tag = PER
			}
			available = {
				date > 1933.1.1
				date < 1964.1.1
				A_Minister_Allowed = yes
				NOT = {
					has_country_flag = Soleiman_Mirza_unavailable
				}
			}
			traits = {
				ideology_A
				MoS_Crime_Fighter
			}
		}
		# Mirza Riza Arfa Dowleh
		PER_MoS_Mirza_Riza_Arfa_Dowleh = {
			picture = Mirza_Riza_Arfa_Dowleh
			allowed = {
				tag = PER
			}
			available = {
				date > 1933.1.1
				date < 1964.1.1
				A_Minister_Allowed = yes
				NOT = {
					has_country_flag = Mirza_Riza_Arfa_Dowleh_unavailable
				}
			}
			traits = {
				ideology_A
				MoS_Back_Stabber
			}
		}
		# Ali Mansour
		PER_MoS_Ali_Mansour = {
			picture = Ali_Mansour
			allowed = {
				tag = PER
			}
			available = {
				date > 1938.1.1
				date < 1964.1.1
				A_Minister_Allowed = yes
				NOT = {
					has_country_flag = Ali_Mansour_unavailable
				}
			}
			traits = {
				ideology_A
				MoS_Man_Of_The_People
			}
		}
		# Mehdi Manjarani
		PER_MoS_Mehdi_Manjarani = {
			picture = Mehdi_Manjarani
			allowed = {
				tag = PER
			}
			available = {
				date > 1945.1.1
				date < 1964.1.1
				A_Minister_Allowed = yes
				NOT = {
					has_country_flag = Mehdi_Manjarani_unavailable
				}
			}
			traits = {
				ideology_A
				MoS_Prince_Of_Terror
			}
		}
		# Mohammed Ali Foroughi
		PER_MoS_Mohammed_Ali_Foroughi = {
			picture = Mohammed_Ali_Foroughi
			allowed = {
				tag = PER
			}
			available = {
				date > 1933.1.1
				date < 1964.1.1
				D_Minister_Allowed = yes
				NOT = {
					has_country_flag = Mohammed_Ali_Foroughi_unavailable
				}
			}
			traits = {
				ideology_D
				MoS_Crime_Fighter
			}
		}
		# Mohammed Bahrami
		PER_MoS_Mohammed_Bahrami = {
			picture = Mohammed_Bahrami
			allowed = {
				tag = PER
			}
			available = {
				date > 1941.1.1
				date < 1964.1.1
				D_Minister_Allowed = yes
				NOT = {
					has_country_flag = Mohammed_Bahrami_unavailable
				}
			}
			traits = {
				ideology_D
				MoS_Compassionate_Gentleman
			}
		}
		# Edward G.V.S. Lord Derby
		PER_MoS_Edward_GVS_Lord_Derby = {
			picture = Edward_GVS_Lord_Derby
			allowed = {
				tag = PER
			}
			available = {
				date > 1941.1.1
				date < 1964.1.1
				D_Minister_Allowed = yes
				NOT = {
					has_country_flag = Edward_GVS_Lord_Derby_unavailable
				}
			}
			traits = {
				ideology_D
				MoS_Efficient_Sociopath
			}
		}
		# Abolhassan Hakimi
		PER_MoS_Abolhassan_Hakimi = {
			picture = Abolhassan_Hakimi
			allowed = {
				tag = PER
			}
			available = {
				date > 1945.1.1
				date < 1964.1.1
				D_Minister_Allowed = yes
				NOT = {
					has_country_flag = Abolhassan_Hakimi_unavailable
				}
			}
			traits = {
				ideology_D
				MoS_Back_Stabber
			}
		}
		# Hossein Arfazni
		PER_MoS_Hossein_Arfazni = {
			picture = Hossein_Arfazni
			allowed = {
				tag = PER
			}
			available = {
				date > 1946.1.1
				date < 1964.1.1
				D_Minister_Allowed = yes
				NOT = {
					has_country_flag = Hossein_Arfazni_unavailable
				}
			}
			traits = {
				ideology_D
				MoS_Silent_Lawyer
			}
		}
		# Kamal Habibollahi
		PER_MoS_Kamal_Habibollahi = {
			picture = Kamal_Habibollahi
			allowed = {
				tag = PER
			}
			available = {
				date > 1980.1.1
				date < 2016.1.1
				D_Minister_Allowed = yes
				NOT = {
					has_country_flag = Kamal_Habibollahi_unavailable
				}
			}
			traits = {
				ideology_D
				MoS_Crime_Fighter
			}
		}
		# Ali Amini
		PER_MoS_Ali_Amini = {
			picture = Ali_Amini
			allowed = {
				tag = PER
			}
			available = {
				date > 1980.1.1
				date < 1995.1.1
				D_Minister_Allowed = yes
				NOT = {
					has_country_flag = Ali_Amini_unavailable
				}
			}
			traits = {
				ideology_D
				MoS_Silent_Lawyer
			}
		}
		# Eraj Eskandari
		PER_MoS_Eraj_Eskandari = {
			picture = Eraj_Eskandari
			allowed = {
				tag = PER
			}
			available = {
				date > 1942.1.1
				date < 1964.1.1
				D_Minister_Allowed = yes
				NOT = {
					has_country_flag = Eraj_Eskandari_unavailable
				}
			}
			traits = {
				ideology_D
				MoS_Prince_Of_Terror
			}
		}
		# Kazem Rajavi
		PER_MoS_Kazem_Rajavi = {
			picture = Kazem_Rajavi
			allowed = {
				tag = PER
			}
			available = {
				date > 1980.1.1
				date < 1995.1.1
				D_Minister_Allowed = yes
				NOT = {
					has_country_flag = Kazem_Rajavi_unavailable
				}
			}
			traits = {
				ideology_D
				MoS_Silent_Lawyer
			}
		}
	}
	#################################################
	### Armaments Minister
	#################################################
	Armaments_Minister = {
		# Abdolreza Afkhami
		PER_AM_Abdolreza_Afkhami = {
			picture = Abdolreza_Afkhami
			allowed = {
				tag = PER
			}
			available = {
				date > 1939.1.1
				date < 1964.1.1
				F_Minister_Allowed = yes
				NOT = {
					has_country_flag = Abdolreza_Afkhami_unavailable
				}
			}
			traits = {
				ideology_F
				AM_Military_Entrepreneur
			}
		}
		# Mohammed Nakhjavani
		PER_AM_Mohammed_Nakhjavani = {
			picture = Mohammed_Nakhjavani
			allowed = {
				tag = PER
			}
			available = {
				date > 1940.1.1
				date < 1964.1.1
				F_Minister_Allowed = yes
				NOT = {
					has_country_flag = Mohammed_Nakhjavani_unavailable
				}
			}
			traits = {
				ideology_F
				AM_Tank_Proponent
			}
		}
		# Morteza Yazdi
		PER_AM_Morteza_Yazdi = {
			picture = Morteza_Yazdi
			allowed = {
				tag = PER
			}
			available = {
				date > 1940.1.1
				date < 1964.1.1
				F_Minister_Allowed = yes
				NOT = {
					has_country_flag = Morteza_Yazdi_unavailable
				}
			}
			traits = {
				ideology_F
				AM_Air_Superiority_Proponent
			}
		}
		# Akbar Torkan
		PER_AM_Akbar_Torkan = {
			picture = Akbar_Torkan
			allowed = {
				tag = PER
			}
			available = {
				date > 1980.1.1
				date < 1995.1.1
				F_Minister_Allowed = yes
				NOT = {
					has_country_flag = Akbar_Torkan_unavailable
				}
			}
			traits = {
				ideology_F
				AM_Resource_Industrialist
			}
		}
		# Mir-Hossein Mousavi
		PER_AM_MirHossein_Mousavi = {
			picture = MirHossein_Mousavi
			allowed = {
				tag = PER
			}
			available = {
				date > 1980.1.1
				date < 1995.1.1
				F_Minister_Allowed = yes
				NOT = {
					has_country_flag = MirHossein_Mousavi_unavailable
				}
			}
			traits = {
				ideology_F
				AM_Administrative_Genius
			}
		}
		# Ali Khamenei
		PER_AM_Ali_Khamenei = {
			picture = Ali_Khamenei
			allowed = {
				tag = PER
			}
			available = {
				date > 1980.1.1
				date < 1995.1.1
				F_Minister_Allowed = yes
				NOT = {
					has_country_flag = Ali_Khamenei_unavailable
				}
			}
			traits = {
				ideology_F
				AM_Infantry_Proponent
			}
		}
		# Ahmad Khan Nakhjaavan
		PER_AM_Ahmad_Khan_Nakhjaavan = {
			picture = Ahmad_Khan_Nakhjaavan
			allowed = {
				tag = PER
			}
			available = {
				date > 1933.1.1
				date < 1964.1.1
				A_Minister_Allowed = yes
				NOT = {
					has_country_flag = Ahmad_Khan_Nakhjaavan_unavailable
				}
			}
			traits = {
				ideology_A
				AM_Battle_Fleet_Proponent
			}
		}
		# Reza Mizani
		PER_AM_Reza_Mizani = {
			picture = Reza_Mizani
			allowed = {
				tag = PER
			}
			available = {
				date > 1937.1.1
				date < 1964.1.1
				A_Minister_Allowed = yes
				NOT = {
					has_country_flag = Reza_Mizani_unavailable
				}
			}
			traits = {
				ideology_A
				AM_Resource_Industrialist
			}
		}
		# Mirza Riza Arfa Dowleh
		PER_AM_Mirza_Riza_Arfa_Dowleh = {
			picture = Mirza_Riza_Arfa_Dowleh
			allowed = {
				tag = PER
			}
			available = {
				date > 1937.1.1
				date < 1964.1.1
				A_Minister_Allowed = yes
				NOT = {
					has_country_flag = Mirza_Riza_Arfa_Dowleh_unavailable
				}
			}
			traits = {
				ideology_A
				AM_Infantry_Proponent
			}
		}
		# Ahmad Khan Nakhjavan
		PER_AM_Ahmad_Khan_Nakhjavan = {
			picture = Ahmad_Khan_Nakhjavan
			allowed = {
				tag = PER
			}
			available = {
				date > 1938.1.1
				date < 1964.1.1
				A_Minister_Allowed = yes
				NOT = {
					has_country_flag = Ahmad_Khan_Nakhjavan_unavailable
				}
			}
			traits = {
				ideology_A
				AM_Air_To_Sea_Proponent
			}
		}
		# Ahmad Mira Khosravani
		PER_AM_Ahmad_Mira_Khosravani = {
			picture = Ahmad_Mira_Khosravani
			allowed = {
				tag = PER
			}
			available = {
				date > 1939.1.1
				date < 1964.1.1
				A_Minister_Allowed = yes
				NOT = {
					has_country_flag = Ahmad_Mira_Khosravani_unavailable
				}
			}
			traits = {
				ideology_A
				AM_Submarine_Proponent
			}
		}
		# Zoka Dowleh
		PER_AM_Zoka_Dowleh_2 = {
			picture = Zoka_Dowleh_2
			allowed = {
				tag = PER
			}
			available = {
				date > 1945.1.1
				date < 1964.1.1
				A_Minister_Allowed = yes
				NOT = {
					has_country_flag = Zoka_Dowleh_unavailable
				}
			}
			traits = {
				ideology_A
				AM_Tank_Proponent
			}
		}
		# Alfred Rudolph Zimmermann
		PER_AM_Alfred_Rudolph_Zimmermann = {
			picture = Alfred_Rudolph_Zimmermann
			allowed = {
				tag = PER
			}
			available = {
				date > 1938.1.1
				date < 1964.1.1
				D_Minister_Allowed = yes
				NOT = {
					has_country_flag = Alfred_Rudolph_Zimmermann_unavailable
				}
			}
			traits = {
				ideology_D
				AM_Laissez-faire_Capitalist
			}
		}
		# Sayyid al-Din Tabataba'i
		PER_AM_Sayyid_alDin_Tabatabai = {
			picture = Sayyid_alDin_Tabatabai
			allowed = {
				tag = PER
			}
			available = {
				date > 1941.1.1
				date < 1964.1.1
				D_Minister_Allowed = yes
				NOT = {
					has_country_flag = Sayyid_alDin_Tabatabai_unavailable
				}
			}
			traits = {
				ideology_D
				AM_Battle_Fleet_Proponent
			}
		}
		# Mohammed Bahrami
		PER_AM_Mohammed_Bahrami = {
			picture = Mohammed_Bahrami
			allowed = {
				tag = PER
			}
			available = {
				date > 1944.1.1
				date < 1964.1.1
				D_Minister_Allowed = yes
				NOT = {
					has_country_flag = Mohammed_Bahrami_unavailable
				}
			}
			traits = {
				ideology_D
				AM_Strategic_Air_Proponent
			}
		}
		# Ja'fer Pishevari
		PER_AM_Jafer_Pishevari = {
			picture = Jafer_Pishevari
			allowed = {
				tag = PER
			}
			available = {
				date > 1945.1.1
				date < 1964.1.1
				D_Minister_Allowed = yes
				NOT = {
					has_country_flag = Jafer_Pishevari_unavailable
				}
			}
			traits = {
				ideology_D
				AM_Resource_Industrialist
			}
		}
		# Anushirvan Sepahbody
		PER_AM_Anushirvan_Sepahbody = {
			picture = Anushirvan_Sepahbody
			allowed = {
				tag = PER
			}
			available = {
				date > 1946.1.1
				date < 1964.1.1
				D_Minister_Allowed = yes
				NOT = {
					has_country_flag = Anushirvan_Sepahbody_unavailable
				}
			}
			traits = {
				ideology_D
				AM_Administrative_Genius
			}
		}
		# Hushang Ansary
		PER_AM_Hushang_Ansary_2 = {
			picture = Hushang_Ansary_2
			allowed = {
				tag = PER
			}
			available = {
				date > 1980.1.1
				date < 2020.1.1
				D_Minister_Allowed = yes
				NOT = {
					has_country_flag = Hushang_Ansary_unavailable
				}
			}
			traits = {
				ideology_D
				AM_Resource_Industrialist
			}
		}
		# Hushang Ansary
		PER_AM_Hushang_Ansary = {
			picture = Hushang_Ansary
			allowed = {
				tag = PER
			}
			available = {
				date > 1980.1.1
				date < 1995.1.1
				D_Minister_Allowed = yes
				NOT = {
					has_country_flag = Hushang_Ansary_unavailable
				}
			}
			traits = {
				ideology_D
				AM_Resource_Industrialist
			}
		}
		# Zoka Dowleh
		PER_AM_Zoka_Dowleh = {
			picture = Zoka_Dowleh
			allowed = {
				tag = PER
			}
			available = {
				date > 1943.1.1
				date < 1964.1.1
				D_Minister_Allowed = yes
				NOT = {
					has_country_flag = Zoka_Dowleh_unavailable
				}
			}
			traits = {
				ideology_D
				AM_Theoretical_Scientist
			}
		}
		# Sadegh Sharafkandi
		PER_AM_Sadegh_Sharafkandi = {
			picture = Sadegh_Sharafkandi
			allowed = {
				tag = PER
			}
			available = {
				date > 1980.1.1
				date < 1995.1.1
				D_Minister_Allowed = yes
				NOT = {
					has_country_flag = Sadegh_Sharafkandi_unavailable
				}
			}
			traits = {
				ideology_D
				AM_Theoretical_Scientist
			}
		}
		# Ahmad Madani
		PER_AM_Ahmad_Madani = {
			picture = Ahmad_Madani
			allowed = {
				tag = PER
			}
			available = {
				date > 1980.1.1
				date < 1995.1.1
				D_Minister_Allowed = yes
				NOT = {
					has_country_flag = Ahmad_Madani_unavailable
				}
			}
			traits = {
				ideology_D
				AM_Theoretical_Scientist
			}
		}
	}
	#################################################
	### Head of Intelligence
	#################################################
	Head_of_Intelligence = {
		# Alfred Rudolph Zimmermann
		PER_HoI_Alfred_Rudolph_Zimmermann = {
			picture = Alfred_Rudolph_Zimmermann
			allowed = {
				tag = PER
			}
			available = {
				date > 1939.1.1
				date < 1964.1.1
				F_Minister_Allowed = yes
				NOT = {
					has_country_flag = Alfred_Rudolph_Zimmermann_unavailable
				}
			}
			traits = {
				ideology_F
				HoI_Industrial_Specialist
			}
		}
		# Ahmad Matin-Daftary
		PER_HoI_Ahmad_MatinDaftary = {
			picture = Ahmad_MatinDaftary
			allowed = {
				tag = PER
			}
			available = {
				date > 1941.1.1
				date < 1964.1.1
				F_Minister_Allowed = yes
				NOT = {
					has_country_flag = Ahmad_MatinDaftary_unavailable
				}
			}
			traits = {
				ideology_F
				HoI_Naval_Intelligence_Specialist
			}
		}
		# Mohammad Reyshahri
		PER_HoI_Mohammad_Reyshahri = {
			picture = Mohammad_Reyshahri
			allowed = {
				tag = PER
			}
			available = {
				date > 1980.1.1
				date < 1995.1.1
				F_Minister_Allowed = yes
				NOT = {
					has_country_flag = Mohammad_Reyshahri_unavailable
				}
			}
			traits = {
				ideology_F
				HoI_Dismal_Enigma
			}
		}
		# Reza Mizani
		PER_HoI_Reza_Mizani = {
			picture = Reza_Mizani
			allowed = {
				tag = PER
			}
			available = {
				date > 1933.1.1
				date < 1964.1.1
				A_Minister_Allowed = yes
				NOT = {
					has_country_flag = Reza_Mizani_unavailable
				}
			}
			traits = {
				ideology_A
				HoI_Naval_Intelligence_Specialist
			}
		}
		# Muhammed Reza Pahlavi
		PER_HoI_Muhammed_Reza_Pahlavi = {
			picture = Muhammed_Reza_Pahlavi
			allowed = {
				tag = PER
			}
			available = {
				date > 1937.1.1
				date < 1964.1.1
				A_Minister_Allowed = yes
				NOT = {
					has_country_flag = Muhammed_Reza_Pahlavi_unavailable
				}
			}
			traits = {
				ideology_A
				HoI_Political_Specialist
			}
		}
		# Dinshah Irani
		PER_HoI_Dinshah_Irani = {
			picture = Dinshah_Irani
			allowed = {
				tag = PER
			}
			available = {
				date > 1938.1.1
				date < 1964.1.1
				A_Minister_Allowed = yes
				NOT = {
					has_country_flag = Dinshah_Irani_unavailable
				}
			}
			traits = {
				ideology_A
				HoI_Technical_Specialist
			}
		}
		# Abdol Hossein Sardarie
		PER_HoI_Abdol_Hossein_Sardarie = {
			picture = Abdol_Hossein_Sardarie
			allowed = {
				tag = PER
			}
			available = {
				date > 1945.1.1
				date < 1964.1.1
				A_Minister_Allowed = yes
				NOT = {
					has_country_flag = Abdol_Hossein_Sardarie_unavailable
				}
			}
			traits = {
				ideology_A
				HoI_Dismal_Enigma
			}
		}
		# Ali Sepahbodi Qajar
		PER_HoI_Ali_Sepahbodi_Qajar = {
			picture = Ali_Sepahbodi_Qajar
			allowed = {
				tag = PER
			}
			available = {
				date > 1941.1.1
				date < 1964.1.1
				D_Minister_Allowed = yes
				NOT = {
					has_country_flag = Ali_Sepahbodi_Qajar_unavailable
				}
			}
			traits = {
				ideology_D
				HoI_Dismal_Enigma
			}
		}
		# Abdollah Entezam
		PER_HoI_Abdollah_Entezam = {
			picture = Abdollah_Entezam
			allowed = {
				tag = PER
			}
			available = {
				date > 1945.1.1
				date < 1964.1.1
				D_Minister_Allowed = yes
				NOT = {
					has_country_flag = Abdollah_Entezam_unavailable
				}
			}
			traits = {
				ideology_D
				HoI_Technical_Specialist
			}
		}
		# Ovassaq al-Doleh Noorie
		PER_HoI_Ovassaq_alDoleh_Noorie = {
			picture = Ovassaq_alDoleh_Noorie
			allowed = {
				tag = PER
			}
			available = {
				date > 1945.1.1
				date < 1964.1.1
				D_Minister_Allowed = yes
				NOT = {
					has_country_flag = Ovassaq_alDoleh_Noorie_unavailable
				}
			}
			traits = {
				ideology_D
				HoI_Naval_Intelligence_Specialist
			}
		}
		# Kamal Habibollahi
		PER_HoI_Kamal_Habibollahi_2 = {
			picture = Kamal_Habibollahi_2
			allowed = {
				tag = PER
			}
			available = {
				date > 1980.1.1
				date < 2016.1.1
				D_Minister_Allowed = yes
				NOT = {
					has_country_flag = Kamal_Habibollahi_unavailable
				}
			}
			traits = {
				ideology_D
				HoI_Political_Specialist
			}
		}
		# Kamal Habibollahi
		PER_HoI_Kamal_Habibollahi = {
			picture = Kamal_Habibollahi
			allowed = {
				tag = PER
			}
			available = {
				date > 1980.1.1
				date < 1995.1.1
				D_Minister_Allowed = yes
				NOT = {
					has_country_flag = Kamal_Habibollahi_unavailable
				}
			}
			traits = {
				ideology_D
				HoI_Naval_Intelligence_Specialist
			}
		}
		# Sir Neville Grantleigh
		PER_HoI_Sir_Neville_Grantleigh = {
			picture = Sir_Neville_Grantleigh
			allowed = {
				tag = PER
			}
			available = {
				date > 1941.1.1
				date < 1964.1.1
				D_Minister_Allowed = yes
				NOT = {
					has_country_flag = Sir_Neville_Grantleigh_unavailable
				}
			}
			traits = {
				ideology_D
				HoI_Industrial_Specialist
			}
		}
		# Mohammed Mossadeq
		PER_HoI_Mohammed_Mossadeq = {
			picture = Mohammed_Mossadeq
			allowed = {
				tag = PER
			}
			available = {
				date > 1946.1.1
				date < 1964.1.1
				D_Minister_Allowed = yes
				NOT = {
					has_country_flag = Mohammed_Mossadeq_unavailable
				}
			}
			traits = {
				ideology_D
				HoI_Logistics_Specialist
			}
		}
		# Sadegh Sharafkandi
		PER_HoI_Sadegh_Sharafkandi = {
			picture = Sadegh_Sharafkandi
			allowed = {
				tag = PER
			}
			available = {
				date > 1980.1.1
				date < 1995.1.1
				D_Minister_Allowed = yes
				NOT = {
					has_country_flag = Sadegh_Sharafkandi_unavailable
				}
			}
			traits = {
				ideology_D
				HoI_Industrial_Specialist
			}
		}
		# Ahmad Madani
		PER_HoI_Ahmad_Madani = {
			picture = Ahmad_Madani
			allowed = {
				tag = PER
			}
			available = {
				date > 1980.1.1
				date < 1995.1.1
				D_Minister_Allowed = yes
				NOT = {
					has_country_flag = Ahmad_Madani_unavailable
				}
			}
			traits = {
				ideology_D
				HoI_Naval_Intelligence_Specialist
			}
		}
		# Mohammed Bahrami
		PER_HoI_Mohammed_Bahrami = {
			picture = Mohammed_Bahrami
			allowed = {
				tag = PER
			}
			available = {
				date > 1933.1.1
				date < 1964.1.1
				C_Minister_Allowed = yes
				NOT = {
					has_country_flag = Mohammed_Bahrami_unavailable
				}
			}
			traits = {
				ideology_C
				HoI_Political_Specialist
			}
		}
	}
	#################################################
	### Chief of Staff
	#################################################
	Chief_of_Staff = {
		# Hassan Majid Firooz
		PER_CoStaff_Hassan_Majid_Firooz = {
			picture = Hassan_Majid_Firooz
			allowed = {
				tag = PER
			}
			available = {
				date > 1939.1.1
				date < 1964.1.1
				F_Minister_Allowed = yes
				NOT = {
					has_country_flag = Hassan_Majid_Firooz_unavailable
				}
			}
			traits = {
				ideology_F
				CoStaff_School_Of_Defence
			}
		}
		# Ali Sayad Shirazi
		PER_CoStaff_Ali_Sayad_Shirazi = {
			picture = Ali_Sayad_Shirazi
			allowed = {
				tag = PER
			}
			available = {
				date > 1980.1.1
				date < 1995.1.1
				F_Minister_Allowed = yes
				NOT = {
					has_country_flag = Ali_Sayad_Shirazi_unavailable
				}
			}
			traits = {
				ideology_F
				CoStaff_School_Of_Mass_Combat
			}
		}
		# Ahmad Shah Qajar
		PER_CoStaff_Ahmad_Shah_Qajar = {
			picture = Ahmad_Shah_Qajar
			allowed = {
				tag = PER
			}
			available = {
				date > 1914.1.1
				date < 1933.1.1
				A_Minister_Allowed = yes
				NOT = {
					has_country_flag = Ahmad_Shah_Qajar_unavailable
				}
			}
			traits = {
				ideology_A
				CoStaff_School_Of_Defence
			}
		}
		# Reza Pahlavi
		PER_CoStaff_Reza_Pahlavi = {
			picture = Reza_Pahlavi
			allowed = {
				tag = PER
			}
			available = {
				date > 1933.1.1
				date < 1964.1.1
				A_Minister_Allowed = yes
				NOT = {
					has_country_flag = Reza_Pahlavi_unavailable
				}
			}
			traits = {
				ideology_A
				CoStaff_School_Of_Defence
			}
		}
		# Ali Akbar Deiva
		PER_CoStaff_Ali_Akbar_Deiva = {
			picture = Ali_Akbar_Deiva
			allowed = {
				tag = PER
			}
			available = {
				date > 1939.1.1
				date < 1964.1.1
				A_Minister_Allowed = yes
				NOT = {
					has_country_flag = Ali_Akbar_Deiva_unavailable
				}
			}
			traits = {
				ideology_A
				CoStaff_School_Of_Psychology
			}
		}
		# Mohammed Reza Pahlavi
		PER_CoStaff_Mohammed_Reza_Pahlavi = {
			picture = Mohammed_Reza_Pahlavi
			allowed = {
				tag = PER
			}
			available = {
				date > 1945.1.1
				date < 1964.1.1
				A_Minister_Allowed = yes
				NOT = {
					has_country_flag = Mohammed_Reza_Pahlavi_unavailable
				}
			}
			traits = {
				ideology_A
				CoStaff_School_Of_Defence
			}
		}
		# Ali Razmara
		PER_CoStaff_Ali_Razmara = {
			picture = Ali_Razmara
			allowed = {
				tag = PER
			}
			available = {
				date > 1953.1.1
				date < 1964.1.1
				A_Minister_Allowed = yes
				NOT = {
					has_country_flag = Ali_Razmara_unavailable
				}
			}
			traits = {
				ideology_A
				CoStaff_School_Of_Psychology
			}
		}
		# Reza Mizani
		PER_CoStaff_Reza_Mizani = {
			picture = Reza_Mizani
			allowed = {
				tag = PER
			}
			available = {
				date > 1941.1.1
				date < 1964.1.1
				D_Minister_Allowed = yes
				NOT = {
					has_country_flag = Reza_Mizani_unavailable
				}
			}
			traits = {
				ideology_D
				CoStaff_School_Of_Mass_Combat
			}
		}
		# Hossein Afkhami
		PER_CoStaff_Hossein_Afkhami = {
			picture = Hossein_Afkhami
			allowed = {
				tag = PER
			}
			available = {
				date > 1945.1.1
				date < 1964.1.1
				D_Minister_Allowed = yes
				NOT = {
					has_country_flag = Hossein_Afkhami_unavailable
				}
			}
			traits = {
				ideology_D
				CoStaff_School_Of_Fire_Support
			}
		}
		# Gholam-Reza Azhari
		PER_CoStaff_GholamReza_Azhari_2 = {
			picture = GholamReza_Azhari_2
			allowed = {
				tag = PER
			}
			available = {
				date > 1980.1.1
				date < 2001.1.1
				D_Minister_Allowed = yes
				NOT = {
					has_country_flag = GholamReza_Azhari_unavailable
				}
			}
			traits = {
				ideology_D
				CoStaff_School_Of_Fire_Support
			}
		}
		# Gholam-Reza Azhari
		PER_CoStaff_GholamReza_Azhari = {
			picture = GholamReza_Azhari
			allowed = {
				tag = PER
			}
			available = {
				date > 1980.1.1
				date < 1995.1.1
				D_Minister_Allowed = yes
				NOT = {
					has_country_flag = GholamReza_Azhari_unavailable
				}
			}
			traits = {
				ideology_D
				CoStaff_School_Of_Fire_Support
			}
		}
		# Ali Khan Nakziam
		PER_CoStaff_Ali_Khan_Nakziam = {
			picture = Ali_Khan_Nakziam
			allowed = {
				tag = PER
			}
			available = {
				date > 1943.1.1
				date < 1964.1.1
				D_Minister_Allowed = yes
				NOT = {
					has_country_flag = Ali_Khan_Nakziam_unavailable
				}
			}
			traits = {
				ideology_D
				CoStaff_School_Of_Manoeuvre
			}
		}
		# Ahmad Madani
		PER_CoStaff_Ahmad_Madani = {
			picture = Ahmad_Madani
			allowed = {
				tag = PER
			}
			available = {
				date > 1980.1.1
				date < 1995.1.1
				D_Minister_Allowed = yes
				NOT = {
					has_country_flag = Ahmad_Madani_unavailable
				}
			}
			traits = {
				ideology_D
				CoStaff_School_Of_Fire_Support
			}
		}
	}
	#################################################
	### Chief of Army
	#################################################
	Chief_of_Army = {
		# Hassan Majid Firooz
		PER_CoArmy_Hassan_Majid_Firooz = {
			picture = Hassan_Majid_Firooz
			allowed = {
				tag = PER
			}
			available = {
				date > 1939.1.1
				date < 1964.1.1
				F_Minister_Allowed = yes
				NOT = {
					has_country_flag = Hassan_Majid_Firooz_unavailable
				}
			}
			traits = {
				ideology_F
				CoArmy_Static_Defence_Doctrine
			}
		}
		# Mohsen Rezaee
		PER_CoArmy_Mohsen_Rezaee = {
			picture = Mohsen_Rezaee
			allowed = {
				tag = PER
			}
			available = {
				date > 1980.1.1
				date < 1995.1.1
				F_Minister_Allowed = yes
				NOT = {
					has_country_flag = Mohsen_Rezaee_unavailable
				}
			}
			traits = {
				ideology_F
				CoArmy_Decisive_Battle_Doctrine
			}
		}
		# Ahmad Shah Qajar
		PER_CoArmy_Ahmad_Shah_Qajar = {
			picture = Ahmad_Shah_Qajar
			allowed = {
				tag = PER
			}
			available = {
				date > 1914.1.1
				date < 1933.1.1
				A_Minister_Allowed = yes
				NOT = {
					has_country_flag = Ahmad_Shah_Qajar_unavailable
				}
			}
			traits = {
				ideology_A
				CoArmy_Decisive_Battle_Doctrine
			}
		}
		# Abdolreza Afkhami
		PER_CoArmy_Abdolreza_Afkhami = {
			picture = Abdolreza_Afkhami
			allowed = {
				tag = PER
			}
			available = {
				date > 1933.1.1
				date < 1964.1.1
				A_Minister_Allowed = yes
				NOT = {
					has_country_flag = Abdolreza_Afkhami_unavailable
				}
			}
			traits = {
				ideology_A
				CoArmy_Static_Defence_Doctrine
			}
		}
		# Mir Afkhami
		PER_CoArmy_Mir_Afkhami = {
			picture = Mir_Afkhami
			allowed = {
				tag = PER
			}
			available = {
				date > 1938.1.1
				date < 1964.1.1
				A_Minister_Allowed = yes
				NOT = {
					has_country_flag = Mir_Afkhami_unavailable
				}
			}
			traits = {
				ideology_A
				CoArmy_Guns_And_Butter_Doctrine
			}
		}
		# Mohammed Nakhjavani
		PER_CoArmy_Mohammed_Nakhjavani = {
			picture = Mohammed_Nakhjavani
			allowed = {
				tag = PER
			}
			available = {
				date > 1945.1.1
				date < 1964.1.1
				A_Minister_Allowed = yes
				NOT = {
					has_country_flag = Mohammed_Nakhjavani_unavailable
				}
			}
			traits = {
				ideology_A
				CoArmy_Armoured_Spearhead_Doctrine
			}
		}
		# Fazlollah Zahedi
		PER_CoArmy_Fazlollah_Zahedi = {
			picture = Fazlollah_Zahedi
			allowed = {
				tag = PER
			}
			available = {
				date > 1951.1.1
				date < 1964.1.1
				A_Minister_Allowed = yes
				NOT = {
					has_country_flag = Fazlollah_Zahedi_unavailable
				}
			}
			traits = {
				ideology_A
				CoArmy_Guns_And_Butter_Doctrine
			}
		}
		# Azram Mir Ghani
		PER_CoArmy_Azram_Mir_Ghani = {
			picture = Azram_Mir_Ghani
			allowed = {
				tag = PER
			}
			available = {
				date > 1941.1.1
				date < 1964.1.1
				D_Minister_Allowed = yes
				NOT = {
					has_country_flag = Azram_Mir_Ghani_unavailable
				}
			}
			traits = {
				ideology_D
				CoArmy_Elastic_Defence_Doctrine
			}
		}
		# Hedayat Gilanshah
		PER_CoArmy_Hedayat_Gilanshah = {
			picture = Hedayat_Gilanshah
			allowed = {
				tag = PER
			}
			available = {
				date > 1945.1.1
				date < 1964.1.1
				D_Minister_Allowed = yes
				NOT = {
					has_country_flag = Hedayat_Gilanshah_unavailable
				}
			}
			traits = {
				ideology_D
				CoArmy_Decisive_Battle_Doctrine
			}
		}
		# Gholam-Reza Azhari
		PER_CoArmy_GholamReza_Azhari_2 = {
			picture = GholamReza_Azhari_2
			allowed = {
				tag = PER
			}
			available = {
				date > 1980.1.1
				date < 2001.1.1
				D_Minister_Allowed = yes
				NOT = {
					has_country_flag = GholamReza_Azhari_unavailable
				}
			}
			traits = {
				ideology_D
				CoArmy_Armoured_Spearhead_Doctrine
			}
		}
		# Gholam-Reza Azhari
		PER_CoArmy_GholamReza_Azhari = {
			picture = GholamReza_Azhari
			allowed = {
				tag = PER
			}
			available = {
				date > 1980.1.1
				date < 1995.1.1
				D_Minister_Allowed = yes
				NOT = {
					has_country_flag = GholamReza_Azhari_unavailable
				}
			}
			traits = {
				ideology_D
				CoArmy_Armoured_Spearhead_Doctrine
			}
		}
		# Masoud Rajavi
		PER_CoArmy_Masoud_Rajavi = {
			picture = Masoud_Rajavi
			allowed = {
				tag = PER
			}
			available = {
				date > 1980.1.1
				date < 1995.1.1
				S_Minister_Allowed = yes
				NOT = {
					has_country_flag = Masoud_Rajavi_unavailable
				}
			}
			traits = {
				ideology_S
				CoArmy_Decisive_Battle_Doctrine
			}
		}
	}
	#################################################
	### Chief of Navy
	#################################################
	Chief_of_Navy = {
		# Schapur Khisrabadi
		PER_CoNavy_Schapur_Khisrabadi = {
			picture = Schapur_Khisrabadi
			allowed = {
				tag = PER
			}
			available = {
				date > 1939.1.1
				date < 1964.1.1
				F_Minister_Allowed = yes
				NOT = {
					has_country_flag = Schapur_Khisrabadi_unavailable
				}
			}
			traits = {
				ideology_F
				CoNavy_Open_Seas_Doctrine
			}
		}
		# Akbar Hashemi Rafsanjani
		PER_CoNavy_Akbar_Hashemi_Rafsanjani = {
			picture = Akbar_Hashemi_Rafsanjani
			allowed = {
				tag = PER
			}
			available = {
				date > 1980.1.1
				date < 1995.1.1
				F_Minister_Allowed = yes
				NOT = {
					has_country_flag = Akbar_Hashemi_Rafsanjani_unavailable
				}
			}
			traits = {
				ideology_F
				CoNavy_Power_Projection_Doctrine
			}
		}
		# Ahmad Mira Khosravani
		PER_CoNavy_Ahmad_Mira_Khosravani = {
			picture = Ahmad_Mira_Khosravani
			allowed = {
				tag = PER
			}
			available = {
				date > 1933.1.1
				date < 1964.1.1
				A_Minister_Allowed = yes
				NOT = {
					has_country_flag = Ahmad_Mira_Khosravani_unavailable
				}
			}
			traits = {
				ideology_A
				CoNavy_Indirect_Approach_Doctrine
			}
		}
		# Reza Mizani
		PER_CoNavy_Reza_Mizani = {
			picture = Reza_Mizani
			allowed = {
				tag = PER
			}
			available = {
				date > 1938.1.1
				date < 1964.1.1
				A_Minister_Allowed = yes
				NOT = {
					has_country_flag = Reza_Mizani_unavailable
				}
			}
			traits = {
				ideology_A
				CoNavy_Base_Control_Doctrine
			}
		}
		# Ahmad Khan Nakhjaavan
		PER_CoNavy_Ahmad_Khan_Nakhjaavan = {
			picture = Ahmad_Khan_Nakhjaavan
			allowed = {
				tag = PER
			}
			available = {
				date > 1945.1.1
				date < 1964.1.1
				A_Minister_Allowed = yes
				NOT = {
					has_country_flag = Ahmad_Khan_Nakhjaavan_unavailable
				}
			}
			traits = {
				ideology_A
				CoNavy_Decisive_Naval_Battle_Doctrine
			}
		}
		# Mohammed Mir Mohanna
		PER_CoNavy_Mohammed_Mir_Mohanna = {
			picture = Mohammed_Mir_Mohanna
			allowed = {
				tag = PER
			}
			available = {
				date > 1941.1.1
				date < 1964.1.1
				D_Minister_Allowed = yes
				NOT = {
					has_country_flag = Mohammed_Mir_Mohanna_unavailable
				}
			}
			traits = {
				ideology_D
				CoNavy_Power_Projection_Doctrine
			}
		}
		# Mohammed Moini
		PER_CoNavy_Mohammed_Moini = {
			picture = Mohammed_Moini
			allowed = {
				tag = PER
			}
			available = {
				date > 1945.1.1
				date < 1964.1.1
				D_Minister_Allowed = yes
				NOT = {
					has_country_flag = Mohammed_Moini_unavailable
				}
			}
			traits = {
				ideology_D
				CoNavy_Indirect_Approach_Doctrine
			}
		}
		# Kamal Habibollahi
		PER_CoNavy_Kamal_Habibollahi_2 = {
			picture = Kamal_Habibollahi_2
			allowed = {
				tag = PER
			}
			available = {
				date > 1980.1.1
				date < 2016.1.1
				D_Minister_Allowed = yes
				NOT = {
					has_country_flag = Kamal_Habibollahi_unavailable
				}
			}
			traits = {
				ideology_D
				CoNavy_Power_Projection_Doctrine
			}
		}
		# Kamal Habibollahi
		PER_CoNavy_Kamal_Habibollahi = {
			picture = Kamal_Habibollahi
			allowed = {
				tag = PER
			}
			available = {
				date > 1980.1.1
				date < 1995.1.1
				D_Minister_Allowed = yes
				NOT = {
					has_country_flag = Kamal_Habibollahi_unavailable
				}
			}
			traits = {
				ideology_D
				CoNavy_Power_Projection_Doctrine
			}
		}
		# Ahmad Madani
		PER_CoNavy_Ahmad_Madani = {
			picture = Ahmad_Madani
			allowed = {
				tag = PER
			}
			available = {
				date > 1980.1.1
				date < 1995.1.1
				D_Minister_Allowed = yes
				NOT = {
					has_country_flag = Ahmad_Madani_unavailable
				}
			}
			traits = {
				ideology_D
				CoNavy_Power_Projection_Doctrine
			}
		}
	}
	#################################################
	### Chief of Airforce
	#################################################
	Chief_of_Airforce = {
		# Mohammed Nakhjavani
		PER_CoAir_Mohammed_Nakhjavani = {
			picture = Mohammed_Nakhjavani
			allowed = {
				tag = PER
			}
			available = {
				date > 1939.1.1
				date < 1964.1.1
				F_Minister_Allowed = yes
				NOT = {
					has_country_flag = Mohammed_Nakhjavani_unavailable
				}
			}
			traits = {
				ideology_F
				CoAir_Air_Superiority_Doctrine
			}
		}
		# Ali Sayad Shirazi
		PER_CoAir_Ali_Sayad_Shirazi = {
			picture = Ali_Sayad_Shirazi
			allowed = {
				tag = PER
			}
			available = {
				date > 1980.1.1
				date < 1995.1.1
				F_Minister_Allowed = yes
				NOT = {
					has_country_flag = Ali_Sayad_Shirazi_unavailable
				}
			}
			traits = {
				ideology_F
				CoAir_Air_Superiority_Doctrine
			}
		}
		# Ahmad Khan Nakhjavan
		PER_CoAir_Ahmad_Khan_Nakhjavan = {
			picture = Ahmad_Khan_Nakhjavan
			allowed = {
				tag = PER
			}
			available = {
				date > 1933.1.1
				date < 1964.1.1
				A_Minister_Allowed = yes
				NOT = {
					has_country_flag = Ahmad_Khan_Nakhjavan_unavailable
				}
			}
			traits = {
				ideology_A
				CoAir_Naval_Aviation_Doctrine
			}
		}
		# Sadegh Khan Koopal
		PER_CoAir_Sadegh_Khan_Koopal = {
			picture = Sadegh_Khan_Koopal
			allowed = {
				tag = PER
			}
			available = {
				date > 1937.1.1
				date < 1964.1.1
				A_Minister_Allowed = yes
				NOT = {
					has_country_flag = Sadegh_Khan_Koopal_unavailable
				}
			}
			traits = {
				ideology_A
				CoAir_Army_Aviation_Doctrine
			}
		}
		# Hedayat Gilanshah
		PER_CoAir_Hedayat_Gilanshah = {
			picture = Hedayat_Gilanshah
			allowed = {
				tag = PER
			}
			available = {
				date > 1946.1.1
				date < 1964.1.1
				A_Minister_Allowed = yes
				NOT = {
					has_country_flag = Hedayat_Gilanshah_unavailable
				}
			}
			traits = {
				ideology_A
				CoAir_Carpet_Bombing_Doctrine
			}
		}
		# Ali Razmara
		PER_CoAir_Ali_Razmara = {
			picture = Ali_Razmara
			allowed = {
				tag = PER
			}
			available = {
				date > 1949.1.1
				date < 1964.1.1
				A_Minister_Allowed = yes
				NOT = {
					has_country_flag = Ali_Razmara_unavailable
				}
			}
			traits = {
				ideology_A
				CoAir_Army_Aviation_Doctrine
			}
		}
		# Mohammed Moini
		PER_CoAir_Mohammed_Moini = {
			picture = Mohammed_Moini
			allowed = {
				tag = PER
			}
			available = {
				date > 1941.1.1
				date < 1964.1.1
				D_Minister_Allowed = yes
				NOT = {
					has_country_flag = Mohammed_Moini_unavailable
				}
			}
			traits = {
				ideology_D
				CoAir_Vertical_Envelopment_Doctrine
			}
		}
		# Mohammed Mir Mohanna
		PER_CoAir_Mohammed_Mir_Mohanna = {
			picture = Mohammed_Mir_Mohanna
			allowed = {
				tag = PER
			}
			available = {
				date > 1945.1.1
				date < 1964.1.1
				D_Minister_Allowed = yes
				NOT = {
					has_country_flag = Mohammed_Mir_Mohanna_unavailable
				}
			}
			traits = {
				ideology_D
				CoAir_Naval_Aviation_Doctrine
			}
		}
		# Gholam-Reza Azhari
		PER_CoAir_GholamReza_Azhari = {
			picture = GholamReza_Azhari
			allowed = {
				tag = PER
			}
			available = {
				date > 1980.1.1
				date < 2001.1.1
				D_Minister_Allowed = yes
				NOT = {
					has_country_flag = GholamReza_Azhari_unavailable
				}
			}
			traits = {
				ideology_D
				CoAir_Army_Aviation_Doctrine
			}
		}
		# Kamal Habibollahi
		PER_CoAir_Kamal_Habibollahi = {
			picture = Kamal_Habibollahi
			allowed = {
				tag = PER
			}
			available = {
				date > 1980.1.1
				date < 1995.1.1
				D_Minister_Allowed = yes
				NOT = {
					has_country_flag = Kamal_Habibollahi_unavailable
				}
			}
			traits = {
				ideology_D
				CoAir_Naval_Aviation_Doctrine
			}
		}
		# Behzad Moezzi
		PER_CoAir_Behzad_Moezzi = {
			picture = Behzad_Moezzi
			allowed = {
				tag = PER
			}
			available = {
				date > 1980.1.1
				date < 1995.1.1
				D_Minister_Allowed = yes
				NOT = {
					has_country_flag = Behzad_Moezzi_unavailable
				}
			}
			traits = {
				ideology_D
				CoAir_Air_Superiority_Doctrine
			}
		}
	}
}
