#!gfx:interface\_Goals.gfx
focus_tree = {
	id = GER_fascist
	country = {
		factor = 0
		modifier = {
			add = 10
			tag = GER
		}
	}
	continuous_focus_position = {
		x = 1
		y = 2000
	}
	default = no
	focus = {
		id = GER_Chancellor_Hitler
		icon = GFX_GER_Chancellor_Hitler
		cost = 29
		x = 10
		y = 0
		cancelable = no
		available = {
		}
		completion_reward = {
			news_event = {
				id = GER_Reichskanzler_Hitler.6
				hours = 6
			}
		}
	}
	focus = {
		id = GER_Reichsluftfahrtministerium
		icon = GFX_GER_Reichsluftfahrtministerium
		cost = 25
		x = 33
		y = 0
		bypass = {
			has_tech = Tactical_Bomber_1933
		}
		completion_reward = {
			custom_effect_tooltip = GER_Reichsluftfahrtministerium_tt
			add_ideas = GER_CoAir_Eberhard_Milch
			custom_effect_tooltip = GER_Reichsluftfahrtministerium_tt_2
			hidden_effect = {
				load_oob = "GER_RLM"
				set_technology = {
					Tactical_Bomber_1925 = 1
				}
			}
			add_tech_bonus = {
				name = GER_Luftrustungsprogramme
				bonus = 1
				uses = 1
				technology = Tactical_Bomber_1933
			}
		}
	}
	focus = {
		id = GER_Reichsmarine
		icon = GFX_GER_Reichsmarine
		cost = 25
		x = 4
		y = 0
		complete_tooltip = {
			every_state = {
				limit = {
					has_state_flag = GER_u_boat_effort_2dockyards
				}
				add_extra_state_shared_building_slots = 2
				add_building_construction = {
					type = dockyard
					level = 2
					instant_build = yes
				}
			}
			add_tech_bonus = {
				name = GER_Schiffebauplan
				bonus = 1
				uses = 1
				category = cl_tech
			}
			add_tech_bonus = {
				name = GER_Schiffebauplan
				bonus = 1
				uses = 1
				category = ca_tech
			}
		}
		completion_reward = {
			navy_experience = 25
			random_owned_controlled_state = {
				limit = {
					dockyard > 0
					free_building_slots = {
						building = dockyard
						size > 1
						include_locked = yes
					}
				}
				add_extra_state_shared_building_slots = 2
				add_building_construction = {
					type = dockyard
					level = 2
					instant_build = yes
				}
				set_state_flag = GER_u_boat_effort_2dockyards
			}
			add_tech_bonus = {
				name = GER_Schiffebauplan
				bonus = 1
				uses = 1
				category = cl_tech
			}
			add_tech_bonus = {
				name = GER_Schiffebauplan
				bonus = 1
				uses = 1
				category = ca_tech
			}
		}
		relative_position_id = GER_Reichsluftfahrtministerium
	}
	focus = {
		id = GER_Reichswehr
		icon = GFX_GER_Reichswehr
		cost = 25
		x = 2
		y = 0
		completion_reward = {
			custom_effect_tooltip = GER_Secret_Rearmament_tt
			activate_mission = GER_Second_Rearmament_Program
			add_tech_bonus = {
				name = GER_Reichswehr
				bonus = 1
				uses = 1
				technology = Small_Arms_1935
			}
			custom_effect_tooltip = GER_Treaty_of_Versailles_2_tt
			hidden_effect = {
				swap_ideas = {
					add_idea = GER_Treaty_of_Versailles_2
					remove_idea = GER_Treaty_of_Versailles
				}
				country_lock_all_division_template = no
			}
		}
		relative_position_id = GER_Reichsluftfahrtministerium
	}
	focus = {
		id = GER_Enabling_Act
		icon = GFX_GER_Enabling_Act
		cost = 27
		available = {
			has_completed_focus = GER_Reichswehr
		}
		prerequisite = {
			focus = GER_Chancellor_Hitler
		}
		x = 0
		y = 1
		available = {
			has_country_flag = GER_flag_Reichstag_Fire
		}
		select_effect = {
			news_event = {
				id = GER_Enabling_Act.2				# March 12th, 1933
				days = 12
			}
		}
		completion_reward = {
			news_event = {
				id = GER_Enabling_Act.3
				hours = 6
			}
		}
		relative_position_id = GER_Chancellor_Hitler
	}
	focus = {
		id = GER_Establish_The_Gestapo
		icon = GFX_GER_Ordnungspolizei
		cost = 30
		prerequisite = {
			focus = GER_Enabling_Act
		}
		x = -7
		y = 2
		select_effect = {
			news_event = {
				id = GER_Gestapo.1
				hours = 6
			}
		}
		completion_reward = {
			custom_effect_tooltip = GER_Establish_The_Gestapo_tt
			news_event = {
				id = GER_Gestapo.2
				hours = 6
			}
		}
		relative_position_id = GER_Chancellor_Hitler
	}
	focus = {
		id = GER_The_Brown_Revolution
		icon = GFX_GER_The_Brown_Revolution
		cost = 56
		prerequisite = {
			focus = GER_Establish_The_Gestapo
		}
		mutually_exclusive = {
			focus = GER_Unternehmen_Kolibri
		}
		x = -8
		y = 3
		available = {
			has_country_flag = SA_Coup_Unlocked
		}
		select_effect = {
			country_event = {
				id = GER_SA_Purge.6
				days = 2
			}
		}
		completion_reward = {
			hidden_effect = {
				news_event = {
					id = GER_SA_Purge.9
					hours = 24
				}
			}
			custom_effect_tooltip = GER_The_Brown_Revolution_tt
		}
		relative_position_id = GER_Chancellor_Hitler
	}
	focus = {
		id = GER_Unternehmen_Kolibri
		icon = GFX_GER_Night_of_the_Long_Knives
		cost = 42
		prerequisite = {
			focus = GER_Establish_The_Gestapo
		}
		mutually_exclusive = {
			focus = GER_The_Brown_Revolution
		}
		x = -6
		y = 3
		available = {
			has_country_flag = Purge_SA_Unlocked
		}
		# select_effect = {
		# 	country_event = {
		# 		id = GER_SA_Purge.10
		# 		hours = 2
		# 	}
		# }
		completion_reward = {
			custom_effect_tooltip = GER_Unternehmen_Kolibri_tt
			hidden_effect = {
				country_event = {
					id = GER_SA_Purge.10
					days = 1
				}
			}
		}
		relative_position_id = GER_Chancellor_Hitler
	}
	focus = {
		id = GER_SS_VT
		icon = GFX_GER_SS_VT
		cost = 56
		prerequisite = {
			focus = GER_Unternehmen_Kolibri
		}
		x = -7
		y = 4
		available = {
			has_completed_focus = GER_Unternehmen_Kolibri
		}
		completion_reward = {
			custom_effect_tooltip = GER_SS_VT_tt
			unlock_decision_category_tooltip = GER_Waffen_SS_category
			hidden_effect = {
				set_technology = {
					GER_SS_VT = 1
					popup = no
				}
				load_oob = "GER_SS_VT"
				if = {
					limit = {
						OR = {
							4 = {
								is_owned_and_controlled_by = ROOT
							}
							AUS = {
								is_puppet_of = GER
							}
						}
					}
					load_oob = "GER_SS_VT_AUS"
					set_country_flag = GER_Expand_the_SS_VT
				}
				country_event = {
					id = GER_SS.1
					days = 10
				}
			}
		}
		relative_position_id = GER_Chancellor_Hitler
	}
	focus = {
		id = GER_Waffen_SS
		icon = GFX_GER_Waffen_SS
		cost = 70
		prerequisite = {
			focus = GER_SS_VT
		}
		available = {
			has_country_flag = GER_Expand_the_SS_VT
			has_country_flag = GER_Arm_the_Camp_Guards
			has_country_flag = GER_Prepare_the_Ordnungspolizei_for_Occupation_Duty
		}
		x = -8
		y = 5
		relative_position_id = GER_Chancellor_Hitler
		completion_reward = {
			custom_effect_tooltip = GER_Waffen_SS_tt
			unlock_decision_tooltip = GER_Upgrade_LSSAH_to_a_Motorized_Brigade
			unlock_decision_tooltip = GER_Reorganize_SS_Units_into_Frontline_Divisions
			hidden_effect = {
				set_technology = {
					GER_Waffen_SS = 1
					popup = no
				}
				country_event = {
					id = GER_SS.2
					days = 4
				}
			}
		}
	}
	focus = {
		id = GER_Allgemeine_SS
		icon = GFX_GER_Schutzstaffel
		cost = 21
		prerequisite = {
			focus = GER_Unternehmen_Kolibri
		}
		x = -5
		y = 4
		completion_reward = {
			swap_ideas = {
				remove_idea = GER_Gestapo
				add_idea = GER_Gestapo_2
			}
		}
		relative_position_id = GER_Chancellor_Hitler
	}
	focus = {
		id = GER_SS_Fuhrungshauptamt
		icon = GFX_GER_SS_Political_Officers
		cost = 60
		prerequisite = {
			focus = GER_SS_VT
		}
		prerequisite = {
			focus = GER_Allgemeine_SS
		}
		x = -6
		y = 5
		completion_reward = {
			create_corps_commander = {
				name = "Felix Steiner"
				GFX = GFX_M_Felix_Steiner
				traits = {
					GER_SS
				}
				skill = 3
				id = 104028
				attack_skill = 3
				defense_skill = 2
				planning_skill = 3
				logistics_skill = 2
			}
			create_corps_commander = {
				name = "Joseph “Sepp” Dietrich"
				GFX = GFX_M_Sepp_Dietrich
				traits = {
					GER_SS
					armor_officer
					politically_connected
					brilliant_strategist
					trait_reckless
				}
				skill = 4
				id = 104029
				attack_skill = 2
				defense_skill = 3
				planning_skill = 4
				logistics_skill = 4
			}
			create_corps_commander = {
				name = "Paul Hausser"
				GFX = GFX_M_Paul_Hausser
				traits = {
					GER_SS
					armor_officer
					politically_connected
				}
				skill = 4
				id = 104030
				attack_skill = 3
				defense_skill = 3
				planning_skill = 4
				logistics_skill = 3
			}
		}
		relative_position_id = GER_Chancellor_Hitler
	}
	focus = {
		id = GER_SS_Freiwillige_Divisions
		icon = GFX_GER_SS_Volunteers
		cost = 30
		prerequisite = {
			focus = GER_Waffen_SS
		}
		prerequisite = {
			focus = GER_SS_Fuhrungshauptamt
		}
		mutually_exclusive = {
			focus = GER_Enforce_Strict_Purity_Requirements
		}
		x = -9
		y = 6
		relative_position_id = GER_Chancellor_Hitler
		completion_reward = {
			custom_effect_tooltip = GER_SS_Freiwillige_Divisions_tt
		}
	}
	focus = {
		id = GER_Divisionen_der_SS
		icon = GFX_GER_Volkssturm
		cost = 30
		prerequisite = {
			focus = GER_SS_Freiwillige_Divisions
		}
		x = -11
		y = 7
		relative_position_id = GER_Chancellor_Hitler
		completion_reward = {
			custom_effect_tooltip = GER_Divisionen_der_SS_tt
		}
	}
	focus = {
		id = GER_Enforce_Strict_Purity_Requirements
		icon = GFX_GER_Wiking_Converges_on_Berlin
		cost = 30
		prerequisite = {
			focus = GER_Waffen_SS
		}
		prerequisite = {
			focus = GER_SS_Fuhrungshauptamt
		}
		mutually_exclusive = {
			focus = GER_SS_Freiwillige_Divisions
		}
		x = -7
		y = 6
		completion_reward = {
			custom_effect_tooltip = GER_Enforce_Strict_Purity_Requirements_tt
			hidden_effect = {
				set_technology = {
					GER_Enforce_Strict_Purity_Requirements = 1
					popup = no
				}
			}
		}
		relative_position_id = GER_Chancellor_Hitler
	}
	focus = {
		id = GER_Reichssicherheitsamt
		icon = GFX_GER_RSHA
		cost = 70
		prerequisite = {
			focus = GER_Allgemeine_SS
		}
		x = -4
		y = 5
		completion_reward = {
			swap_ideas = {
				remove_idea = GER_Gestapo_2
				add_idea = GER_Gestapo_3
			}
		}
		relative_position_id = GER_Chancellor_Hitler
	}
	focus = {
		id = GER_Merge_the_Abwehr_into_the_SD
		icon = GFX_GER_Abwehr
		cost = 60
		prerequisite = {
			focus = GER_Reichssicherheitsamt
		}
		prerequisite = {
			focus = GER_SS_Fuhrungshauptamt
		}
		x = -5
		y = 6
		completion_reward = {
			custom_effect_tooltip = available_political_advisor
			show_ideas_tooltip = GER_HoI_Walter_Schellenberg
		}
		relative_position_id = GER_Chancellor_Hitler
	}
	focus = {
		id = GER_Recruit_from_the_Wehrmacht
		icon = GFX_GER_Wehrmacht
		cost = 10
		prerequisite = {
			focus = GER_Enforce_Strict_Purity_Requirements
		}
		x = -5
		y = 7
		relative_position_id = GER_Chancellor_Hitler
		completion_reward = {
			custom_effect_tooltip = GER_Recruit_from_the_Wehrmacht_tt
			set_temp_variable = {
				faction_id = 19
			}
			set_temp_variable = {
				loyalty_to_add = -20
			}
			change_faction_loyalty = yes
			set_temp_variable = {
				faction_id = 17
			}
			set_temp_variable = {
				loyalty_to_add = 20
			}
			change_faction_loyalty = yes
			hidden_effect = {
				set_technology = {
					GER_Recruit_from_the_Wehrmacht = 1
					popup = no
				}
			}
		}
	}
	focus = {
		id = GER_Gleichschaltung
		icon = GFX_GER_Gleichschaltung
		cost = 11
		prerequisite = {
			focus = GER_Enabling_Act
		}
		x = 0
		y = 2
		completion_reward = {
			news_event = {
				id = GER_Gleichschaltung.1
				hours = 6
			}
		}
		relative_position_id = GER_Chancellor_Hitler
	}
	focus = {
		id = GER_Subdue_the_Lander
		icon = GFX_GER_Machtergreifung
		cost = 7
		prerequisite = {
			focus = GER_Gleichschaltung
		}
		x = -3
		y = 3
		select_effect = {
			news_event = {
				id = GER_Gleichschaltung.2
				hours = 6				#7 April 1933
			}
		}
		completion_reward = {
			news_event = {
				id = GER_Gleichschaltung.6
				hours = 6
			}
		}
		relative_position_id = GER_Chancellor_Hitler
	}
	focus = {
		id = GER_A_One_Party_State
		icon = GFX_GER_Outlaw_Parties
		cost = 7
		prerequisite = {
			focus = GER_Subdue_the_Lander
		}
		x = -3
		y = 4
		completion_reward = {
			news_event = {
				id = GER_Gleichschaltung.3
				hours = 6
			}
		}
		relative_position_id = GER_Chancellor_Hitler
	}
	focus = {
		id = GER_Kirchenkampf
		icon = GFX_GENERIC_Separate_Church_from_State
		cost = 70
		prerequisite = {
			focus = GER_Gleichschaltung
		}
		x = 0
		y = 3
		completion_reward = {
			add_popularity = {
				ideology = fascist
				popularity = -0.05
			}
			add_ideas = {
				GER_Christian_Resistance
			}
		}
		relative_position_id = GER_Chancellor_Hitler
	}
	focus = {
		id = GER_Adopt_Positive_Christianity
		icon = GFX_GER_Positive_Christianity
		cost = 10
		prerequisite = {
			focus = GER_Kirchenkampf
		}
		mutually_exclusive = {
			focus = GER_Reichskonkordat
		}
		x = -1
		y = 4
		completion_reward = {
			add_political_power = -150
			add_ideas = {
				GER_MoS_Alfred_Rosenberg
			}
			swap_ideas = {
				remove_idea = GER_Christian_Resistance
				add_idea = GER_Fierce_Christian_Resistance
			}
		}
		relative_position_id = GER_Chancellor_Hitler
	}
	focus = {
		id = GER_Reichskonkordat
		icon = GFX_GER_Reichskonkordat
		cost = 10
		prerequisite = {
			focus = GER_Kirchenkampf
		}
		mutually_exclusive = {
			focus = GER_Adopt_Positive_Christianity
		}
		x = 1
		y = 4
		completion_reward = {
			news_event = {
				id = GER_Kirchenkampf.1
				hours = 6
			}
		}
		relative_position_id = GER_Chancellor_Hitler
	}
	focus = {
		id = GER_Officialize_the_Hitler_Youth
		icon = GFX_GER_Hitler_Youth
		cost = 10
		prerequisite = {
			focus = GER_Gleichschaltung
		}
		x = 3
		y = 3
		completion_reward = {
			country_event = {
				id = GER_Hitler_Youth.1
				hours = 6
			}
		}
		relative_position_id = GER_Chancellor_Hitler
	}
	focus = {
		id = GER_Leave_the_League_of_Nations
		icon = GFX_GENERIC_League_of_Nations
		cost = 10
		prerequisite = {
			focus = GER_Officialize_the_Hitler_Youth
		}
		x = 3
		y = 4
		completion_reward = {
			news_event = {
				id = GER_LoN.1
				hours = 12
			}
		}
		relative_position_id = GER_Chancellor_Hitler
	}
	focus = {
		id = GER_The_Economic_Recovery_Policy
		icon = GFX_GER_Economic_Recovery_Policy
		cost = 56
		available = {
			has_completed_focus = GER_Reichswehr
		}
		prerequisite = {
			focus = GER_Chancellor_Hitler
		}
		x = 9
		y = 1
		completion_reward = {
			set_temp_variable = {
				unemployment_value = -0.05
			}
			add_unemployment_effect = yes
			swap_ideas = {
				remove_idea = social_market_economy
				add_idea = corporatism
			}
		}
		relative_position_id = GER_Chancellor_Hitler
	}
	focus = {
		id = GER_Issue_MEFO_Bills
		icon = GFX_GER_MEFO_Bills
		cost = 50
		prerequisite = {
			focus = GER_The_Economic_Recovery_Policy
		}
		x = 5
		y = 2
		completion_reward = {
			activate_mission = GER_mefo_bills_mission
			add_ideas = {
				GER_mefo_bills_1
			}
		}
		relative_position_id = GER_Chancellor_Hitler
	}
	focus = {
		id = GER_A_Loudspeaker_in_Every_Home
		icon = GFX_GER_A_Loudspeaker_in_Every_House
		cost = 10
		prerequisite = {
			focus = GER_Officialize_the_Hitler_Youth
		}
		x = 5
		y = 4
		completion_reward = {
			swap_ideas = {
				remove_idea = GER_Hitler_Youth
				add_idea = GER_The_Hitler_Generation
			}
		}
		relative_position_id = GER_Chancellor_Hitler
	}
	focus = {
		id = GER_Reconstruct_the_Reich
		icon = GFX_GER_Volksgemeinschaft
		cost = 20
		prerequisite = {
			focus = GER_Adopt_Positive_Christianity
			focus = GER_Reichskonkordat
		}
		prerequisite = {
			focus = GER_A_One_Party_State
		}
		prerequisite = {
			focus = GER_Leave_the_League_of_Nations
		}
		prerequisite = {
			focus = GER_A_Loudspeaker_in_Every_Home
		}
		x = 0
		y = 5
		select_effect = {
			news_event = {
				id = GER_Gleichschaltung.4
				hours = 6				# Jan 30, 1934
			}
		}
		completion_reward = {
			custom_effect_tooltip = GER_Reconstruct_the_Reich_tt
			hidden_effect = {
				news_event = {
					id = GER_Gleichschaltung.5
					hours = 6
				}
			}
		}
		relative_position_id = GER_Chancellor_Hitler
	}
	focus = {
		id = GER_Privatizations_and_Austerity
		icon = GFX_GENERIC_Support_Privatization
		cost = 10
		prerequisite = {
			focus = GER_The_Economic_Recovery_Policy
		}
		x = 7
		y = 2
		completion_reward = {
			add_political_power = 50
			set_temp_variable = {
				money_to_gain = 1400
			}
			add_stability = -0.05
			add_money_with_inflation_included_with_tooltip_effect = yes
			random_owned_controlled_state = {
				limit = {
					industrial_complex > 1
				}
				remove_building = {
					type = industrial_complex
					level = 1
				}
			}
			random_owned_controlled_state = {
				limit = {
					industrial_complex > 1
				}
				remove_building = {
					type = industrial_complex
					level = 1
				}
			}
		}
		relative_position_id = GER_Chancellor_Hitler
	}
	focus = {
		id = GER_Reichsautobahn
		icon = GFX_GER_Deutsches_Reichbahn
		cost = 30
		prerequisite = {
			focus = GER_The_Economic_Recovery_Policy
		}
		x = 11
		y = 2
		bypass = {
			NOT = {
				AND = {
					64 = {
						free_building_slots = {
							building = infrastructure
							size > 0
						}
					}
					59 = {
						free_building_slots = {
							building = infrastructure
							size > 0
						}
					}
					60 = {
						free_building_slots = {
							building = infrastructure
							size > 0
						}
					}
					54 = {
						free_building_slots = {
							building = infrastructure
							size > 0
						}
					}
				}
			}
		}
		ai_will_do = {
			factor = 12
		}
		completion_reward = {
			country_event = {
				id = GER_Reichsautobahn.2
				hours = 6
			}
			custom_effect_tooltip = GER_Reichsautobahn_tt
		}
		relative_position_id = GER_Chancellor_Hitler
	}
	focus = {
		id = GER_Commence_Rearmament
		icon = GFX_GER_Commence_Re_Armament
		cost = 30
		prerequisite = {
			focus = GER_Issue_MEFO_Bills
		}
		prerequisite = {
			focus = GER_Privatizations_and_Austerity
		}
		prerequisite = {
			focus = GER_Reichsautobahn
		}
		mutually_exclusive = {
			focus = GER_Build_up_the_Economic_Base
		}
		x = 6
		y = 3
		completion_reward = {
			add_political_power = -50
			set_temp_variable = {
				money_to_gain = -200
			}
			add_money_with_inflation_included_with_tooltip_effect = yes
			GER = {
				random_owned_controlled_state = {
					add_building_construction = {
						type = arms_factory
						level = 1
						instant_build = yes
					}
					add_extra_state_shared_building_slots = 1
				}
				random_owned_controlled_state = {
					add_building_construction = {
						type = arms_factory
						level = 1
						instant_build = yes
					}
					add_extra_state_shared_building_slots = 1
				}
			}
		}
		relative_position_id = GER_Chancellor_Hitler
	}
	focus = {
		id = GER_Build_up_the_Economic_Base
		icon = GFX_GER_Blood_and_Soil
		cost = 30
		prerequisite = {
			focus = GER_Reichsautobahn
		}
		prerequisite = {
			focus = GER_Privatizations_and_Austerity
		}
		prerequisite = {
			focus = GER_Issue_MEFO_Bills
		}
		mutually_exclusive = {
			focus = GER_Commence_Rearmament
		}
		x = 8
		y = 3
		completion_reward = {
			add_political_power = -60
			set_temp_variable = {
				money_to_gain = -300
			}
			add_money_with_inflation_included_with_tooltip_effect = yes
			GER = {
				random_owned_controlled_state = {
					add_building_construction = {
						type = industrial_complex
						level = 1
						instant_build = yes
					}
					add_extra_state_shared_building_slots = 1
				}
				random_owned_controlled_state = {
					add_building_construction = {
						type = industrial_complex
						level = 1
						instant_build = yes
					}
					add_extra_state_shared_building_slots = 1
				}
			}
		}
		relative_position_id = GER_Chancellor_Hitler
	}
	focus = {
		id = GER_Deal_with_IG_Farben
		icon = GFX_GER_IG_Farben
		cost = 10
		prerequisite = {
			focus = GER_The_Economic_Recovery_Policy
		}
		x = 9
		y = 2
		completion_reward = {
			country_event = {
				id = GER_IG_Farben.1
			}
		}
		relative_position_id = GER_Chancellor_Hitler
	}
	focus = {
		id = GER_Deutsche_Arbeitsfront
		icon = GFX_GER_Deutsche_Arbeitsfront
		cost = 10
		prerequisite = {
			focus = GER_The_Economic_Recovery_Policy
		}
		x = 13
		y = 2
		available = {
			has_country_flag = GER_National_Labor_Day
		}
		completion_reward = {
			news_event = {
				id = GER_DAF.2
				hours = 6
			}
			custom_effect_tooltip = available_political_advisor
			show_ideas_tooltip = GER_AM_Robert_Ley
		}
		relative_position_id = GER_Chancellor_Hitler
	}
	focus = {
		id = GER_Kraft_durch_Freude
		icon = GFX_GER_Kraft_durch_Freude
		cost = 30
		prerequisite = {
			focus = GER_Deutsche_Arbeitsfront
		}
		prerequisite = {
			focus = GER_Reichsautobahn
		}
		x = 10
		y = 3
		completion_reward = {
			set_temp_variable = {
				unemployment_value = -0.055
			}
			add_unemployment_effect = yes
			add_popularity = {
				ideology = fascist
				popularity = 0.05
			}
			news_event = {
				id = GER_Kraft_durch_Freude.1
			}
		}
		relative_position_id = GER_Chancellor_Hitler
	}
	focus = {
		id = GER_Volkswohlfahrt
		icon = GFX_GER_Volkswohlfahrt
		cost = 30
		prerequisite = {
			focus = GER_Deutsche_Arbeitsfront
		}
		x = 12
		y = 3
		completion_reward = {
			swap_ideas = {
				add_idea = GER_Welfare_For_The_German_People
				remove_idea = GER_Deutsche_Arbeitsfront
			}
		}
		relative_position_id = GER_Chancellor_Hitler
	}
	focus = {
		id = GER_Follow_the_Reichsbank
		icon = GFX_GER_Hire_Leading_Economists
		cost = 56
		prerequisite = {
			focus = GER_Build_up_the_Economic_Base
			focus = GER_Commence_Rearmament
		}
		prerequisite = {
			focus = GER_Kraft_durch_Freude
		}
		prerequisite = {
			focus = GER_Volkswohlfahrt
		}
		mutually_exclusive = {
			focus = GER_Politicize_Autarky
		}
		x = 11
		y = 4
		completion_reward = {
			set_country_flag = GER_Technocrats_Flag
			custom_effect_tooltip = GER_Follow_the_Reichsbank_tt
			hidden_effect = {
				add_ideas = GER_Economic_Liberalization
				country_event = {
					id = GER_Economy.2
					hours = 6
				}
			}
			add_ideas = mixed_economy
		}
		relative_position_id = GER_Chancellor_Hitler
	}
	focus = {
		id = GER_Politicize_Autarky
		icon = GFX_GER_Politicize_Autarky
		cost = 70
		prerequisite = {
			focus = GER_Commence_Rearmament
			focus = GER_Build_up_the_Economic_Base
		}
		prerequisite = {
			focus = GER_Kraft_durch_Freude
		}
		prerequisite = {
			focus = GER_Volkswohlfahrt
		}
		mutually_exclusive = {
			focus = GER_Follow_the_Reichsbank
		}
		x = 7
		y = 4
		completion_reward = {
			set_country_flag = GER_Autarky_Flag
			custom_effect_tooltip = GER_Politicize_Autarky_tt
			hidden_effect = {
				country_event = {
					id = GER_Economy.1
					hours = 6
				}
			}
		}
		relative_position_id = GER_Chancellor_Hitler
	}
	focus = {
		id = GER_Coal_Liquefaction
		icon = GFX_GER_Coal_Liquefaction
		cost = 70
		prerequisite = {
			focus = GER_Politicize_Autarky
			focus = GER_Follow_the_Reichsbank
		}
		x = 9
		y = 5
		available = {
			set_temp_variable = {
				amount_of_money_to_check = 400
			}
			has_specific_amount_of_money_with_inflation_included = yes
		}
		completion_reward = {
			set_temp_variable = {
				money_to_gain = -400
			}
			add_money_with_inflation_included_with_tooltip_effect = yes
			62 = {
				add_extra_state_shared_building_slots = 2
				add_building_construction = {
					type = synthetic_refinery
					level = 2
					instant_build = yes
				}
			}
			add_tech_bonus = {
				name = synth_tech_bonus
				bonus = 1
				uses = 1
				category = synth_resources
			}
			modify_building_resources = {
				building = synthetic_refinery
				resource = oil
				amount = 1
			}
		}
		relative_position_id = GER_Chancellor_Hitler
	}
	focus = {
		id = GER_Reposition_the_Reichsmark
		icon = GFX_GER_Reposition_the_Reichsmark
		cost = 56
		prerequisite = {
			focus = GER_Follow_the_Reichsbank
		}
		x = 11
		y = 5
		completion_reward = {
			set_temp_variable = {
				unemployment_value = -0.07
			}
			add_unemployment_effect = yes
			swap_ideas = {
				remove_idea = GER_Economic_Liberalization
				add_idea = GER_Economic_Liberalization_1
			}
		}
		relative_position_id = GER_Chancellor_Hitler
	}
	focus = {
		id = GER_The_Foreign_Offices_Deals
		icon = GFX_GER_The_Foreign_Offices_Deals
		cost = 56
		prerequisite = {
			focus = GER_Reposition_the_Reichsmark
		}
		x = 10
		y = 6
		completion_reward = {
			set_temp_variable = {
				unemployment_value = -0.05
			}
			add_unemployment_effect = yes
		}
		relative_position_id = GER_Chancellor_Hitler
	}
	focus = {
		id = GER_Drive_Industrial_Conglomerates
		icon = GFX_GER_Synchretic_Economics
		cost = 56
		prerequisite = {
			focus = GER_Reposition_the_Reichsmark
		}
		x = 12
		y = 6
		completion_reward = {
			set_temp_variable = {
				unemployment_value = -0.05
			}
			add_unemployment_effect = yes
			64 = {
				add_extra_state_shared_building_slots = 2
				add_building_construction = {
					type = industrial_complex
					level = 2
					instant_build = yes
				}
			}
			52 = {
				add_extra_state_shared_building_slots = 2
				add_building_construction = {
					type = industrial_complex
					level = 2
					instant_build = yes
				}
			}
		}
		relative_position_id = GER_Chancellor_Hitler
	}
	focus = {
		id = GER_Give_in_to_Hitlers_Demands
		icon = GFX_GER_NSDAP
		cost = 10
		prerequisite = {
			focus = GER_Drive_Industrial_Conglomerates
			focus = GER_The_Foreign_Offices_Deals
		}
		mutually_exclusive = {
			focus = GER_Limited_Military_Spending
		}
		x = 12
		y = 7
		completion_reward = {
			add_political_power = -50
			add_stability = -0.05
			swap_ideas = {
				remove_idea = GER_Economic_Liberalization_1
				add_idea = GER_Economic_Liberalization_3
			}
			if = {
				limit = {
					has_idea = partial_economic_mobilisation
				}
				swap_ideas = {
					remove_idea = partial_economic_mobilisation
					add_idea = war_economy
				}
			}
			if = {
				limit = {
					has_idea = low_economic_mobilisation
				}
				swap_ideas = {
					remove_idea = low_economic_mobilisation
					add_idea = war_economy
				}
			}
			if = {
				limit = {
					has_idea = civilian_economy
				}
				swap_ideas = {
					remove_idea = civilian_economy
					add_idea = war_economy
				}
			}
			if = {
				limit = {
					has_idea = war_economy
				}
				add_political_power = 150
			}
			if = {
				limit = {
					has_idea = tot_economic_mobilisation
				}
				add_political_power = 150
			}
		}
		relative_position_id = GER_Chancellor_Hitler
	}
	focus = {
		id = GER_Establish_the_Wehrmacht
		icon = GFX_GER_Wehrmacht
		cost = 0
		prerequisite = {
			focus = GER_Reichswehr
		}
		prerequisite = {
			focus = GER_Reichsmarine
		}
		prerequisite = {
			focus = GER_Reichsluftfahrtministerium
		}
		x = 2
		y = 1
		available = {
			has_army_manpower = {
				size > 199999
			}
		}
		completion_reward = {
			custom_effect_tooltip = GER_Establish_the_Wehrmacht_tt2
			add_ideas = {
				GER_Great_General_Staff
			}
			hidden_effect = {
				if = {
					limit = {
						has_idea = GER_AM_Werner_von_Blomberg
					}
					add_ideas = GER_AM_Werner_von_Blomberg_2
				}
				if = {
					limit = {
						has_idea = GER_CoStaff_Werner_von_Blomberg
					}
					add_ideas = GER_CoStaff_Werner_von_Blomberg_2
				}
				set_temp_variable = {
					reichswehr_influence = 0
				}
				set_temp_variable = {
					reichswehr_loyalty = 0
				}
				if = {
					limit = {
						set_temp_variable = {
							faction_id = 18
						}
						has_active_faction = yes
					}
					set_temp_variable = {
						reichswehr_influence = faction_influence_18
					}
					set_temp_variable = {
						reichswehr_loyalty = faction_loyalty_18
					}
				}
				set_temp_variable = {
					force_remove_active_faction_tooltip = 1
				}
				set_temp_variable = {
					faction_id = 18
				}
				remove_active_faction = yes
				set_temp_variable = {
					force_add_active_faction_tooltip = 1
				}
				set_temp_variable = {
					faction_id = 19
				}
				add_active_faction = yes
				if = {
					limit = {
						check_variable = {
							reichswehr_influence > 0
						}
					}
					set_temp_variable = {
						force_change_faction_influence_tooltip = 1
					}
					set_temp_variable = {
						faction_id = 19
					}
					set_temp_variable = {
						influence_to_add = reichswehr_influence
					}
					change_faction_influence = yes
				}
				if = {
					limit = {
						check_variable = {
							reichswehr_loyalty > 0
						}
					}
					set_temp_variable = {
						force_change_faction_loyalty_tooltip = 1
					}
					set_temp_variable = {
						faction_id = 19
					}
					set_temp_variable = {
						loyalty_to_add = reichswehr_loyalty
					}
					change_faction_loyalty = yes
				}
			}
		}
		relative_position_id = GER_Reichsluftfahrtministerium
	}
	focus = {
		id = GER_Luftwaffe
		icon = GFX_GER_Luftwaffe
		cost = 60
		available = {
			has_completed_focus = GER_Renounce_the_Disarmament_Clauses
		}
		prerequisite = {
			focus = GER_Establish_the_Wehrmacht
		}
		x = 28
		y = 2
		completion_reward = {
			air_experience = 25
			custom_effect_tooltip = GER_Luftwaffe_tt
			add_ideas = GER_CoAir_Hermann_Goring
			### TODO: Unlock GER_CoAir_Albert_Kesselring
			create_corps_commander = {
				name = "Albert Kesselring"
				id = 104025
				GFX = GFX_M_Albert_Kesselring
				traits = {
					brilliant_strategist
					trait_cautious
					war_hero
				}
				skill = 4
				attack_skill = 2
				defense_skill = 4
				planning_skill = 3
				logistics_skill = 4
			}
			add_tech_bonus = {
				uses = 1
				bonus = 1
				category = air_doctrine
			}
		}
	}
	focus = {
		id = GER_Fallschirmtruppen
		icon = GFX_GER_Fallschrimjager
		cost = 35
		prerequisite = {
			focus = GER_Luftwaffe
		}
		x = -3
		y = 1
		completion_reward = {
			hidden_effect = {
				load_oob = GER_Fallschirmtruppen
			}
			custom_effect_tooltip = GER_Fallschirmtruppen_tt
			create_corps_commander = {
				name = "Kurt Student"
				GFX = GFX_M_Kurt_Student
				traits = {
					commando
					paratrooper
					trait_reckless
				}
				skill = 4
				id = 16
				attack_skill = 4
				defense_skill = 2
				planning_skill = 4
				logistics_skill = 3
			}
			create_corps_commander = {
				name = "Eugen Meindl"
				GFX = GFX_M_Eugen_Meindl
				traits = {
					commando
					paratrooper
					trait_reckless
				}
				skill = 2
				id = 104032
				attack_skill = 3
				defense_skill = 1
				planning_skill = 2
				logistics_skill = 2
			}
			add_tech_bonus = {
				name = GER_Fallschirmtruppen
				bonus = 1
				uses = 1
				category = para_tech
			}
		}
		relative_position_id = GER_Luftwaffe
	}
	focus = {
		id = GER_Frontlinienflieger
		icon = GFX_GER_Frontline_Flight
		cost = 56
		prerequisite = {
			focus = GER_Luftwaffe
		}
		mutually_exclusive = {
			focus = GER_Strategischerflieger
		}
		x = -1
		y = 1
		ai_will_do = {
			factor = 0.25
		}
		available_if_capitulated = yes
		available = {
			NOT = {
				has_tech = air_superiority
			}
		}
		completion_reward = {
			add_tech_bonus = {
				name = GER_Frontlinienflieger
				uses = 1
				bonus = 0.75
				technology = Attacker_1936
				technology = Tactical_Bomber_1936
			}
			add_tech_bonus = {
				name = GER_Frontlinienflieger
				uses = 2
				bonus = 1
				category = cat_battlefield_support
				category = cat_operational_integrity
			}
		}
		relative_position_id = GER_Luftwaffe
	}
	focus = {
		id = GER_Panzerknacker
		icon = GFX_goal_generic_air_fighter
		cost = 30
		prerequisite = {
			focus = GER_Frontlinienflieger
		}
		x = -2
		y = 2
		available = {
			has_tech = Attacker_1936
			has_equipment = {
				Attacker_equipment > 499
			}
		}
		completion_reward = {
			add_tech_bonus = {
				name = GER_Panzerknacker
				uses = 1
				ahead_reduction = 0.5
				bonus = 1
				technology = Attacker_1940
				technology = cv_Attacker_1940
				technology = Attacker_1943
				technology = cv_Attacker_1943
			}
			add_tech_bonus = {
				name = GER_Panzerknacker
				uses = 1
				bonus = 1
				category = air_doctrine
			}
		}
		relative_position_id = GER_Luftwaffe
	}
	focus = {
		id = GER_Strategischerflieger
		icon = GFX_GER_Strategic_Flight
		cost = 56
		prerequisite = {
			focus = GER_Luftwaffe
		}
		mutually_exclusive = {
			focus = GER_Frontlinienflieger
		}
		x = 1
		y = 1
		ai_will_do = {
			factor = 1
		}
		available_if_capitulated = yes
		available = {
			NOT = {
				has_tech = formation_flying
			}
		}
		completion_reward = {
			add_tech_bonus = {
				name = GER_Strategischerflieger
				uses = 1
				bonus = 1
				technology = Strategic_Bomber_1936
				technology = Tactical_Bomber_1936
			}
			add_tech_bonus = {
				name = GER_Strategischerflieger
				uses = 1
				bonus = 1
				category = cat_strategic_destruction
				category = cat_operational_integrity
			}
		}
		relative_position_id = GER_Luftwaffe
	}
	focus = {
		id = GER_Expand_the_Jadgwaffe
		icon = GFX_GER_BF109
		cost = 75
		prerequisite = {
			focus = GER_Frontlinienflieger
			focus = GER_Strategischerflieger
		}
		x = 0
		y = 2
		available = {
			OR = {
				has_equipment = {
					fighter_equipment > 999
				}
				has_equipment = {
					interceptor_equipment > 999
				}
			}
		}
		completion_reward = {
			add_tech_bonus = {
				name = GER_Expand_the_Jadgwaffe
				uses = 1
				bonus = 1
				category = light_fighter
			}
			add_tech_bonus = {
				name = GER_Expand_the_Jadgwaffe
				uses = 1
				bonus = 1
				category = air_doctrine
			}
		}
		relative_position_id = GER_Luftwaffe
	}
	focus = {
		id = GER_Jet_Engines
		icon = GFX_GER_Dusenprojekt
		cost = 60
		prerequisite = {
			focus = GER_Expand_the_Jadgwaffe
		}
		x = 0
		y = 3
		ai_will_do = {
			factor = 1
		}
		available_if_capitulated = yes
		completion_reward = {
			add_tech_bonus = {
				name = GER_Jet_Engines
				uses = 1
				bonus = 1
				ahead_reduction = 2
				category = jet_technology
			}
		}
		relative_position_id = GER_Luftwaffe
	}
	focus = {
		id = GER_Volksjager
		icon = GFX_GER_Volksjager
		cost = 70
		prerequisite = {
			focus = GER_Jet_Engines
		}
		x = -1
		y = 5
		available = {
			OR = {
				AND = {
					has_tech = Fighter_1943
					has_equipment = {
						Fighter_equipment_1943 > 249
					}
				}
				AND = {
					has_tech = Fighter_Bomber_1943
					has_equipment = {
						Fighter_Bomber_equipment_1943 > 249
					}
				}
			}
		}
		completion_reward = {
			add_tech_bonus = {
				name = GER_Volksjager
				uses = 1
				bonus = 2
				ahead_reduction = 2
				technology = Fighter_1945
				technology = Fighter_Bomber_1945
			}
			add_tech_bonus = {
				name = GER_Volksjager
				uses = 1
				bonus = 1
				category = air_doctrine
			}
		}
		relative_position_id = GER_Luftwaffe
	}
	focus = {
		id = GER_Blitzbomber
		icon = GFX_GER_Blitzbomber
		cost = 65
		prerequisite = {
			focus = GER_Jet_Engines
		}
		x = 1
		y = 5
		available = {
		}
		bypass = {
			has_tech = Tactical_Bomber_1950
		}
		completion_reward = {
			add_tech_bonus = {
				name = GER_Blitzbomber
				bonus = 2
				uses = 1
				technology = Tactical_Bomber_1945
				technology = Tactical_Bomber_1950
			}
			add_tech_bonus = {
				name = GER_Blitzbomber
				uses = 1
				bonus = 1
				category = air_doctrine
			}
		}
		relative_position_id = GER_Luftwaffe
	}
	focus = {
		id = GER_Vergeltungswaffen
		icon = GFX_GER_Vergeltungswaffen
		cost = 60
		prerequisite = {
			focus = GER_Jet_Engines
		}
		x = 2
		y = 4
		completion_reward = {
			add_tech_bonus = {
				name = GER_Vergeltungswaffen
				uses = 2
				bonus = 2
				category = rocketry
			}
		}
		relative_position_id = GER_Luftwaffe
	}
	focus = {
		id = GER_Amerika_Bomber
		icon = GFX_GER_Amerika_Bomber
		cost = 56
		prerequisite = {
			focus = GER_Strategischerflieger
		}
		x = 2
		y = 2
		available = {
			has_tech = Strategic_Bomber_1940
			has_equipment = {
				strat_bomber_equipment > 99
			}
		}
		completion_reward = {
			add_tech_bonus = {
				name = GER_Amerika_Bomber
				uses = 1
				bonus = 2
				ahead_reduction = 1
				technology = Strategic_Bomber_1943
				technology = Strategic_Bomber_1945
				technology = Strategic_Bomber_1950
			}
		}
		relative_position_id = GER_Luftwaffe
	}
	focus = {
		id = GER_Heer
		icon = GFX_GER_Heer
		cost = 60
		available = {
			has_completed_focus = GER_Renounce_the_Disarmament_Clauses
		}
		prerequisite = {
			focus = GER_Establish_the_Wehrmacht
		}
		x = 35
		y = 2
		completion_reward = {
			army_experience = 15
			random_army_leader = {
				limit = {
					has_id = 104005
				}
				# Werner von Blomberg
				promote_leader = yes
			}
			country_event = {
				id = GER_Heer.1
			}
		}
	}
	focus = {
		id = GER_Panzertruppen
		icon = GFX_GER_Panzertruppen
		cost = 40
		prerequisite = {
			focus = GER_Heer
		}
		x = 0
		y = 1
		available = {
			has_tech = Light_Tank_1934
		}
		completion_reward = {
			hidden_effect = {
				load_oob = GER_Panzertruppen
			}
			custom_effect_tooltip = GER_Panzertruppen_tt
			add_tech_bonus = {
				name = GER_Panzertruppen
				bonus = 1.5
				ahead_reduction = 1
				uses = 2
				technology = Light_Tank_1936
				technology = Medium_Tank_1939
			}
		}
		relative_position_id = GER_Heer
	}
	focus = {
		id = GER_Motorization_Campaign
		icon = GFX_goal_generic_army_motorized
		cost = 50
		prerequisite = {
			focus = GER_Heer
		}
		x = -2
		y = 1
		ai_will_do = {
			factor = 1
		}
		available_if_capitulated = yes
		available = {
			has_tech = Motorized_1932
		}
		completion_reward = {
			add_tech_bonus = {
				name = GER_Panzertruppen
				bonus = 1.5
				ahead_reduction = 1
				uses = 2
				technology = Motorized_1938
			}
			add_equipment_to_stockpile = {
				type = Motorized_equipment
				amount = 50
				producer = GER
			}
		}
		relative_position_id = GER_Heer
	}
	focus = {
		id = GER_Increasing_The_Attack_Power
		icon = GFX_GER_Panzerjager
		cost = 5
		prerequisite = {
			focus = GER_Heer
		}
		x = 2
		y = 1
		completion_reward = {
			add_tech_bonus = {
				name = GER_Increasing_The_Attack_Power
				uses = 2
				bonus = 1
				technology = Medium_TD_1939
				technology = Light_TD_1942
			}
		}
		relative_position_id = GER_Heer
	}
	focus = {
		id = GER_Bewegungskrieg
		icon = GFX_GENERIC_Mobile_Warfare
		cost = 54
		prerequisite = {
			focus = GER_Panzertruppen
		}
		prerequisite = {
			focus = GER_Motorization_Campaign
		}
		prerequisite = {
			focus = GER_Increasing_The_Attack_Power
		}
		x = 0
		y = 2
		available = {
			has_completed_focus = GER_Luftwaffe
		}
		completion_reward = {
			create_corps_commander = {
				name = "Heinz Guderian"
				id = 104033
				GFX = GFX_M_Heinz_Guderian
				traits = {
					trickster
					brilliant_strategist
					panzer_leader
					armor_officer
					career_officer
				}
				skill = 4
				attack_skill = 2
				defense_skill = 4
				planning_skill = 4
				logistics_skill = 3
			}
			# Fedor von Bock
			random_army_leader = {
				limit = {
					has_id = 104012
				}
				promote_leader = yes
			}
			# Albert Kesselring
			random_army_leader = {
				limit = {
					has_id = 104025
				}
				promote_leader = yes
			}
			# Günther von Kluge
			random_army_leader = {
				limit = {
					has_id = 104008
				}
				promote_leader = yes
			}
			# Wilhelm Ritter von Leeb
			random_army_leader = {
				limit = {
					has_id = 104014
				}
				promote_leader = yes
			}
			# Wilhelm List
			random_army_leader = {
				limit = {
					has_id = 104010
				}
				promote_leader = yes
			}
			# random_army_leader = {
			# 	limit = { has_id = 104012 } # Walther von Reichenau
			# 	promote_leader = yes
			# }
			# random_army_leader = {
			# 	limit = { has_id = 104012 } # Eduard von Böhm-Ermolli
			# 	promote_leader = yes
			# }
			# Gerd von Rundstedt
			random_army_leader = {
				limit = {
					has_id = 104007
				}
				promote_leader = yes
			}
			# Grwin von Witzleben
			random_army_leader = {
				limit = {
					has_id = 104017
				}
				promote_leader = yes
			}
			add_tech_bonus = {
				name = GER_Bewegungskrieg
				uses = 2
				bonus = 1
				ahead_reduction = 1
				category = cat_mobile_warfare
			}
		}
		relative_position_id = GER_Heer
	}
	focus = {
		id = GER_Panzergrenadiers
		icon = GFX_GER_Mechanized_Infantry
		cost = 50
		prerequisite = {
			focus = GER_Bewegungskrieg
		}
		mutually_exclusive = {
			focus = GER_Panzerkorps
		}
		x = -2
		y = 3
		completion_reward = {
			army_experience = 15
			add_tech_bonus = {
				name = GER_Panzergrenadiers
				bonus = 0.75
				uses = 2
				technology = APC_1941
				technology = APC_1943
			}
		}
		relative_position_id = GER_Heer
	}
	focus = {
		id = GER_Mass_Mechanization
		icon = GFX_GENERIC_Mechanization
		cost = 60
		prerequisite = {
			focus = GER_Panzergrenadiers
		}
		x = -3
		y = 4
		completion_reward = {
			add_tech_bonus = {
				name = GER_Mass_Mechanization
				uses = 1
				bonus = 1
				category = cat_mechanized_equipment
			}
		}
		relative_position_id = GER_Heer
	}
	focus = {
		id = GER_Panzerkorps
		icon = GFX_GER_Panzerkorps
		cost = 50
		prerequisite = {
			focus = GER_Bewegungskrieg
		}
		mutually_exclusive = {
			focus = GER_Panzergrenadiers
		}
		x = 2
		y = 3
		completion_reward = {
			army_experience = 15
			add_tech_bonus = {
				name = GER_Panzerkorps
				bonus = 1
				uses = 1
				technology = Light_Tank_1939
				technology = Medium_Tank_1941
			}
			add_tech_bonus = {
				name = GER_Panzerkorps
				bonus = 1
				uses = 1
				ahead_reduction = 1
				technology = Armored_Schwerpunkt
			}
		}
		relative_position_id = GER_Heer
	}
	focus = {
		id = GER_Perfektionierte_Mittlere_Panzer
		icon = GFX_GER_Panther_Panzer
		cost = 50
		prerequisite = {
			focus = GER_Panzergrenadiers
			focus = GER_Panzerkorps
		}
		x = 1
		y = 4
		available = {
			has_war = yes
		}
		completion_reward = {
			add_tech_bonus = {
				name = GER_Perfektionierte_Mittlere_Panzer
				uses = 2
				bonus = 1
				technology = Medium_Tank_1943
				technology = Medium_Tank_1945
			}
		}
		relative_position_id = GER_Heer
	}
	focus = {
		id = GER_Mobile_Support_Units
		icon = GFX_GER_Mobile_Artillery
		cost = 30
		prerequisite = {
			focus = GER_Panzergrenadiers
			focus = GER_Panzerkorps
		}
		x = -1
		y = 4
		completion_reward = {
			add_tech_bonus = {
				name = GER_Mobile_Support_Units
				uses = 2
				bonus = 1
				category = mot_rockets
			}
		}
		relative_position_id = GER_Heer
	}
	focus = {
		id = GER_Schwere_Panzer_Entwicklung
		icon = GFX_GER_Schwerer_Panzer
		cost = 60
		prerequisite = {
			focus = GER_Panzerkorps
		}
		x = 3
		y = 4
		available = {
			has_war = yes
		}
		completion_reward = {
			add_tech_bonus = {
				name = GER_Schwere_Panzer_Entwicklung
				uses = 2
				bonus = 1
				technology = Heavy_Tank_1941
				technology = Heavy_Tank_1943
				technology = Heavy_Tank_1945
			}
		}
		relative_position_id = GER_Heer
	}
	focus = {
		id = GER_Standardpanzer_Programm
		icon = GFX_GER_Standardpanzer
		cost = 140
		prerequisite = {
			focus = GER_Perfektionierte_Mittlere_Panzer
			focus = GER_Schwere_Panzer_Entwicklung
		}
		x = 2
		y = 5
		completion_reward = {
			add_ideas = GER_Standard_Panzer
		}
		relative_position_id = GER_Heer
	}
	focus = {
		id = GER_Kriegsmarine
		icon = GFX_GER_Kriegsmarine
		cost = 21
		available = {
			has_completed_focus = GER_Renounce_the_Disarmament_Clauses
		}
		prerequisite = {
			focus = GER_Establish_the_Wehrmacht
		}
		x = 43
		y = 2
		completion_reward = {
			navy_experience = 15
			custom_effect_tooltip = GER_Kriegsmarine_tt
			hidden_effect = {
				add_ideas = GER_CoNavy_Erich_Raeder_2
			}
		}
	}
	focus = {
		id = GER_ENIGMA
		icon = GFX_goal_generic_radar
		cost = 15
		prerequisite = {
			focus = GER_Kriegsmarine
		}
		x = -4
		y = 1
		completion_reward = {
			add_tech_bonus = {
				name = GER_ENIGMA
				uses = 2
				bonus = 1
				category = encryption_tech
			}
		}
		relative_position_id = GER_Kriegsmarine
	}
	focus = {
		id = GER_Plankalkul
		icon = GFX_GER_Plankalkul
		cost = 40
		prerequisite = {
			focus = GER_ENIGMA
		}
		x = -4
		y = 2
		completion_reward = {
			add_tech_bonus = {
				name = GER_Plankalkul
				bonus = 1
				uses = 1
				category = decryption_tech
			}
			add_tech_bonus = {
				name = GER_Plankalkul
				bonus = 1
				uses = 1
				ahead_reduction = 1
				technology = computing_6
			}
		}
		relative_position_id = GER_Kriegsmarine
	}
	focus = {
		id = GER_Donitz_UBoot_Fleet
		icon = GFX_GER_Donitz_UBoot_Fleet
		cost = 56
		prerequisite = {
			focus = GER_Kriegsmarine
		}
		mutually_exclusive = {
			focus = GER_Raeders_Surface_Raiders
		}
		x = -1
		y = 1
		completion_reward = {
			custom_effect_tooltip = GER_Donitz_UBoot_Fleet_tt
			show_ideas_tooltip = GER_CoNavy_Karl_Donitz
			hidden_effect = {
				add_ideas = GER_CoNavy_Karl_Donitz
			}
			add_tech_bonus = {
				name = GER_Donitz_UBoot_Fleet
				uses = 2
				bonus = 1
				category = ss_tech
			}
			add_tech_bonus = {
				uses = 3
				name = GER_Donitz_UBoot_Fleet
				bonus = -0.5
				category = bc_tech
				category = bb_tech
				category = cv_tech
			}
			add_tech_bonus = {
				name = GER_Donitz_UBoot_Fleet
				bonus = 1
				uses = 2
				technology = submarine_operations
				technology = undersea_blockade
				technology = convoy_interdiction
				technology = submarine_offensive
				category = trade_interdiction_tree
			}
		}
		relative_position_id = GER_Kriegsmarine
	}
	focus = {
		id = GER_UBoot_Cruisers
		icon = GFX_GENERIC_Heavy_Submarine
		cost = 56
		prerequisite = {
			focus = GER_Donitz_UBoot_Fleet
		}
		x = -2
		y = 2
		bypass = {
			has_tech = HSS_1940
		}
		completion_reward = {
			custom_effect_tooltip = GER_UBoot_Cruisers_tt
			hidden_effect = {
				set_technology = {
					HSS_1933 = 1
				}
			}
			add_tech_bonus = {
				name = GER_UBoot_Cruisers
				bonus = 1
				uses = 1
				technology = HSS_1940
				technology = SHSS_1945
			}
		}
		relative_position_id = GER_Kriegsmarine
	}
	focus = {
		id = GER_Raeders_Surface_Raiders
		icon = GFX_GER_Raeders_Surface_Raiders
		cost = 56
		prerequisite = {
			focus = GER_Kriegsmarine
		}
		mutually_exclusive = {
			focus = GER_Donitz_UBoot_Fleet
		}
		x = 1
		y = 1
		completion_reward = {
			custom_effect_tooltip = GER_Raeders_Surface_Raiders_tt
			show_ideas_tooltip = GER_CoNavy_Erich_Raeder
			hidden_effect = {
				add_ideas = GER_CoNavy_Erich_Raeder
			}
			add_tech_bonus = {
				name = GER_Raeders_Surface_Raiders
				uses = 2
				bonus = 1
				category = bc_tech
				category = bb_tech
				category = cv_tech
			}
			add_tech_bonus = {
				name = GER_Raeders_Surface_Raiders
				bonus = 1
				uses = 2
				category = trade_interdiction_tree
			}
		}
		relative_position_id = GER_Kriegsmarine
	}
	focus = {
		id = GER_Plan_Z
		icon = GFX_GER_Plan_Z
		cost = 60
		prerequisite = {
			focus = GER_Donitz_UBoot_Fleet
			focus = GER_Raeders_Surface_Raiders
		}
		x = 0
		y = 2
		ai_will_do = {
			factor = 0.25
		}
		available_if_capitulated = no
		completion_reward = {
			custom_effect_tooltip = GER_Plan_Z_tt
			hidden_effect = {
				country_event = {
					id = GER_Kriegsmarine.1
					hours = 6
				}
			}
		}
		relative_position_id = GER_Kriegsmarine
	}
	focus = {
		id = GER_UBoot_Kriegskonzepte
		icon = GFX_GENERIC_Trade_Interdiction
		cost = 60
		prerequisite = {
			focus = GER_Plan_Z
		}
		mutually_exclusive = {
			focus = GER_Kreuzer_Kriegskonzepte
		}
		x = -1
		y = 3
		completion_reward = {
			custom_effect_tooltip = GER_UBoot_Kriegskonzepte_tt
			add_ideas = GER_CoNavy_Karl_Donitz
			add_tech_bonus = {
				name = GER_UBoot_Kriegskonzepte
				uses = 2
				bonus = 1
				category = ss_tech
			}
			add_tech_bonus = {
				name = GER_UBoot_Kriegskonzepte
				bonus = 0.5
				uses = 2
				category = trade_interdiction_tree
			}
		}
		relative_position_id = GER_Kriegsmarine
	}
	focus = {
		id = GER_Elektroboot
		icon = GFX_GER_UBoot_Bunker
		cost = 60
		prerequisite = {
			focus = GER_UBoot_Kriegskonzepte
		}
		x = -3
		y = 4
		ai_will_do = {
			factor = 1
		}
		available = {
			has_tech = SS_1940
		}
		available_if_capitulated = yes
		completion_reward = {
			add_ideas = GER_Elektroboot
		}
		relative_position_id = GER_Kriegsmarine
	}
	focus = {
		id = GER_UBoot_Buildup
		icon = GFX_GENERIC_Submarine
		cost = 50
		prerequisite = {
			focus = GER_UBoot_Kriegskonzepte
		}
		x = -1
		y = 4
		completion_reward = {
			add_timed_idea = {
				idea = GER_uboat_buildup
				days = 365
			}
		}
		relative_position_id = GER_Kriegsmarine
	}
	focus = {
		id = GER_Kreuzer_Kriegskonzepte
		icon = GFX_focus_generic_navy_battleship2
		cost = 60
		prerequisite = {
			focus = GER_Plan_Z
		}
		mutually_exclusive = {
			focus = GER_UBoot_Kriegskonzepte
		}
		x = 1
		y = 3
		completion_reward = {
			add_tech_bonus = {
				name = GER_Kreuzer_Kriegskonzepte
				bonus = 0.75
				uses = 2
				category = trade_interdiction_tree
			}
			add_tech_bonus = {
				name = GER_Kreuzer_Kriegskonzepte
				bonus = 0.75
				uses = 1
				category = ca_tech
			}
		}
		relative_position_id = GER_Kriegsmarine
	}
	focus = {
		id = GER_Grosskampfschiff_Buildup
		icon = GFX_GENERIC_Battleship
		cost = 56
		prerequisite = {
			focus = GER_Kreuzer_Kriegskonzepte
		}
		x = 1
		y = 4
		bypass = {
			has_tech = HSS_1940
		}
		completion_reward = {
			add_timed_idea = {
				idea = GER_grosskampfschiff_buildup
				days = 550
			}
		}
		relative_position_id = GER_Kriegsmarine
	}
	focus = {
		id = GER_Schlachtschiff_H
		icon = GFX_GENERIC_Fleet_in_Being
		cost = 10
		prerequisite = {
			focus = GER_Kreuzer_Kriegskonzepte
		}
		x = 3
		y = 4
		completion_reward = {
			add_tech_bonus = {
				name = GER_Schlachtschiff_H
				bonus = 1
				uses = 1
				technology = SHBB_1936
				technology = SHBB_1945
			}
		}
		relative_position_id = GER_Kriegsmarine
	}
	focus = {
		id = GER_Germanisierung
		icon = GFX_GER_Radical_Pan_Germanism
		cost = 70
		prerequisite = {
			focus = GER_Around_the_Maginot
			focus = GER_Rule_over_the_Danube
			focus = GER_Eye_to_The_East
		}
		x = -8
		y = 13
		available = {
			controls_state = 8
			controls_state = 28
			controls_state = 1169
		}
		completion_reward = {
			add_state_core = 8
			add_state_core = 28
			add_state_core = 1169
		}
		relative_position_id = GER_Chancellor_Hitler
	}
	focus = {
		id = GER_Ein_Volk_Ein_Reich_Ein_Fuhrer
		icon = GFX_GER_Ein_Volk_Ein_Reich_Ein_Fuhrer
		cost = 1
		prerequisite = {
			focus = GER_Reconstruct_the_Reich
		}
		x = 0
		y = 6
		available = {
			has_country_flag = GER_Hindenburg_Dead
		}
		completion_reward = {
			news_event = {
				id = GER_Death_of_Hindenburg.2
				hours = 6
			}
		}
		relative_position_id = GER_Chancellor_Hitler
	}
	focus = {
		id = GER_Enact_the_Nuremberg_Laws
		icon = GFX_GER_Racial_Laws
		cost = 60
		prerequisite = {
			focus = GER_Ein_Volk_Ein_Reich_Ein_Fuhrer
		}
		x = 0
		y = 7
		select_effect = {
			news_event = {
				id = GER_Nuremburg.2
				days = 54
			}
		}
		completion_reward = {
			custom_effect_tooltip = GER_Enact_the_Nuremberg_Laws_tt
			hidden_effect = {
				news_event = {
					id = GER_Nuremburg.1
					hours = 6
				}
			}
		}
		relative_position_id = GER_Chancellor_Hitler
	}
	focus = {
		id = GER_Four_Year_Plan
		icon = GFX_GER_Goerings_Four_Year_Plan
		cost = 70
		prerequisite = {
			focus = GER_Politicize_Autarky
		}
		x = 7
		y = 5
		completion_reward = {
			set_temp_variable = {
				unemployment_value = -0.07
			}
			add_unemployment_effect = yes
			add_ideas = mixed_economy
			custom_effect_tooltip = GER_Four_Year_Plan_tt
		}
		relative_position_id = GER_Chancellor_Hitler
	}
	focus = {
		id = GER_Reichswerke_Hermann_Goering
		icon = GFX_GER_Reichswerke_Hermann_Goering
		cost = 42
		prerequisite = {
			focus = GER_Four_Year_Plan
		}
		x = 6
		y = 6
		available = {
		}
		completion_reward = {
			set_temp_variable = {
				unemployment_value = -0.04
			}
			add_unemployment_effect = yes
			set_variable = {
				GER_Reichswerke_local_resources_factor = 0
			}
			set_variable = {
				GER_Reichswerke_industrial_capacity_factory = 0
			}
			set_variable = {
				GER_Reichswerke_Upkeep_factor = 0
			}
			add_dynamic_modifier = {
				modifier = GER_Reichswerke_Hermann_Goering
			}
			unlock_decision_category_tooltip = GER_Reichswerke_category
		}
		relative_position_id = GER_Chancellor_Hitler
	}
	focus = {
		id = GER_Limited_Military_Spending
		icon = GFX_GENERIC_Military_Production
		cost = 10
		prerequisite = {
			focus = GER_The_Foreign_Offices_Deals
			focus = GER_Drive_Industrial_Conglomerates
		}
		mutually_exclusive = {
			focus = GER_Give_in_to_Hitlers_Demands
		}
		x = 10
		y = 7
		completion_reward = {
			add_political_power = 50
			swap_ideas = {
				remove_idea = GER_Economic_Liberalization_1
				add_idea = GER_Economic_Liberalization_2
			}
			swap_ideas = {
				remove_idea = social_market_economy
				add_idea = free_market_economy
			}
		}
		relative_position_id = GER_Chancellor_Hitler
	}
	focus = {
		id = GER_Oberkommando_Putsch
		icon = GFX_focus_ger_oppose_hitler
		cost = 24
		prerequisite = {
			focus = GER_Renounce_the_Disarmament_Clauses
		}
		prerequisite = {
			focus = GER_Enact_the_Nuremberg_Laws
		}
		mutually_exclusive = {
			focus = GER_Walk_in_the_Backyard
		}
		x = -1
		y = 8
		available = {
			always = no
		}
		relative_position_id = GER_Chancellor_Hitler
	}
	focus = {
		id = GER_Walk_in_the_Backyard
		icon = GFX_GER_Walk_in_the_Backyard
		cost = 49
		prerequisite = {
			focus = GER_Renounce_the_Disarmament_Clauses
		}
		prerequisite = {
			focus = GER_Enact_the_Nuremberg_Laws
		}
		prerequisite = {
			focus = GER_Seek_a_Naval_Agreement_with_Britain
		}
		prerequisite = {
			focus = GER_Enact_the_Nuremberg_Laws
		}
		mutually_exclusive = {
			focus = GER_Oberkommando_Putsch
		}
		x = 1
		y = 8
		available = {
			is_puppet = no
			controls_state = 806
			has_army_manpower = {
				size > 350000
			}
			42 = {
				is_demilitarized_zone = yes
			}
			51 = {
				is_demilitarized_zone = yes
			}
			806 = {
				is_demilitarized_zone = yes
			}
			807 = {
				is_demilitarized_zone = yes
			}
			808 = {
				is_demilitarized_zone = yes
			}
			809 = {
				is_demilitarized_zone = yes
			}
		}
		bypass = {
			42 = {
				is_demilitarized_zone = no
			}
			51 = {
				is_demilitarized_zone = no
			}
			806 = {
				is_demilitarized_zone = no
			}
			807 = {
				is_demilitarized_zone = no
			}
			808 = {
				is_demilitarized_zone = no
			}
			809 = {
				is_demilitarized_zone = no
			}
		}
		select_effect = {
			country_event = {
				id = GER_Rhineland.1
				hours = 12
			}
		}
		# Febuary 12th, 1936 for the meeting
		completion_reward = {
			set_country_flag = Remilitarize_the_Rhineland
			custom_effect_tooltip = GER_rhineland_ultimatum
		}
		relative_position_id = GER_Chancellor_Hitler
	}
	focus = {
		id = GER_Heim_ins_Reich
		icon = GFX_GER_Heim_Ins_Reich
		cost = 60
		prerequisite = {
			focus = GER_Hossbach_Memorandum
		}
		x = -8
		y = 10
		available = {
			has_army_manpower = {
				size > 600000
			}
		}
		select_effect = {
			if = {
				limit = {
					AUS = {
						exists = yes
						is_subject = no
					}
				}
				AUS = {
					country_event = {
						id = GER_Anschluss.1						# February 12th, 1938
						days = 6
					}
				}
			}
		}
		completion_reward = {
			custom_effect_tooltip = GER_Heim_ins_Reich_tt
			news_event = {
				id = GER_Anschluss.3
				hours = 6
			}
			add_ideas = interventionism
			add_ideas = GER_FM_Joachim_von_Ribbentrop
			unlock_decision_category_tooltip = GER_Heim_ins_Reich_category
		}
		relative_position_id = GER_Chancellor_Hitler
	}
	focus = {
		id = GER_Around_the_Maginot
		icon = GFX_GER_Around_the_Maginot
		cost = 30
		prerequisite = {
			focus = GER_End_of_Versailles
		}
		x = -9
		y = 12
		available = {
			has_war_with = FRA
			has_war_with = ENG
		}
		bypass = {
			AND = {
				OR = {
					BEL = {
						exists = no
					}
					BEL = {
						has_capitulated = yes
					}
					GER = {
						has_war_with = BEL
					}
				}
				OR = {
					HOL = {
						exists = no
					}
					HOL = {
						has_capitulated = yes
					}
					GER = {
						has_war_with = HOL
					}
				}
				OR = {
					LUX = {
						exists = no
					}
					LUX = {
						has_capitulated = yes
					}
					GER = {
						has_war_with = LUX
					}
				}
			}
		}
		will_lead_to_war_with = BEL
		will_lead_to_war_with = HOL
		will_lead_to_war_with = LUX
		will_lead_to_war_with = FRA
		completion_reward = {
			add_war_support = 0.05
			create_wargoal = {
				type = annex_everything
				target = BEL
			}
			create_wargoal = {
				type = annex_everything
				target = HOL
			}
			create_wargoal = {
				type = annex_everything
				target = LUX
			}
		}
		relative_position_id = GER_Chancellor_Hitler
	}
	focus = {
		id = GER_Secure_the_North
		icon = GFX_GER_Secure_the_North
		cost = 10
		prerequisite = {
			focus = GER_End_of_Versailles
		}
		x = -11
		y = 12
		available = {
			has_war_with = FRA
			has_war_with = ENG
		}
		bypass = {
			AND = {
				OR = {
					DEN = {
						exists = no
					}
					DEN = {
						has_capitulated = yes
					}
					GER = {
						has_war_with = DEN
					}
				}
				OR = {
					NOR = {
						exists = no
					}
					NOR = {
						has_capitulated = yes
					}
					GER = {
						has_war_with = NOR
					}
				}
			}
		}
		will_lead_to_war_with = DEN
		will_lead_to_war_with = NOR
		completion_reward = {
			add_war_support = 0.05
			create_wargoal = {
				type = annex_everything
				target = DEN
			}
			create_wargoal = {
				type = annex_everything
				target = NOR
			}
		}
		relative_position_id = GER_Chancellor_Hitler
	}
	focus = {
		id = GER_Rule_over_the_Danube
		icon = GFX_HUN_Irredentism_is_the_Way
		cost = 75
		prerequisite = {
			focus = GER_End_of_Versailles
		}
		x = -7
		y = 12
		completion_reward = {
			unlock_decision_category_tooltip = GER_Rule_over_the_Danube_category
			hidden_effect = {
				activate_targeted_decision = {
					target = HUN
					decision = GER_Establish_Landsgruppe
				}
				activate_targeted_decision = {
					target = YUG
					decision = GER_Establish_Landsgruppe
				}
				activate_targeted_decision = {
					target = BUL
					decision = GER_Establish_Landsgruppe
				}
				activate_targeted_decision = {
					target = ROM
					decision = GER_Establish_Landsgruppe
				}
				activate_targeted_decision = {
					target = HUN
					decision = GER_Increase_Trade
				}
				activate_targeted_decision = {
					target = YUG
					decision = GER_Increase_Trade
				}
				activate_targeted_decision = {
					target = BUL
					decision = GER_Increase_Trade
				}
				activate_targeted_decision = {
					target = ROM
					decision = GER_Increase_Trade
				}
				activate_targeted_decision = {
					target = HUN
					decision = GER_Expand_Ties
				}
				activate_targeted_decision = {
					target = YUG
					decision = GER_Expand_Ties
				}
				activate_targeted_decision = {
					target = BUL
					decision = GER_Expand_Ties
				}
				activate_targeted_decision = {
					target = ROM
					decision = GER_Expand_Ties
				}
			}
		}
		relative_position_id = GER_Chancellor_Hitler
	}
	focus = {
		id = GER_End_of_Versailles
		icon = GFX_GER_Germany_Could_No_Longer_Remain_Idle
		cost = 10
		prerequisite = {
			focus = GER_Reorganize_the_Oberkommando
		}
		prerequisite = {
			focus = GER_Heim_ins_Reich
		}
		prerequisite = {
			focus = GER_Reorganize_the_Abwehr
		}
		available = {
			has_army_manpower = {
				size > 750000
			}
		}
		x = -8
		y = 11
		completion_reward = {
			add_war_support = 0.1
			add_stability = -0.05
			add_ideas = warmonger
			unlock_decision_tooltip = GER_Danzig_or_War
		}
		relative_position_id = GER_Chancellor_Hitler
	}
	focus = {
		id = GER_Strong_Homefront
		icon = GFX_GER_Strong_Homefront
		cost = 15
		prerequisite = {
			focus = GER_Limited_Military_Spending
			focus = GER_Give_in_to_Hitlers_Demands
		}
		x = 11
		y = 8
		available = {
			has_war = no
		}
		completion_reward = {
			add_ideas = GER_Victory_on_the_home_front
		}
		relative_position_id = GER_Chancellor_Hitler
	}
	focus = {
		id = GER_Westwall
		icon = GFX_GER_Westwall
		cost = 56
		prerequisite = {
			focus = GER_Walk_in_the_Backyard
		}
		x = -3
		y = 9
		available = {
			controls_state = 807
			controls_state = 42
			controls_state = 806
		}
		completion_reward = {
			custom_effect_tooltip = GER_Westwall_tt
			807 = {
				add_building_construction = {
					type = bunker
					level = 2
					instant_build = yes
					province = 6712
				}
				add_building_construction = {
					type = bunker
					level = 2
					instant_build = yes
					province = 11640
				}
				add_building_construction = {
					type = bunker
					level = 2
					instant_build = yes
					province = 6542
				}
			}
			42 = {
				add_building_construction = {
					type = bunker
					level = 2
					instant_build = yes
					province = 3558
				}
				add_building_construction = {
					type = bunker
					level = 2
					instant_build = yes
					province = 563
				}
				add_building_construction = {
					type = bunker
					level = 2
					instant_build = yes
					province = 9575
				}
			}
			806 = {
				add_building_construction = {
					type = bunker
					level = 2
					instant_build = yes
					province = 11531
				}
			}
			unlock_decision_category_tooltip = GER_Westwall_category
			unlock_decision_tooltip = GER_Western_Air_Defense_Zone
			unlock_decision_tooltip = GER_Limes_Programme
			unlock_decision_tooltip = GER_Aachen_Saar_Line
			unlock_decision_tooltip = GER_Geldern_Emplacement
		}
		relative_position_id = GER_Chancellor_Hitler
	}
	focus = {
		id = GER_Kriegswirtschaft
		icon = GFX_GER_A_Workers_Struggle
		cost = 70
		prerequisite = {
			focus = GER_Dissolve_Small_Corporations
		}
		prerequisite = {
			focus = GER_Rheinmetall_Merger
		}
		x = 7
		y = 8
		bypass = {
			AND = {
				SOV = {
					has_capitulated = yes
				}
				ENG = {
					has_capitulated = yes
				}
				FRA = {
					has_capitulated = yes
				}
				GER = {
					NOT = {
						has_war_with = USA
					}
				}
			}
		}
		available = {
			has_war = yes
		}
		completion_reward = {
			add_ideas = planned_economy
		}
		relative_position_id = GER_Chancellor_Hitler
	}
	focus = {
		id = GER_Uranprojekt
		icon = GFX_GENERIC_ABomb
		cost = 140
		prerequisite = {
			focus = GER_Jet_Engines
		}
		x = -2
		y = 4
		completion_reward = {
			add_tech_bonus = {
				name = GER_Uranprojekt
				bonus = 0.75
				uses = 2
				category = nuclear
			}
		}
		relative_position_id = GER_Luftwaffe
	}
	focus = {
		id = GER_Beherrscher_der_Meere
		icon = GFX_GER_Battle_of_the_Atlantic
		cost = 56
		prerequisite = {
			focus = GER_UBoot_Buildup
			focus = GER_Elektroboot
			focus = GER_Schlachtschiff_H
			focus = GER_Grosskampfschiff_Buildup
		}
		x = 0
		y = 5
		completion_reward = {
			navy_experience = 50
			add_tech_bonus = {
				name = GER_Beherrscher_der_Meere
				bonus = 1
				uses = 1
				category = trade_interdiction_tree
			}
		}
		relative_position_id = GER_Kriegsmarine
	}
	focus = {
		id = GER_Flugzeugtrager
		icon = GFX_GENERIC_Carrier
		cost = 12
		prerequisite = {
			focus = GER_Raeders_Surface_Raiders
		}
		x = 2
		y = 2
		completion_reward = {
			add_tech_bonus = {
				name = GER_Flugzeugtrager
				uses = 1
				bonus = 1
				category = cv_tech
			}
			add_tech_bonus = {
				name = GER_Flugzeugtrager
				uses = 2
				bonus = 1
				category = naval_air
			}
		}
		relative_position_id = GER_Kriegsmarine
	}
	focus = {
		id = GER_Atlantikwall
		icon = GFX_GER_Atlantikwall
		cost = 70
		prerequisite = {
			focus = GER_Around_the_Maginot
			focus = GER_Secure_the_North
		}
		x = -10
		y = 13
		available = {
			OR = {
				FRA = {
					has_capitulated = yes
				}
				NOT = {
					country_exists = FRA
				}
			}
			hidden_trigger = {
				AND = {
					19 = {
						is_controlled_by_ROOT_or_ally = yes
					}
					23 = {
						is_controlled_by_ROOT_or_ally = yes
					}
					1028 = {
						is_controlled_by_ROOT_or_ally = yes
					}
					14 = {
						is_controlled_by_ROOT_or_ally = yes
					}
					15 = {
						is_controlled_by_ROOT_or_ally = yes
					}
					1026 = {
						is_controlled_by_ROOT_or_ally = yes
					}
					29 = {
						is_controlled_by_ROOT_or_ally = yes
					}
					1022 = {
						is_controlled_by_ROOT_or_ally = yes
					}
					762 = {
						is_controlled_by_ROOT_or_ally = yes
					}
					964 = {
						is_controlled_by_ROOT_or_ally = yes
					}
					35 = {
						is_controlled_by_ROOT_or_ally = yes
					}
					7 = {
						is_controlled_by_ROOT_or_ally = yes
					}
					36 = {
						is_controlled_by_ROOT_or_ally = yes
					}
					99 = {
						is_controlled_by_ROOT_or_ally = yes
					}
					804 = {
						is_controlled_by_ROOT_or_ally = yes
					}
					110 = {
						is_controlled_by_ROOT_or_ally = yes
					}
					1126 = {
						is_controlled_by_ROOT_or_ally = yes
					}
					142 = {
						is_controlled_by_ROOT_or_ally = yes
					}
					1125 = {
						is_controlled_by_ROOT_or_ally = yes
					}
					143 = {
						is_controlled_by_ROOT_or_ally = yes
					}
					144 = {
						is_controlled_by_ROOT_or_ally = yes
					}
					1124 = {
						is_controlled_by_ROOT_or_ally = yes
					}
				}
			}
		}
		cancel_if_invalid = yes
		completion_reward = {
			custom_effect_tooltip = GER_Control_the_Coastline_tt
			unlock_decision_tooltip = GER_Fortify_France_WC
			unlock_decision_tooltip = GER_Fortify_France_NC
			unlock_decision_tooltip = GER_Fortify_Benelux_Coast
			unlock_decision_tooltip = GER_Fortify_Denmark_Norway_Coast
			unlock_decision_tooltip = GER_Fortify_Rest_French_Coast
		}
		relative_position_id = GER_Chancellor_Hitler
	}
	focus = {
		id = GER_Katzchen_Programm
		icon = GFX_GER_Katzchen
		cost = 70
		prerequisite = {
			focus = GER_Mass_Mechanization
			focus = GER_Mobile_Support_Units
		}
		x = -2
		y = 5
		completion_reward = {
			add_tech_bonus = {
				name = GER_Katzchen_Programm
				bonus = 1
				uses = 1
				ahead_reduction = 2
				technology = APC_1950
			}
		}
		relative_position_id = GER_Heer
	}
	focus = {
		id = GER_Volkswagen
		icon = GFX_GER_KdF_Wagon
		cost = 42
		prerequisite = {
			focus = GER_Four_Year_Plan
		}
		x = 8
		y = 6
		completion_reward = {
			set_temp_variable = {
				unemployment_value = -0.03
			}
			add_unemployment_effect = yes
			64 = {
				add_extra_state_shared_building_slots = 1
				add_building_construction = {
					type = arms_factory
					level = 1
					instant_build = yes
				}
			}
			808 = {
				add_extra_state_shared_building_slots = 1
				add_building_construction = {
					type = arms_factory
					level = 1
					instant_build = yes
				}
			}
			58 = {
				add_extra_state_shared_building_slots = 1
				add_building_construction = {
					type = arms_factory
					level = 1
					instant_build = yes
				}
			}
			59 = {
				add_extra_state_shared_building_slots = 1
				add_building_construction = {
					type = arms_factory
					level = 1
					instant_build = yes
				}
			}
		}
		relative_position_id = GER_Chancellor_Hitler
	}
	focus = {
		id = GER_Eye_to_The_East
		icon = GFX_focus_ger_strike_at_the_source
		cost = 70
		prerequisite = {
			focus = GER_End_of_Versailles
		}
		mutually_exclusive = {
			focus = GER_Berlin_Moscow_Axis
		}
		available = {
			OR = {
				is_neighbor_of = SOV
				any_other_country = {
					is_puppet_of = ROOT
					is_neighbor_of = SOV
				}
			}
		}
		bypass = {
			has_war_with = SOV
		}
		x = -5
		y = 12
		completion_reward = {
			country_event = {
				id = GER_Barbarossa.1
			}
		}
		relative_position_id = GER_Chancellor_Hitler
	}
	focus = {
		id = GER_Plunder_Conquered_Territories
		icon = GFX_GENERIC_Urban_Warfare
		cost = 50
		prerequisite = {
			focus = GER_Kriegswirtschaft
			focus = GER_Strong_Homefront
		}
		x = 9
		y = 9
		available = {
			OR = {
				controls_state = 6
				controls_state = 16
				controls_state = 7
				controls_state = 10
				controls_state = 202
				controls_state = 206
			}
		}
		completion_reward = {
			#Add decision category "Plunder Conquered Territories"
			#1 decision for each state
			#Removes 1 infrastructure and gives 1 civ,1 mil and 50 money
			unlock_decision_category_tooltip = GER_Plunder_Conquered_Territories_category
		}
		relative_position_id = GER_Chancellor_Hitler
	}
	focus = {
		id = GER_The_Genius_Organizer
		icon = GFX_GER_The_Architect
		cost = 50
		prerequisite = {
			focus = GER_Totaler_Krieg
		}
		x = 9
		y = 12
		completion_reward = {
			add_ideas = {
				GER_AM_Albert_Speer
			}
		}
		relative_position_id = GER_Chancellor_Hitler
	}
	focus = {
		id = GER_Renounce_the_Disarmament_Clauses
		icon = GFX_GER_Renounce_the_Disarmament_Clauses
		cost = 70
		prerequisite = {
			focus = GER_Ein_Volk_Ein_Reich_Ein_Fuhrer
		}
		x = -2
		y = 7
		completion_reward = {
			news_event = {
				id = GER_Versailles.1
				hours = 12
			}
			custom_effect_tooltip = GER_Renounce_the_Disarmament_Clauses_tt
		}
		relative_position_id = GER_Chancellor_Hitler
	}
	focus = {
		id = GER_Reorganize_the_Abwehr
		icon = GFX_GER_Abwehr
		cost = 80
		prerequisite = {
			focus = GER_Hossbach_Memorandum
		}
		x = -6
		y = 10
		completion_reward = {
			if = {
				limit = {
					NOT = {
						has_dlc = "La Resistance"
					}
				}
				add_ideas = GER_Abwehr_idea
			}
			if = {
				limit = {
					has_dlc = "La Resistance"
				}
				upgrade_intelligence_agency = upgrade_form_department
				upgrade_intelligence_agency = upgrade_passive_defense
			}
		}
		relative_position_id = GER_Chancellor_Hitler
	}
	focus = {
		id = GER_Reorganize_the_Oberkommando
		icon = GFX_GER_OKW
		cost = 80
		prerequisite = {
			focus = GER_Hossbach_Memorandum
		}
		x = -10
		y = 10
		select_effect = {
			country_event = {
				id = GER_BlombergFristschAffair.1
			}
		}
		cancelable = no
		completion_reward = {
			country_event = {
				id = GER_BlombergFristschAffair.3
			}
			custom_effect_tooltip = GER_Reorganize_the_Oberkommando_tt
		}
		relative_position_id = GER_Chancellor_Hitler
	}
	focus = {
		id = GER_The_Final_Struggle
		icon = GFX_GER_Gott_Mit_Uns
		cost = 140
		prerequisite = {
			focus = GER_Atlantikwall
		}
		prerequisite = {
			focus = GER_Ostwall
		}
		prerequisite = {
			focus = GER_Germanisierung
		}
		x = -8
		y = 14
		completion_reward = {
			create_wargoal = {
				type = puppet_wargoal_focus
				target = USA
			}
			news_event = {
				id = GER_Final_Struggle.1
			}
		}
		relative_position_id = GER_Chancellor_Hitler
	}
	focus = {
		id = GER_Ostwall
		icon = GFX_GER_Generalplan_Ost
		cost = 60
		available = {
			any_country = {
				OR = {
					tag = GER
					is_in_faction_with = GER
				}
				OR = {
					has_full_control_of_state = 191
					has_full_control_of_state = 209
					has_full_control_of_state = 210
					has_full_control_of_state = 207
					has_full_control_of_state = 206
					has_full_control_of_state = 204
					has_full_control_of_state = 194
					has_full_control_of_state = 202
					has_full_control_of_state = 203
					has_full_control_of_state = 226
					has_full_control_of_state = 200
				}
			}
		}
		prerequisite = {
			focus = GER_Eye_to_The_East
			focus = GER_Rule_over_the_Danube
		}
		x = -6
		y = 13
		relative_position_id = GER_Chancellor_Hitler
		completion_reward = {
			custom_effect_tooltip = GER_Ostwall_tt
			if = {
				limit = {
					any_country = {
						OR = {
							tag = GER
							is_in_faction_with = GER
						}
						has_full_control_of_state = 191
					}
				}
				hidden_effect = {
					191 = {
						add_building_construction = {
							type = bunker
							level = 2
							province = 4640
							instant_build = yes
						}
					}
				}
			}
			if = {
				limit = {
					any_country = {
						OR = {
							tag = GER
							is_in_faction_with = GER
						}
						has_full_control_of_state = 209
					}
				}
				hidden_effect = {
					209 = {
						add_building_construction = {
							type = bunker
							level = 1
							province = 415
							instant_build = yes
						}
						add_building_construction = {
							type = bunker
							level = 1
							province = 3310
							instant_build = yes
						}
					}
				}
			}
			if = {
				limit = {
					any_country = {
						OR = {
							tag = GER
							is_in_faction_with = GER
						}
						has_full_control_of_state = 210
					}
				}
				hidden_effect = {
					210 = {
						add_building_construction = {
							type = bunker
							level = 1
							province = 3333
							instant_build = yes
						}
						add_building_construction = {
							type = bunker
							level = 1
							province = 11259
							instant_build = yes
						}
						add_building_construction = {
							type = bunker
							level = 1
							province = 9386
							instant_build = yes
						}
					}
				}
			}
			if = {
				limit = {
					any_country = {
						OR = {
							tag = GER
							is_in_faction_with = GER
						}
						has_full_control_of_state = 207
					}
				}
				hidden_effect = {
					207 = {
						add_building_construction = {
							type = bunker
							level = 1
							province = 323
							instant_build = yes
						}
						add_building_construction = {
							type = bunker
							level = 3
							province = 11241
							instant_build = yes
						}
						add_building_construction = {
							type = bunker
							level = 1
							province = 11220
							instant_build = yes
						}
						add_building_construction = {
							type = bunker
							level = 1
							province = 3331
							instant_build = yes
						}
					}
				}
			}
			if = {
				limit = {
					any_country = {
						OR = {
							tag = GER
							is_in_faction_with = GER
						}
						has_full_control_of_state = 206
					}
				}
				hidden_effect = {
					206 = {
						add_building_construction = {
							type = bunker
							level = 1
							province = 9289
							instant_build = yes
						}
						add_building_construction = {
							type = bunker
							level = 1
							province = 3378
							instant_build = yes
						}
					}
				}
			}
			if = {
				limit = {
					any_country = {
						OR = {
							tag = GER
							is_in_faction_with = GER
						}
						has_full_control_of_state = 204
					}
				}
				hidden_effect = {
					204 = {
						add_building_construction = {
							type = bunker
							level = 1
							province = 6373
							instant_build = yes
						}
					}
				}
			}
			if = {
				limit = {
					any_country = {
						OR = {
							tag = GER
							is_in_faction_with = GER
						}
						has_full_control_of_state = 194
					}
				}
				hidden_effect = {
					194 = {
						add_building_construction = {
							type = bunker
							level = 1
							province = 6319
							instant_build = yes
						}
						add_building_construction = {
							type = bunker
							level = 1
							province = 9249
							instant_build = yes
						}
						add_building_construction = {
							type = bunker
							level = 1
							province = 3507
							instant_build = yes
						}
					}
				}
			}
			if = {
				limit = {
					any_country = {
						OR = {
							tag = GER
							is_in_faction_with = GER
						}
						has_full_control_of_state = 202
					}
				}
				hidden_effect = {
					202 = {
						add_building_construction = {
							type = bunker
							level = 1
							province = 9568
							instant_build = yes
						}
						add_building_construction = {
							type = bunker
							level = 1
							province = 3543
							instant_build = yes
						}
						add_building_construction = {
							type = bunker
							level = 5
							province = 525
							instant_build = yes
						}
						add_building_construction = {
							type = bunker
							level = 1
							province = 3494
							instant_build = yes
						}
					}
				}
			}
			if = {
				limit = {
					any_country = {
						OR = {
							tag = GER
							is_in_faction_with = GER
						}
						has_full_control_of_state = 203
					}
				}
				hidden_effect = {
					203 = {
						add_building_construction = {
							type = bunker
							level = 1
							province = 11454
							instant_build = yes
						}
						add_building_construction = {
							type = bunker
							level = 1
							province = 488
							instant_build = yes
						}
						add_building_construction = {
							type = bunker
							level = 1
							province = 3468
							instant_build = yes
						}
						add_building_construction = {
							type = bunker
							level = 1
							province = 6478
							instant_build = yes
						}
					}
				}
			}
			if = {
				limit = {
					any_country = {
						OR = {
							tag = GER
							is_in_faction_with = GER
						}
						has_full_control_of_state = 226
					}
				}
				hidden_effect = {
					226 = {
						add_building_construction = {
							type = bunker
							level = 1
							province = 9433
							instant_build = yes
						}
						add_building_construction = {
							type = bunker
							level = 3
							province = 11437
							instant_build = yes
						}
					}
				}
			}
			if = {
				limit = {
					any_country = {
						OR = {
							tag = GER
							is_in_faction_with = GER
						}
						has_full_control_of_state = 200
					}
				}
				hidden_effect = {
					200 = {
						add_building_construction = {
							type = bunker
							level = 3
							province = 11405
							instant_build = yes
						}
						add_building_construction = {
							type = bunker
							level = 1
							province = 6596
							instant_build = yes
						}
						add_building_construction = {
							type = bunker
							level = 1
							province = 11700
							instant_build = yes
						}
					}
				}
			}
		}
	}
	focus = {
		id = GER_Rheinmetall_Merger
		icon = GFX_GER_Rheinmetall_Merger
		cost = 70
		prerequisite = {
			focus = GER_Volkswagen
			focus = GER_Reichswerke_Hermann_Goering
		}
		x = 8
		y = 7
		available = {
			set_temp_variable = {
				amount_of_money_to_check = 100
			}
			has_specific_amount_of_money_with_inflation_included = yes
		}
		completion_reward = {
			add_political_power = -40
			random_owned_controlled_state = {
				add_building_construction = {
					type = arms_factory
					level = 1
					instant_build = yes
				}
				add_extra_state_shared_building_slots = 1
			}
			random_owned_controlled_state = {
				add_building_construction = {
					type = arms_factory
					level = 1
					instant_build = yes
				}
				add_extra_state_shared_building_slots = 1
			}
			random_owned_controlled_state = {
				add_building_construction = {
					type = arms_factory
					level = 1
					instant_build = yes
				}
				add_extra_state_shared_building_slots = 1
			}
			if = {
				limit = {
					has_idea = partial_economic_mobilisation
				}
				swap_ideas = {
					remove_idea = partial_economic_mobilisation
					add_idea = war_economy
				}
			}
			if = {
				limit = {
					has_idea = low_economic_mobilisation
				}
				swap_ideas = {
					remove_idea = low_economic_mobilisation
					add_idea = partial_economic_mobilisation
				}
			}
			if = {
				limit = {
					has_idea = civilian_economy
				}
				swap_ideas = {
					remove_idea = civilian_economy
					add_idea = low_economic_mobilisation
				}
			}
			set_temp_variable = {
				money_to_gain = -100
			}
			add_money_with_inflation_included_with_tooltip_effect = yes
			add_tech_bonus = {
				name = GER_Rheinmetall_Merger
				bonus = 1
				uses = 1
				category = industry
			}
			set_temp_variable = {
				GER_Reichswerke_industrial_capacity_factory_gain = 0.03
			}
			add_to_variable = {
				GER_Reichswerke_industrial_capacity_factory = GER_Reichswerke_industrial_capacity_factory_gain
			}
			custom_effect_tooltip = GER_Reichswerke_industrial_capacity_factory_gain_tt
			set_temp_variable = {
				GER_Reichswerke_Upkeep_factor_gain = 0.01
			}
			add_to_variable = {
				GER_Reichswerke_Upkeep_factor = GER_Reichswerke_Upkeep_factor_gain
			}
			custom_effect_tooltip = GER_Reichswerke_Upkeep_factor_gain_tt
		}
		relative_position_id = GER_Chancellor_Hitler
	}
	focus = {
		id = GER_Dissolve_Small_Corporations
		icon = GFX_GENERIC_Dissolve_Small_Corporations
		cost = 40
		prerequisite = {
			focus = GER_Reichswerke_Hermann_Goering
			focus = GER_Volkswagen
		}
		x = 6
		y = 7
		completion_reward = {
			add_political_power = -40
			set_temp_variable = {
				unemployment_value = -0.03
			}
			add_unemployment_effect = yes
			random_owned_controlled_state = {
				add_extra_state_shared_building_slots = 1
			}
			random_owned_controlled_state = {
				add_extra_state_shared_building_slots = 1
			}
			random_owned_controlled_state = {
				add_extra_state_shared_building_slots = 1
			}
			random_owned_controlled_state = {
				add_extra_state_shared_building_slots = 1
			}
		}
		relative_position_id = GER_Chancellor_Hitler
	}
	focus = {
		id = GER_Disperse_Military_Industry
		icon = GFX_GENERIC_Decentralization
		cost = 60
		prerequisite = {
			focus = GER_Plunder_Conquered_Territories
		}
		mutually_exclusive = {
			focus = GER_Flakturm
		}
		x = 8
		y = 10
		completion_reward = {
			add_tech_bonus = {
				name = GER_Disperse_Military_Industry
				bonus = 1
				uses = 1
				category = industry
			}
			962 = {
				add_building_construction = {
					type = arms_factory
					level = 1
					instant_build = yes
				}
			}
			1182 = {
				add_building_construction = {
					type = arms_factory
					level = 1
					instant_build = yes
				}
			}
		}
		relative_position_id = GER_Chancellor_Hitler
	}
	focus = {
		id = GER_Flakturm
		icon = GFX_GER_Flakabwehr
		cost = 60
		prerequisite = {
			focus = GER_Plunder_Conquered_Territories
		}
		mutually_exclusive = {
			focus = GER_Disperse_Military_Industry
		}
		x = 10
		y = 10
		available = {
			OR = {
				1057 = {
					is_controlled_by = GER
				}
				1183 = {
					is_controlled_by = GER
				}
				4 = {
					is_controlled_by = GER
				}
				808 = {
					is_controlled_by = GER
				}
				50 = {
					is_controlled_by = GER
				}
			}
		}
		completion_reward = {
			if = {
				limit = {
					1057 = {
						is_controlled_by = GER
					}
				}
				1057 = {
					add_building_construction = {
						type = anti_air_building
						level = 3
						instant_build = yes
					}
				}
			}
			if = {
				limit = {
					1183 = {
						is_controlled_by = GER
					}
				}
				1183 = {
					add_building_construction = {
						type = anti_air_building
						level = 3
						instant_build = yes
					}
				}
			}
			if = {
				limit = {
					4 = {
						is_controlled_by = GER
					}
				}
				4 = {
					add_building_construction = {
						type = anti_air_building
						level = 3
						instant_build = yes
					}
				}
			}
			if = {
				limit = {
					808 = {
						is_controlled_by = GER
					}
				}
				808 = {
					add_building_construction = {
						type = anti_air_building
						level = 3
						instant_build = yes
					}
				}
			}
			if = {
				limit = {
					50 = {
						is_controlled_by = GER
					}
				}
				50 = {
					add_building_construction = {
						type = anti_air_building
						level = 3
						instant_build = yes
					}
				}
			}
		}
		relative_position_id = GER_Chancellor_Hitler
	}
	focus = {
		id = GER_Use_Foreign_Labor
		icon = GFX_GENERIC_Forced_Labour
		cost = 40
		prerequisite = {
			focus = GER_Totaler_Krieg
		}
		x = 11
		y = 12
		completion_reward = {
			add_ideas = GER_Foreign_Labor
		}
		relative_position_id = GER_Chancellor_Hitler
	}
	focus = {
		id = GER_Streamline_Production
		icon = GFX_GENERIC_Military_Industrial_Complexes
		cost = 55
		prerequisite = {
			focus = GER_The_Genius_Organizer
		}
		prerequisite = {
			focus = GER_Use_Foreign_Labor
		}
		mutually_exclusive = {
			focus = GER_Underground_Factories
		}
		x = 10
		y = 13
		completion_reward = {
			add_ideas = GER_Streamlined_Production
		}
		relative_position_id = GER_Chancellor_Hitler
	}
	focus = {
		id = GER_Invest_in_Wunderwaffen
		icon = GFX_GER_Wunderwaffe
		cost = 60
		prerequisite = {
			focus = GER_Totaler_Krieg
		}
		x = 7
		y = 12
		completion_reward = {
			add_ideas = GER_Wunderwaffen
		}
		relative_position_id = GER_Chancellor_Hitler
	}
	focus = {
		id = GER_Underground_Factories
		icon = GFX_GENERIC_Military_Production
		cost = 55
		prerequisite = {
			focus = GER_The_Genius_Organizer
		}
		prerequisite = {
			focus = GER_Invest_in_Wunderwaffen
		}
		mutually_exclusive = {
			focus = GER_Streamline_Production
		}
		x = 8
		y = 13
		completion_reward = {
			add_ideas = GER_Underground_Production
		}
		relative_position_id = GER_Chancellor_Hitler
	}
	focus = {
		id = GER_Totaler_Krieg
		icon = GFX_GER_Totalen_Krieg
		cost = 50
		prerequisite = {
			focus = GER_Disperse_Military_Industry
			focus = GER_Flakturm
		}
		x = 9
		y = 11
		available = {
		}
		completion_reward = {
			add_ideas = tot_economic_mobilisation
		}
		relative_position_id = GER_Chancellor_Hitler
	}
	focus = {
		id = GER_Seek_a_Naval_Agreement_with_Britain
		icon = GFX_GER_Anglo_German_Naval_Agreement
		cost = 40
		prerequisite = {
			focus = GER_Ein_Volk_Ein_Reich_Ein_Fuhrer
		}
		x = 2
		y = 7
		bypass = {
			OR = {
				has_war_with = ENG
				has_war_with = FRA
			}
		}
		completion_reward = {
			ENG = {
				country_event = {
					id = GER_Naval_Agreement.1
					days = 1
				}
			}
		}
		relative_position_id = GER_Chancellor_Hitler
	}
	focus = {
		id = GER_Anti_Komintern_Pact_focus
		icon = GFX_focus_ger_bulwark_against_bolshevism
		cost = 21
		prerequisite = {
			focus = GER_Walk_in_the_Backyard
		}
		x = 0
		y = 9
		completion_reward = {
			set_country_flag = Chief_Anti_Komintern_Pact
			set_global_flag = Anti_Comintern_Pact
			JAP = {
				country_event = {
					id = GER_AntiKomintern.2
					days = 1
				}
			}
			SOV = {
				add_opinion_modifier = {
					target = GER
					modifier = pact_against_us
				}
			}
		}
		relative_position_id = GER_Chancellor_Hitler
	}
	focus = {
		id = GER_Stahlpakt
		icon = GFX_focus_generic_italy_first
		cost = 70
		prerequisite = {
			focus = GER_Anti_Komintern_Pact_focus
		}
		mutually_exclusive = {
			focus = GER_Sudtirol_is_German
		}
		x = 1
		y = 10
		bypass = {
			is_in_faction_with = ITA
		}
		completion_reward = {
			ITA = {
				country_event = GER_Stahlpakt.1
			}
		}
		relative_position_id = GER_Chancellor_Hitler
	}
	focus = {
		id = GER_Sudtirol_is_German
		icon = GFX_GER_Sudtirol_is_German
		cost = 10
		prerequisite = {
			focus = GER_Anti_Komintern_Pact_focus
		}
		mutually_exclusive = {
			focus = GER_Stahlpakt
		}
		x = -1
		y = 10
		completion_reward = {
			GER = {
				add_state_claim = 39
			}
			ITA = {
				country_event = GER_Sudtirol_Claim.1
			}
		}
		relative_position_id = GER_Chancellor_Hitler
	}
	focus = {
		id = GER_Formalize_the_Berlin_Pact
		icon = GFX_GER_A_Union_Under_Germany
		cost = 70
		prerequisite = {
			focus = GER_Stahlpakt
			focus = GER_Goodwill_Gesture_to_Japan
			focus = GER_Deepen_Our_Friendship_with_China
		}
		x = 2
		y = 11
		available = {
			OR = {
				CHI = {
					has_country_flag = Berlin_pact_eligible
				}
				JAP = {
					has_country_flag = Berlin_pact_eligible
				}
				is_in_faction_with = ITA
			}
		}
		completion_reward = {
			custom_effect_tooltip = Berlin_Pact_tt
			set_country_flag = Berlin_Pact_Member
			hidden_effect = {
				country_event = {
					id = GER_Berlin_Pact.5
					days = 7
				}
			}
			if = {
				limit = {
					is_in_faction_with = ITA
				}
				ITA = {
					country_event = {
						id = GER_Berlin_Pact.1
						days = 2
					}
				}
			}
			if = {
				limit = {
					JAP = {
						has_country_flag = Berlin_pact_eligible
					}
				}
				JAP = {
					country_event = {
						id = GER_Berlin_Pact.1
						days = 3
					}
				}
			}
			if = {
				limit = {
					CHI = {
						has_country_flag = Berlin_pact_eligible
					}
				}
				CHI = {
					country_event = {
						id = GER_Berlin_Pact.1
						days = 4
					}
				}
			}
		}
		relative_position_id = GER_Chancellor_Hitler
	}
	focus = {
		id = GER_Hossbach_Memorandum
		icon = GFX_GER_Neuordnung_Europa
		cost = 70
		prerequisite = {
			focus = GER_Walk_in_the_Backyard
		}
		x = -8
		y = 9
		completion_reward = {
			country_event = {
				id = GER_Hossbach_Memorandum.1
			}
		}
		relative_position_id = GER_Chancellor_Hitler
	}
	focus = {
		id = GER_Soviet_Pact
		icon = GFX_focus_chi_mission_to_the_soviet_union
		cost = 20
		prerequisite = {
			focus = GER_Anti_Komintern_Pact_focus
		}
		available = {
			SOV = {
				exists = yes
			}
			NOT = {
				has_war_with = SOV
			}
		}
		x = -3
		y = 10
		completion_reward = {
			SOV = {
				country_event = {
					days = 1
					id = GER_Molotov_Ribbentrop.1
				}
			}
		}
		relative_position_id = GER_Chancellor_Hitler
	}
	focus = {
		id = GER_Trade_Agreements_With_USSR
		icon = GFX_GENERIC_Economic_Cooperation
		cost = 40
		prerequisite = {
			focus = GER_Soviet_Pact
		}
		available = {
			SOV = {
				exists = yes
			}
			NOT = {
				has_war_with = SOV
			}
		}
		x = -3
		y = 11
		completion_reward = {
			SOV = {
				country_event = {
					id = GER_Trade_Agreement_USSR.1
					days = 1
				}
			}
		}
		relative_position_id = GER_Chancellor_Hitler
	}
	focus = {
		id = GER_Berlin_Moscow_Axis
		icon = GFX_GER_Berlin_Moscow_Axis
		cost = 10
		prerequisite = {
			focus = GER_Trade_Agreements_With_USSR
		}
		mutually_exclusive = {
			focus = GER_Eye_to_The_East
		}
		x = -3
		y = 12
		cancelable = no
		available = {
			SOV = {
				exists = yes
			}
			NOT = {
				has_war_with = SOV
			}
			OR = {
				has_war_with = USA
				has_war_with = ENG
				has_war_with = FRA
			}
		}
		select_effect = {
			SOV = {
				country_event = {
					id = GER_Berlin_Moscow_Pact.1
					days = 2
				}
			}
		}
		completion_reward = {
			custom_effect_tooltip = GER_Soviet_Might_Join_War_Against_Allies
		}
		relative_position_id = GER_Chancellor_Hitler
	}
	focus = {
		id = GER_Trautmann_Mediation
		icon = GFX_GENERIC_Seek_International_Recognition
		cost = 35
		available = {
			JAP = {
				has_war_with = CHI
			}
		}
		prerequisite = {
			focus = GER_Walk_in_the_Backyard
		}
		x = 4
		y = 9
		relative_position_id = GER_Chancellor_Hitler
		completion_reward = {
			CHI = {
				country_event = {
					id = CHI_Trautmann.1
				}
			}
		}
	}
	focus = {
		id = GER_Goodwill_Gesture_to_Japan
		icon = GFX_GER_Tripartite_Pact
		cost = 70
		prerequisite = {
			focus = GER_Trautmann_Mediation
		}
		mutually_exclusive = {
			focus = GER_Deepen_Our_Friendship_with_China
		}
		x = 3
		y = 10
		completion_reward = {
			country_event = {
				id = GER_Manchukuo.1
			}
			JAP = {
				set_country_flag = Berlin_pact_eligible
			}
		}
		relative_position_id = GER_Chancellor_Hitler
	}
	focus = {
		id = GER_Deepen_Our_Friendship_with_China
		icon = GFX_focus_chi_cooperation_with_the_nationalists
		cost = 10
		prerequisite = {
			focus = GER_Trautmann_Mediation
		}
		prerequisite = {
			focus = GER_Support_Kuomintang_Government
		}
		mutually_exclusive = {
			focus = GER_Goodwill_Gesture_to_Japan
		}
		x = 5
		y = 10
		completion_reward = {
			news_event = {
				id = GER_Kuomintang.2
				hours = 6
			}
			CHI = {
				set_country_flag = Berlin_pact_eligible
			}
		}
		relative_position_id = GER_Chancellor_Hitler
	}
	focus = {
		id = GER_Support_Kuomintang_Government
		icon = GFX_CHI_Sino_German_Cooperation
		cost = 10
		prerequisite = {
			focus = GER_Walk_in_the_Backyard
		}
		x = 6
		y = 9
		completion_reward = {
			add_ideas = {
				GER_Sino-German-Relations
			}
			add_opinion_modifier = {
				target = CHI
				modifier = GER_CHI_Trade_Agreement
			}
			CHI = {
				country_event = {
					id = GER_Kuomintang.1
					days = 2
				}
			}
		}
		relative_position_id = GER_Chancellor_Hitler
	}
	focus = {
		id = GER_Maintain_Two_Allies_in_the_Far_East
		icon = GFX_GER_Two_Allies_in_the_Far_East
		cost = 10
		prerequisite = {
			focus = GER_Trautmann_Mediation
		}
		x = 4
		y = 11
		completion_reward = {
			country_event = {
				id = GER_JAP_CHI_Alliance.1
			}
		}
		relative_position_id = GER_Chancellor_Hitler
	}
	focus = {
		id = GER_SS_Panzer_Units
		icon = GFX_GER_SS_Panzer_Units
		cost = 30
		prerequisite = {
			focus = GER_SS_Freiwillige_Divisions
			focus = GER_Enforce_Strict_Purity_Requirements
		}
		mutually_exclusive = {
			focus = GER_SS_Elite_Units
		}
		x = -9
		y = 7
		relative_position_id = GER_Chancellor_Hitler
		completion_reward = {
			custom_effect_tooltip = GER_Unlocking_Panzertruppen
			hidden_effect = {
				load_oob = "GER_SS_Waffen_Mech"
				set_technology = {
					GER_SS_Panzertruppen = 1
					popup = no
				}
			}
		}
	}
	focus = {
		id = GER_SS_Elite_Units
		icon = GFX_GER_SS_Elite_Units
		cost = 30
		prerequisite = {
			focus = GER_Enforce_Strict_Purity_Requirements
			focus = GER_SS_Freiwillige_Divisions
		}
		mutually_exclusive = {
			focus = GER_SS_Panzer_Units
		}
		x = -7
		y = 7
		relative_position_id = GER_Chancellor_Hitler
		completion_reward = {
			custom_effect_tooltip = GER_Unlocking_Spezialkrafte
			hidden_effect = {
				load_oob = "GER_SS_Waffen_SpecOps"
				set_technology = {
					GER_SS_Spezialkrafte = 1
					popup = no
				}
			}
		}
	}
}
