#!gfx:interface\_Goals.gfx
focus_tree = {
	id = SOV_Stalin
	country = {
		factor = 0
		modifier = {
			add = 10
			tag = SOV
		}
	}
	continuous_focus_position = {
		x = 20
		y = 2500
	}
	default = no
	focus = {
		id = SOV_Overcome_Dizziness_from_Success
		icon = GFX_SOV_Reduce_Power_of_the_Politburo
		cost = 60
		mutually_exclusive = {
			focus = SOV_Continue_Hard_Line
		}
		x = 8
		y = 0
		completion_reward = {
			add_political_power = 50
			hidden_effect = {
				set_country_flag = all_quite_in_party
			}
		}
	}
	focus = {
		id = SOV_Continue_Hard_Line
		icon = GFX_SOV_Reaffirm_Role_of_the_Politburo
		cost = 60
		mutually_exclusive = {
			focus = SOV_Overcome_Dizziness_from_Success
		}
		x = 12
		y = 0
		completion_reward = {
			add_political_power = -50
			hidden_effect = {
				set_country_flag = continue_the_hard_line
			}
		}
	}
	focus = {
		id = SOV_Maintain_the_Litvinov_Protocol
		icon = GFX_SOV_Maintain_Litvinov
		cost = 60
		mutually_exclusive = {
			focus = SOV_Replace_Litvinov
		}
		prerequisite = {
			focus = SOV_XVII_Congress
		}
		x = 2
		y = 3
		available = {
			has_war = no
			threat < 0.25
		}
		completion_reward = {
			add_political_power = 100
		}
	}
	focus = {
		id = SOV_Replace_Litvinov
		icon = GFX_SOV_Replace_Litvinov
		cost = 60
		mutually_exclusive = {
			focus = SOV_Maintain_the_Litvinov_Protocol
		}
		prerequisite = {
			focus = SOV_XVII_Congress
		}
		x = 4
		y = 0
		relative_position_id = SOV_Maintain_the_Litvinov_Protocol
		available = {
			OR = {
				NOT = {
					has_country_leader = {
						name = "Joseph Stalin"
					}
				}
				threat > 0.3
				has_completed_focus = SOV_Tukhachevskys_Reformists
			}
		}
		completion_reward = {
			add_political_power = 150
		}
	}
	focus = {
		id = SOV_Red_Army_Airforce
		icon = GFX_SOV_Red_Airforce
		cost = 60
		x = 54
		y = 0
		offset = {
			x = 0
			y = 0
			trigger = {
				always = yes
			}
		}
		allow_branch = {
			NOT = {
				has_civil_war = yes
			}
		}
		completion_reward = {
			add_tech_bonus = {
				uses = 2
				bonus = 0.5
				category = air_doctrine
			}
		}
	}
	focus = {
		id = SOV_Red_Army
		icon = GFX_SOV_Red_Army
		cost = 1
		x = 45
		y = 0
		offset = {
			x = 0
			y = 0
			trigger = {
				always = yes
			}
		}
		allow_branch = {
			NOT = {
				has_civil_war = yes
			}
		}
		completion_reward = {
			army_experience = 50
		}
	}
	focus = {
		id = SOV_Red_Fleet
		icon = GFX_SOV_Red_Fleet
		cost = 60
		x = 63
		y = 0
		offset = {
			x = 0
			y = 0
			trigger = {
				always = yes
			}
		}
		allow_branch = {
			NOT = {
				has_civil_war = yes
			}
		}
		completion_reward = {
			country_event = SOV_Repurpose_Naval_Guns.1
		}
	}
	focus = {
		id = SOV_Kirov_Cruisers
		icon = GFX_GENERIC_Cruiser
		cost = 60
		x = -3
		y = 1
		prerequisite = {
			focus = SOV_Red_Fleet
		}
		completion_reward = {
		}
		relative_position_id = SOV_Red_Fleet
	}
	focus = {
		id = SOV_Malyutka_Small_Submarines
		icon = GFX_GENERIC_Submarine
		cost = 60
		x = -1
		y = 1
		mutually_exclusive = {
			focus = SOV_Shchuka_Medium_Submarines
		}
		prerequisite = {
			focus = SOV_Red_Fleet
		}
		completion_reward = {
			custom_effect_tooltip = SOV_Malyutka_Small_Submarines_tt
			hidden_effect = {
				set_technology = {
					SS_1933 = 1
				}
			}
		}
		relative_position_id = SOV_Red_Fleet
	}
	focus = {
		id = SOV_Shchuka_Medium_Submarines
		icon = GFX_GENERIC_Attack_Sub
		cost = 60
		x = 1
		y = 1
		mutually_exclusive = {
			focus = SOV_Malyutka_Small_Submarines
		}
		prerequisite = {
			focus = SOV_Red_Fleet
		}
		available = {
			set_temp_variable = {
				amount_of_money_to_check = 200
			}
			has_specific_amount_of_money_with_inflation_included = yes
		}
		completion_reward = {
			custom_effect_tooltip = SOV_Shchuka_Medium_Submarines_tt
			set_temp_variable = {
				money_to_gain = -200
			}
			add_money_with_inflation_included_with_tooltip_effect = yes
			hidden_effect = {
				set_technology = {
					SS_1933 = 1
				}
			}
			add_tech_bonus = {
				name = SOV_Shchuka_Medium_Submarines
				uses = 1
				bonus = 1
				technology = SS_1936
			}
		}
		relative_position_id = SOV_Red_Fleet
	}
	focus = {
		id = SOV_Leningrad_Destroyers
		icon = GFX_GENERIC_Destroyer
		cost = 60
		x = 3
		y = 1
		prerequisite = {
			focus = SOV_Red_Fleet
		}
		completion_reward = {
		}
		relative_position_id = SOV_Red_Fleet
	}
	focus = {
		id = SOV_Modernist_Fleet
		icon = GFX_GENERIC_Navy
		cost = 60
		x = -2
		y = 2
		mutually_exclusive = {
			focus = SOV_Large_Oceangoing_Fleet
		}
		prerequisite = {
			focus = SOV_Malyutka_Small_Submarines
			focus = SOV_Shchuka_Medium_Submarines
		}
		prerequisite = {
			focus = SOV_Kirov_Cruisers
		}
		prerequisite = {
			focus = SOV_Leningrad_Destroyers
		}
		completion_reward = {
		}
		relative_position_id = SOV_Red_Fleet
	}
	focus = {
		id = SOV_Morskoy_Bombardirovshchik
		icon = GFX_GENERIC_ASW_Tactics
		cost = 60
		x = -4
		y = 3
		prerequisite = {
			focus = SOV_Modernist_Fleet
		}
		completion_reward = {
		}
		relative_position_id = SOV_Red_Fleet
	}
	focus = {
		id = SOV_Chapaev_Light_Cruisers
		icon = GFX_GENERIC_Missile_Cruiser
		cost = 60
		x = -2
		y = 3
		prerequisite = {
			focus = SOV_Modernist_Fleet
		}
		completion_reward = {
		}
		relative_position_id = SOV_Red_Fleet
	}
	focus = {
		id = SOV_Black_Sea_Young_School
		icon = GFX_GENERIC_Expand_the_University
		cost = 60
		x = -3
		y = 4
		prerequisite = {
			focus = SOV_Morskoy_Bombardirovshchik
		}
		prerequisite = {
			focus = SOV_Chapaev_Light_Cruisers
		}
		completion_reward = {
		}
		relative_position_id = SOV_Red_Fleet
	}
	focus = {
		id = SOV_Submarine_Revolution
		icon = GFX_GENERIC_Heavy_Submarine
		cost = 60
		x = 0
		y = 3
		prerequisite = {
			focus = SOV_Modernist_Fleet
			focus = SOV_Large_Oceangoing_Fleet
		}
		completion_reward = {
		}
		relative_position_id = SOV_Red_Fleet
	}
	focus = {
		id = SOV_Sevastopol_Krepost
		icon = GFX_GENERIC_Anti_Air_Units
		cost = 60
		x = -1
		y = 4
		prerequisite = {
			focus = SOV_Submarine_Revolution
		}
		completion_reward = {
		}
		relative_position_id = SOV_Red_Fleet
	}
	focus = {
		id = SOV_Morskaya_Pekhota
		icon = GFX_SOV_Red_Marines
		cost = 60
		x = 1
		y = 4
		prerequisite = {
			focus = SOV_Submarine_Revolution
		}
		completion_reward = {
		}
		relative_position_id = SOV_Red_Fleet
	}
	focus = {
		id = SOV_Sovetsky_Soyuz_Super_Dreadnoughts
		icon = GFX_GENERIC_Battleship
		cost = 60
		x = 2
		y = 3
		prerequisite = {
			focus = SOV_Large_Oceangoing_Fleet
		}
		completion_reward = {
		}
		relative_position_id = SOV_Red_Fleet
	}
	focus = {
		id = SOV_Kronshtadt_Battle_Cruisers
		icon = GFX_GENERIC_Missile_Battlecruiser
		cost = 60
		x = 4
		y = 3
		prerequisite = {
			focus = SOV_Large_Oceangoing_Fleet
		}
		completion_reward = {
		}
		relative_position_id = SOV_Red_Fleet
	}
	focus = {
		id = SOV_Pacific_Military_School
		icon = GFX_GENERIC_Naval_School
		cost = 60
		x = 3
		y = 4
		prerequisite = {
			focus = SOV_Sovetsky_Soyuz_Super_Dreadnoughts
		}
		prerequisite = {
			focus = SOV_Kronshtadt_Battle_Cruisers
		}
		completion_reward = {
		}
		relative_position_id = SOV_Red_Fleet
	}
	focus = {
		id = SOV_Large_Oceangoing_Fleet
		icon = GFX_GENERIC_Fleet_in_Being
		cost = 60
		x = 2
		y = 2
		mutually_exclusive = {
			focus = SOV_Modernist_Fleet
		}
		prerequisite = {
			focus = SOV_Malyutka_Small_Submarines
			focus = SOV_Shchuka_Medium_Submarines
		}
		prerequisite = {
			focus = SOV_Kirov_Cruisers
		}
		prerequisite = {
			focus = SOV_Leningrad_Destroyers
		}
		completion_reward = {
		}
		relative_position_id = SOV_Red_Fleet
	}
	focus = {
		id = SOV_The_Second_Five_Year_Plan
		icon = GFX_SOV_Five_Year_Plan
		cost = 60
		x = 32
		y = 0
		allow_branch = {
			NOT = {
				has_country_flag = SOV_Five_Year_Plan_Completed_flag
			}
		}
		completion_reward = {
			unlock_decision_category_tooltip = SOV_Second_Five_Year_Plan_category
			set_variable = {
				var = SOV_Number_of_Completed_Decisions
				value = 0
			}
			custom_effect_tooltip = SOV_Locking_of_Second_Five_Year_Plan
		}
	}
	focus = {
		id = SOV_The_Third_Five_Year_Plan
		icon = GFX_SOV_Portray_A_Global_Soviet_Image
		cost = 60
		x = 32
		y = 4
		offset = {
			trigger = {
				has_country_flag = SOV_Five_Year_Plan_Completed_flag
			}
			y = -4
		}
		available = {
			has_country_flag = SOV_Five_Year_Plan_Completed_flag
		}
		completion_reward = {
			if = {
				limit = {
					has_idea = SOV_Soviet_Collectivization
				}
				remove_ideas = SOV_Soviet_Collectivization
			}
			else_if = {
				limit = {
					has_idea = SOV_Soviet_Collectivization1
				}
				remove_ideas = SOV_Soviet_Collectivization1
			}
			else_if = {
				limit = {
					has_idea = SOV_Soviet_Collectivization2
				}
				remove_ideas = SOV_Soviet_Collectivization2
			}
			else_if = {
				limit = {
					has_idea = SOV_Soviet_Collectivization3
				}
				remove_ideas = SOV_Soviet_Collectivization3
			}
			add_ideas = SOV_Promote_Kolkoz_farms_1
		}
	}
	focus = {
		id = SOV_BT_Cavalry_Tanks
		icon = GFX_SOV_BT_Cavalry_Tanks
		cost = 60
		prerequisite = {
			focus = SOV_Red_Army
		}
		mutually_exclusive = {
			focus = SOV_Multi_Turreted_Tanks
		}
		x = -1
		y = 1
		relative_position_id = SOV_Red_Army
		completion_reward = {
			add_tech_bonus = {
				bonus = 1
				uses = 2
				category = cat_light_armor
			}
		}
	}
	focus = {
		id = SOV_Aviation_Cult
		icon = GFX_focus_YUG_ikarus
		cost = 60
		prerequisite = {
			focus = SOV_Red_Army_Airforce
		}
		x = 0
		y = 1
		relative_position_id = SOV_Red_Army_Airforce
	}
	focus = {
		id = SOV_Women_in_Aviation
		icon = GFX_goal_generic_air_fighter2
		cost = 60
		prerequisite = {
			focus = SOV_Aviation_Cult
		}
		x = 0
		y = 2
		relative_position_id = SOV_Red_Army_Airforce
	}
	focus = {
		id = SOV_Multi_Turreted_Tanks
		icon = GFX_SOV_Multi_Turreted_Tanks
		cost = 60
		prerequisite = {
			focus = SOV_Red_Army
		}
		mutually_exclusive = {
			focus = SOV_BT_Cavalry_Tanks
		}
		x = 1
		y = 1
		relative_position_id = SOV_Red_Army
		completion_reward = {
			add_tech_bonus = {
				bonus = 1
				uses = 2
				category = cat_heavy_armor
				category = cat_medium_armor
			}
		}
	}
	focus = {
		id = SOV_Tupovlev_SB
		icon = GFX_goal_generic_air_bomber
		cost = 60
		prerequisite = {
			focus = SOV_Red_Army_Airforce
		}
		x = 2
		y = 1
		relative_position_id = SOV_Red_Army_Airforce
	}
	focus = {
		id = SOV_Transpolar_Flight
		icon = GFX_SOV_Transpolar_Flight
		cost = 60
		prerequisite = {
			focus = SOV_Tupovlev_SB
		}
		x = 2
		y = 2
		relative_position_id = SOV_Red_Army_Airforce
		completion_reward = {
			custom_effect_tooltip = SOV_Transpolar_Flight_tt
			random_list = {
				80 = {
					news_event = {
						id = SOV_Transpolar_Flight.1
						days = 1
					}
				}
				20 = {
					country_event = {
						id = SOV_Transpolar_Flight.2
						days = 1
					}
				}
			}
		}
	}
	focus = {
		id = SOV_Propagate_an_Industrial_Ethos
		icon = GFX_focus_eng_crush_the_dream
		cost = 60
		prerequisite = {
			focus = SOV_The_Second_Five_Year_Plan
		}
		x = 5
		y = 1
		relative_position_id = SOV_The_Second_Five_Year_Plan
		completion_reward = {
			add_ideas = SOV_Industrial_Ethos
			add_political_power = 50
		}
	}
	focus = {
		id = SOV_Experiment_with_Material_Incentives_for_Labor
		icon = GFX_focus_mex_triumph_over_the_cristeros
		cost = 60
		prerequisite = {
			focus = SOV_Propagate_an_Industrial_Ethos
		}
		x = 6
		y = 2
		relative_position_id = SOV_The_Second_Five_Year_Plan
		completion_reward = {
			set_temp_variable = {
				money_to_gain = -200
			}
			add_money_with_inflation_included_with_tooltip_effect = yes
			add_political_power = -50
			swap_ideas = {
				remove_idea = SOV_Industrial_Ethos
				add_idea = SOV_Industrial_Ethos1
			}
		}
	}
	focus = {
		id = SOV_Soften_AntiPeasent_Legislation
		icon = GFX_SOV_Soften_AP_Leagues
		cost = 60
		prerequisite = {
			focus = SOV_Overcome_Dizziness_from_Success
		}
		relative_position_id = SOV_Overcome_Dizziness_from_Success
		x = -1
		y = 1
		completion_reward = {
			add_political_power = -50
			add_stability = 0.05
			#country_event = SOV_amendments_to_the_law_on_three_spiketeta_chain
		}
	}
	focus = {
		id = SOV_Prepare_Return_of_Citizens_Rights_for_Kulaks
		icon = GFX_SOV_Kulak_Rights
		cost = 60
		prerequisite = {
			focus = SOV_Overcome_Dizziness_from_Success
		}
		relative_position_id = SOV_Overcome_Dizziness_from_Success
		x = 1
		y = 1
		completion_reward = {
			add_political_power = -50
			add_stability = 0.05
			#country_event = SOV_discussion_on_return_of_zitizens_rights_for_llehental_chain
		}
	}
	focus = {
		id = SOV_Gigantonmanic_Agrotowns
		icon = GFX_SOV_Giga_Agrotowns
		cost = 60
		prerequisite = {
			focus = SOV_Continue_Hard_Line
		}
		relative_position_id = SOV_Continue_Hard_Line
		x = -1
		y = 1
		completion_reward = {
			add_political_power = 75
			add_stability = -0.05
			200 = {
				add_extra_state_shared_building_slots = 4
				add_building_construction = {
					type = industrial_complex
					level = 2
					instant_build = yes
				}
			}
			259 = {
				add_extra_state_shared_building_slots = 4
				add_building_construction = {
					type = industrial_complex
					level = 2
					instant_build = yes
				}
			}
			225 = {
				add_extra_state_shared_building_slots = 4
				add_building_construction = {
					type = industrial_complex
					level = 2
					instant_build = yes
				}
			}
			#country_event = SOV_growing_peasent_discontent_chain
		}
	}
	focus = {
		id = SOV_Toughen_AntiPeasent_Legislation
		icon = GFX_SOV_Thoughten_AP_Leagues
		cost = 60
		prerequisite = {
			focus = SOV_Continue_Hard_Line
		}
		relative_position_id = SOV_Continue_Hard_Line
		x = 1
		y = 1
		completion_reward = {
			add_political_power = 50
			add_stability = -0.05
			add_war_support = -0.05
			#country_event = SOV_amendements_to_the_law_on_three_spiketeta_chain
		}
	}
	focus = {
		id = SOV_XVII_Congress
		icon = GFX_SOV_Soviet_Democracy
		cost = 60
		prerequisite = {
			focus = SOV_Soften_AntiPeasent_Legislation
			focus = SOV_Toughen_AntiPeasent_Legislation
		}
		relative_position_id = SOV_Prepare_Return_of_Citizens_Rights_for_Kulaks
		x = 1
		y = 1
		available = {
			always = no
		}
	}
	focus = {
		id = SOV_NKVD_Agency
		icon = GFX_SOV_NKVD
		cost = 60
		prerequisite = {
			focus = SOV_XVII_Congress
		}
		x = 8
		y = 1
		relative_position_id = SOV_XVII_Congress
		completion_reward = {
			create_intelligence_agency = {
				name = "NKVD"
				icon = "GFX_intelligence_agency_logo_sov"
			}
			add_ideas = SOV_NKVD_1
			add_political_power = 50
		}
	}
	focus = {
		id = SOV_Yagodas_Iron_Fist
		icon = GFX_SOV_NKVD_Yagoda
		cost = 60
		prerequisite = {
			focus = SOV_NKVD_Agency
		}
		mutually_exclusive = {
			focus = SOV_Agranovs_Pragmatic_Approach
		}
		relative_position_id = SOV_NKVD_Agency
		x = -1
		y = 1
		completion_reward = {
			add_political_power = -50
			add_ideas = SOV_MoS_Genrikh_G_Yagoda
		}
	}
	focus = {
		id = SOV_Agranovs_Pragmatic_Approach
		icon = GFX_SOV_NKVD_Agranov
		cost = 60
		prerequisite = {
			focus = SOV_NKVD_Agency
		}
		mutually_exclusive = {
			focus = SOV_Yagodas_Iron_Fist
		}
		relative_position_id = SOV_NKVD_Agency
		x = 1
		y = 1
		completion_reward = {
			add_political_power = -100
			add_ideas = SOV_MoS_Yakov_Agranov
		}
	}
	focus = {
		id = SOV_Gulag_Based_Economic_Programs
		icon = GFX_SOV_Gulag
		cost = 60
		prerequisite = {
			focus = SOV_Agranovs_Pragmatic_Approach
			focus = SOV_Yagodas_Iron_Fist
		}
		x = 0
		y = 1
		relative_position_id = SOV_Yagodas_Iron_Fist
		completion_reward = {
			add_ideas = SOV_Gulag_Based_Economy_Projects
		}
	}
	focus = {
		id = SOV_Socialist_Justice
		icon = GFX_SOV_Socialist_Justice
		cost = 60
		prerequisite = {
			focus = SOV_Agranovs_Pragmatic_Approach
			focus = SOV_Yagodas_Iron_Fist
		}
		relative_position_id = SOV_Agranovs_Pragmatic_Approach
		x = 0
		y = 1
		completion_reward = {
			add_political_power = 125
			add_stability = 0.05
			add_ideas = SOV_FM_Andrey_J_Vyshinsky
		}
	}
	focus = {
		id = SOV_Stability_in_the_State_Change_in_the_Party
		icon = GFX_SOV_Stability_in_the_State_Change_in_the_Party
		cost = 60
		prerequisite = {
			focus = SOV_XVII_Congress
		}
		mutually_exclusive = {
			focus = SOV_Return_to_Lenins_Traditions
			focus = SOV_Navigating_the_Storm
		}
		relative_position_id = SOV_XVII_Congress
		x = 3
		y = 1
		available = {
			always = no
		}
	}
	focus = {
		id = SOV_Return_to_Lenins_Traditions
		icon = GFX_SOV_Return_to_Lenins_Traditions
		cost = 60
		prerequisite = {
			focus = SOV_XVII_Congress
		}
		mutually_exclusive = {
			focus = SOV_Stability_in_the_State_Change_in_the_Party
			focus = SOV_Navigating_the_Storm
		}
		relative_position_id = SOV_XVII_Congress
		x = 5
		y = 1
		available = {
			OR = {
				has_idea = SOV_MoS_Yakov_Agranov
				has_idea = SOV_MoS_Genrikh_G_Yagoda
			}
		}
		completion_reward = {
			add_political_power = 50
			#country_event = { id =
		}
	}
	focus = {
		id = SOV_Crises_in_the_Kremlin
		icon = GFX_SOV_Rule_by_Force
		cost = 60
		prerequisite = {
			focus = SOV_Return_to_Lenins_Traditions
			focus = SOV_Stability_in_the_State_Change_in_the_Party
		}
		relative_position_id = SOV_Stability_in_the_State_Change_in_the_Party
		x = 1
		y = 1
		completion_reward = {
			add_political_power = -100
			add_ideas = SOV_Reign_of_Terror
		}
	}
	focus = {
		id = SOV_Stalin_Outmaneuvered
		icon = GFX_SOV_Stalin_Outmaneuvered
		cost = 60
		prerequisite = {
			focus = SOV_Crises_in_the_Kremlin
		}
		relative_position_id = SOV_Crises_in_the_Kremlin
		x = 0
		y = 1
		available = {
			always = no
		}
	}
	focus = {
		id = SOV_Navigating_the_Storm
		icon = GFX_SOV_Navigating_the_Storm
		cost = 60
		prerequisite = {
			focus = SOV_XVII_Congress
		}
		mutually_exclusive = {
			focus = SOV_Return_to_Lenins_Traditions
			focus = SOV_Stability_in_the_State_Change_in_the_Party
		}
		relative_position_id = SOV_XVII_Congress
		x = 0
		y = 1
		available = {
			always = no
		}
	}
	focus = {
		id = SOV_Denounce_the_Zinovievites
		icon = GFX_focus_CZE_german_puppet
		cost = 25
		prerequisite = {
			focus = SOV_Navigating_the_Storm
		}
		relative_position_id = SOV_Navigating_the_Storm
		x = -1
		y = 1
		completion_reward = {
			add_political_power = 50
			#country_event = SOV_the_trial_of_the_Foruteen
		}
	}
	focus = {
		id = SOV_Supress_Socially_Alien_Elements
		icon = GFX_focus_eng_move_to_secure_the_dominions
		cost = 56
		prerequisite = {
			focus = SOV_Navigating_the_Storm
		}
		relative_position_id = SOV_Navigating_the_Storm
		x = 1
		y = 1
		completion_reward = {
			#Repression of 12k people in response to murder
		}
	}
	# focus = {
	# 	id = SOV_Order_The_Execution_of_The_Opposition_Leaders
	# 	icon = GFX_SOV_Moscow_Trials
	# 	cost = 60
	# 	prerequisite = {
	# 		focus = SOV_Denounce_the_Zinovievites
	# 	}
	# 	prerequisite = {
	# 		focus = SOV_Supress_Socially_Alien_Elements
	# 	}
	# 	relative_position_id = SOV_Denounce_the_Zinovievites
	# 	x = 1
	# 	y = 1
	# 	available = {
	# 		has_political_power > 149
	# 	}
	# 	completion_reward = {
	# 		add_political_power = -150
	# 		remove_ideas = {
	# 			SOV_MoS_Nikolai_Bukharin
	# 			SOV_AM_Lev_Kamenev
	# 			SOV_D_Sergey_Kirov
	# 		}
	# 	}
	# }
	focus = {
		id = SOV_Consolidate_Power
		icon = GFX_SOV_Proletariat_Dictatorship
		cost = 60
		prerequisite = {
			focus = SOV_Denounce_the_Zinovievites
		}
		prerequisite = {
			focus = SOV_Supress_Socially_Alien_Elements
		}
		relative_position_id = SOV_Denounce_the_Zinovievites
		x = 1
		y = 1
		completion_reward = {
		}
	}
	focus = {
		id = SOV_Contain_the_German_Threat
		icon = GFX_ITA_Stressa_Front
		cost = 60
		prerequisite = {
			focus = SOV_Maintain_the_Litvinov_Protocol
		}
		x = -1
		y = 1
		relative_position_id = SOV_Maintain_the_Litvinov_Protocol
	}
	focus = {
		id = SOV_Collective_Security
		icon = GFX_GER_Collective_Values
		cost = 60
		prerequisite = {
			focus = SOV_Maintain_the_Litvinov_Protocol
		}
		x = 1
		y = 1
		relative_position_id = SOV_Maintain_the_Litvinov_Protocol
		completion_reward = {
			add_political_power = 50
		}
	}
	focus = {
		id = SOV_Peoples_Front_Theory
		icon = GFX_SOV_Peoples_Front_Theory
		cost = 60
		prerequisite = {
			focus = SOV_Contain_the_German_Threat
		}
		prerequisite = {
			focus = SOV_Collective_Security
		}
		x = 0
		y = 2
		relative_position_id = SOV_Maintain_the_Litvinov_Protocol
		completion_reward = {
			add_political_power = 100
			set_country_flag = comintern_people_front
		}
	}
	focus = {
		id = SOV_Reinforce_Third_Periodism
		icon = GFX_SOV_Reinforce_the_Third_Periodist_Theory
		cost = 60
		prerequisite = {
			focus = SOV_Replace_Litvinov
		}
		mutually_exclusive = {
			focus = SOV_Ignore_the_Kellogg_Briand_Pact
		}
		x = 3
		y = 1
		relative_position_id = SOV_Maintain_the_Litvinov_Protocol
		available = {
			NOT = {
				OR = {
					has_country_leader = {
						name = "Joseph Stalin"
					}
					has_country_leader = {
						name = "Sergey Kirov"
					}
				}
			}
		}
		completion_reward = {
			set_country_flag = comintern_third_periodism
		}
	}
	focus = {
		id = SOV_Ignore_the_Kellogg_Briand_Pact
		icon = GFX_SOV_Ignore_the_Kellog_Briand_Pact
		cost = 60
		prerequisite = {
			focus = SOV_Replace_Litvinov
		}
		mutually_exclusive = {
			focus = SOV_Reinforce_Third_Periodism
		}
		x = 5
		y = 1
		relative_position_id = SOV_Maintain_the_Litvinov_Protocol
		available = {
		}
		completion_reward = {
			set_country_flag = comintern_warmonger
		}
	}
	focus = {
		id = SOV_Direct_Rule_from_Moscow
		icon = GFX_SOV_Direct_Rule_from_Moscow
		cost = 60
		prerequisite = {
			focus = SOV_Reinforce_Third_Periodism
			focus = SOV_Ignore_the_Kellogg_Briand_Pact
		}
		x = 4
		y = 2
		relative_position_id = SOV_Maintain_the_Litvinov_Protocol
		completion_reward = {
			add_political_power = 200
		}
	}
	focus = {
		id = SOV_Seventh_World_Congress_of_the_Comintern
		icon = GFX_SOV_Portray_A_Global_Soviet_Image
		cost = 60
		prerequisite = {
			focus = SOV_Peoples_Front_Theory
			focus = SOV_Direct_Rule_from_Moscow
		}
		x = -1
		y = 3
		relative_position_id = SOV_Maintain_the_Litvinov_Protocol
	}
	focus = {
		id = SOV_The_Litvinov_Doctrine
		icon = GFX_SOV_Litvinov_Doctrine
		cost = 60
		prerequisite = {
			focus = SOV_Seventh_World_Congress_of_the_Comintern
		}
		mutually_exclusive = {
			focus = SOV_Molotov_Doctrine
		}
		x = -2
		y = 4
		relative_position_id = SOV_Maintain_the_Litvinov_Protocol
	}
	focus = {
		id = SOV_Molotov_Doctrine
		icon = GFX_SOV_Molotov_Doctrine
		cost = 60
		prerequisite = {
			focus = SOV_Seventh_World_Congress_of_the_Comintern
		}
		mutually_exclusive = {
			focus = SOV_The_Litvinov_Doctrine
		}
		x = 0
		y = 4
		relative_position_id = SOV_Maintain_the_Litvinov_Protocol
	}
	focus = {
		id = SOV_Peoples_Commissariat_of_Defense
		icon = GFX_SOV_Peoples_Army
		cost = 15
		prerequisite = {
			focus = SOV_BT_Cavalry_Tanks
			focus = SOV_Multi_Turreted_Tanks
		}
		x = 1
		y = 1
		relative_position_id = SOV_BT_Cavalry_Tanks
		completion_reward = {
			army_experience = 10
			add_political_power = 125
			add_tech_bonus = {
				uses = 1
				bonus = 0.5
				category = land_doctrine
			}
		}
	}
	focus = {
		id = SOV_Kiev_Maneuvers
		icon = GFX_SOV_Kiev_Maneuvers
		cost = 20
		prerequisite = {
			focus = SOV_Peoples_Commissariat_of_Defense
		}
		x = -2
		y = 1
		relative_position_id = SOV_Peoples_Commissariat_of_Defense
		completion_reward = {
			army_experience = 25
			add_tech_bonus = {
				uses = 1
				bonus = 1
				category = land_doctrine
			}
			add_tech_bonus = {
				uses = 1
				bonus = 1
				category = air_doctrine
			}
			add_tech_bonus = {
				uses = 1
				bonus = 1
				technology = paratroopers
				technology = paratroopers2
				technology = paratroopers3
			}
		}
	}
	focus = {
		id = SOV_Reorganize_the_Red_Army
		icon = GFX_GENERIC_Drafted_Army
		cost = 20
		prerequisite = {
			focus = SOV_Peoples_Commissariat_of_Defense
		}
		x = 2
		y = 0
		relative_position_id = SOV_Kiev_Maneuvers
		completion_reward = {
			add_political_power = 100
			#event to reform the red army
		}
	}
	focus = {
		id = SOV_Mass_Mechanization
		icon = GFX_GENERIC_Mechanization
		cost = 15
		prerequisite = {
			focus = SOV_Peoples_Commissariat_of_Defense
		}
		x = 2
		y = 1
		relative_position_id = SOV_Peoples_Commissariat_of_Defense
		completion_reward = {
			add_tech_bonus = {
				uses = 1
				bonus = 0.3
				category = cat_mechanized_equipment
			}
			add_timed_idea = {
				idea = SOV_mass_mechanization
				days = 300
			}
		}
	}
	focus = {
		id = SOV_Tukhachevskys_Reformists
		icon = GFX_SOV_Tukhachevskys_Reformists
		cost = 60
		prerequisite = {
			focus = SOV_Kiev_Maneuvers
		}
		prerequisite = {
			focus = SOV_Mass_Mechanization
		}
		mutually_exclusive = {
			focus = SOV_Voroshilovs_Old_Guard
		}
		x = -4
		y = 1
		relative_position_id = SOV_Mass_Mechanization
		completion_reward = {
			add_political_power = 50
			add_ideas = SOV_CoStaff_Mikhail_N_Tukhatchevskiy
		}
	}
	focus = {
		id = SOV_Voroshilovs_Old_Guard
		icon = GFX_SOV_Voroshilovs_Old_Guard
		cost = 60
		prerequisite = {
			focus = SOV_Reorganize_the_Red_Army
		}
		prerequisite = {
			focus = SOV_Mass_Mechanization
		}
		mutually_exclusive = {
			focus = SOV_Tukhachevskys_Reformists
		}
		x = 0
		y = 1
		relative_position_id = SOV_Mass_Mechanization
		completion_reward = {
			add_political_power = 150
			add_timed_idea = {
				idea = SOV_Voroshiloctchina
				days = 600
			}
		}
	}
	focus = {
		id = SOV_Tactical_Deep_Battle
		icon = GFX_GENERIC_Grand_Battleplan
		cost = 60
		prerequisite = {
			focus = SOV_Tukhachevskys_Reformists
		}
		x = -2
		y = 1
		relative_position_id = SOV_Tukhachevskys_Reformists
		completion_reward = {
			add_tech_bonus = {
				bonus = 1
				uses = 2
				category = land_doctrine
			}
		}
	}
	focus = {
		id = SOV_Koshkins_Tank_Design
		icon = GFX_GENERIC_Tank_Destroyers
		cost = 60
		prerequisite = {
			focus = SOV_Tukhachevskys_Reformists
		}
		x = 0
		y = 1
		relative_position_id = SOV_Tukhachevskys_Reformists
		completion_reward = {
			add_tech_bonus = {
				bonus = 1
				uses = 3
				category = cat_medium_armor
			}
		}
	}
	focus = {
		id = SOV_Reaktivnyy_Snaryad
		icon = GFX_focus_generic_tank_production
		cost = 60
		prerequisite = {
			focus = SOV_Tukhachevskys_Reformists
			focus = SOV_Voroshilovs_Old_Guard
		}
		x = 2
		y = 1
		relative_position_id = SOV_Tukhachevskys_Reformists
		completion_reward = {
			add_tech_bonus = {
				bonus = 1
				uses = 3
				category = cat_medium_armor
			}
		}
	}
	focus = {
		id = SOV_Mass_Mobilization
		icon = GFX_GENERIC_Mass_Assault
		cost = 15
		prerequisite = {
			focus = SOV_Voroshilovs_Old_Guard
		}
		x = 0
		y = 1
		relative_position_id = SOV_Voroshilovs_Old_Guard
		bypass = {
			has_idea = three_year_service
		}
		completion_reward = {
			add_ideas = three_year_service
		}
	}
	focus = {
		id = SOV_Defense_in_Depth
		icon = GFX_goal_generic_fortify_city
		cost = 60
		prerequisite = {
			focus = SOV_Voroshilovs_Old_Guard
		}
		x = 2
		y = 1
		relative_position_id = SOV_Voroshilovs_Old_Guard
	}
	focus = {
		id = SOV_STAVKA
		icon = GFX_focus_generic_military_mission
		cost = 20
		prerequisite = {
			focus = SOV_Tactical_Deep_Battle
			focus = SOV_Mass_Mobilization
		}
		prerequisite = {
			focus = SOV_Koshkins_Tank_Design
			focus = SOV_Defense_in_Depth
		}
		x = 0
		y = 1
		relative_position_id = SOV_Reaktivnyy_Snaryad
		completion_reward = {
		}
	}
	focus = {
		id = SOV_Deep_Battle_Plan
		icon = GFX_SOV_Mechanized_Wave
		cost = 20
		prerequisite = {
			focus = SOV_STAVKA
		}
		mutually_exclusive = {
			focus = SOV_Human_Wave_Tactics
		}
		x = -1
		y = 1
		relative_position_id = SOV_STAVKA
		completion_reward = {
			add_tech_bonus = {
				uses = 1
				bonus = 2
				category = land_doctrine
			}
			add_tech_bonus = {
				uses = 1
				bonus = 1
				category = air_doctrine
			}
			add_tech_bonus = {
				uses = 1
				bonus = 0.5
				category = naval_doctrine
			}
		}
	}
	focus = {
		id = SOV_Human_Wave_Tactics
		icon = GFX_SOV_Human_Wave
		cost = 20
		prerequisite = {
			focus = SOV_STAVKA
		}
		mutually_exclusive = {
			focus = SOV_Deep_Battle_Plan
		}
		x = 1
		y = 1
		relative_position_id = SOV_STAVKA
		completion_reward = {
		}
	}
	focus = {
		id = SOV_Samokhodnaya_Ustanovka
		icon = GFX_GENERIC_MBT
		cost = 15
		prerequisite = {
			focus = SOV_Deep_Battle_Plan
			focus = SOV_Human_Wave_Tactics
		}
		x = 1
		y = 1
		relative_position_id = SOV_Deep_Battle_Plan
		completion_reward = {
		}
	}
	focus = {
		id = SOV_Reinvigorate_Heavy_Tank_Designs
		icon = GFX_GENERIC_Military_Academy
		cost = 15
		prerequisite = {
			focus = SOV_Deep_Battle_Plan
		}
		x = -3
		y = 1
		relative_position_id = SOV_Deep_Battle_Plan
		completion_reward = {
		}
	}
	focus = {
		id = SOV_Guard_Units
		icon = GFX_SOV_Red_Guard
		cost = 15
		prerequisite = {
			focus = SOV_Deep_Battle_Plan
		}
		x = -1
		y = 1
		relative_position_id = SOV_Deep_Battle_Plan
		available = {
			has_war = yes
		}
		completion_reward = {
			army_experience = 50
		}
	}
	focus = {
		id = SOV_Shock_Army
		icon = GFX_focus_generic_combined_arms
		cost = 60
		prerequisite = {
			focus = SOV_Human_Wave_Tactics
		}
		x = 3
		y = 1
		relative_position_id = SOV_Deep_Battle_Plan
	}
	focus = {
		id = SOV_Massive_Partisan_Effort
		icon = GFX_focus_prc_infiltration
		cost = 60
		prerequisite = {
			focus = SOV_Human_Wave_Tactics
		}
		x = 3
		y = 1
		relative_position_id = SOV_Human_Wave_Tactics
	}
	focus = {
		id = SOV_Morozovs_Armored_Evolution
		icon = GFX_SOV_T55
		cost = 60
		prerequisite = {
			focus = SOV_Guard_Units
		}
		prerequisite = {
			focus = SOV_Reinvigorate_Heavy_Tank_Designs
		}
		x = 0
		y = 1
		relative_position_id = SOV_Guard_Units
		completion_reward = {
			add_tech_bonus = {
				uses = 1
				bonus = 0.5
				ahead_reduction = 0.75
				technology = Rocket_Artillery_1940
				technology = Rocket_Artillery_1942
			}
		}
	}
	focus = {
		id = SOV_Concentrated_Artillery_Barrages
		icon = GFX_GENERIC_Rocket_Artillery
		cost = 60
		prerequisite = {
			focus = SOV_Shock_Army
		}
		prerequisite = {
			focus = SOV_Massive_Partisan_Effort
		}
		x = 0
		y = 1
		relative_position_id = SOV_Shock_Army
		completion_reward = {
			add_tech_bonus = {
				uses = 1
				bonus = 0.75
				ahead_reduction = 0.75
				category = artillery
			}
		}
	}
	focus = {
		id = SOV_Abolish_System_of_Rationing
		icon = GFX_GENERIC_Populist_Politics
		cost = 60
		prerequisite = {
			focus = SOV_Introduce_Childcare
		}
		prerequisite = {
			focus = SOV_Experiment_with_Material_Incentives_for_Labor
		}
		x = 5
		y = 3
		relative_position_id = SOV_The_Second_Five_Year_Plan
		completion_reward = {
			add_political_power = 50
			swap_ideas = {
				remove_idea = SOV_Industrial_Ethos1
				add_idea = SOV_Industrial_Ethos2
			}
		}
	}
	focus = {
		id = SOV_The_Stalin_Constitution
		icon = GFX_SOV_Stalin_Constitution
		cost = 60
		prerequisite = {
			focus = SOV_Consolidate_Power
		}
		prerequisite = {
			focus = SOV_Peoples_Front_Theory
			focus = SOV_Direct_Rule_from_Moscow
		}
		relative_position_id = SOV_Consolidate_Power
		x = -5
		y = 1
		available = {
			date > 1936.7.1
		}
		completion_reward = {
			news_event = {
				id = SOV_Stalin_Constitution.1
				hours = 6
			}
		}
	}
	focus = {
		id = SOV_Start_the_Great_Purge
		icon = GFX_SOV_Great_Purge
		cost = 56
		prerequisite = {
			focus = SOV_Consolidate_Power
		}
		prerequisite = {
			focus = SOV_Socialist_Justice
			focus = SOV_Gulag_Based_Economic_Programs
		}
		relative_position_id = SOV_Consolidate_Power
		x = 5
		y = 1
		select_effect = {
			set_country_flag = SOV_purge_started
			set_country_flag = SOV_Great_Purge_Phase_1
			set_country_flag = SOV_Yagoda_Chief_of_NKVD
			set_country_flag = SOV_Agranov_Deputy_of_NKVD
			country_event = {
				id = SOV_Great_Purge.1
				hours = 6
			}
			set_variable = {
				var = SOV_Stalin_Paranoia
				value = 75
			}
			set_variable = {
				var = SOV_Stalin_Paranoia_Change
				value = 0.01
			}
			clamp_variable = {
				var = SOV_Stalin_Paranoia
				min = 0
				max = 100
			}
			clamp_variable = {
				var = SOV_Stalin_Paranoia_Change
				min = 0
				max = 0.05
			}
		}
		completion_reward = {
			country_event = {
				id = SOV_Great_Purge.2
				hours = 6
			}
			unlock_decision_category_tooltip = SOV_The_Great_Purge
		}
	}
	focus = {
		id = SOV_The_Leningrad_Circle
		icon = GFX_SOV_Leningrad_Circle
		cost = 60
		available = {
			always = no
		}
		prerequisite = {
			focus = SOV_Start_the_Great_Purge
		}
		mutually_exclusive = {
			focus = SOV_The_Moscow_Trials
			focus = SOV_The_Manchurian_Candidate
		}
		relative_position_id = SOV_Start_the_Great_Purge
		x = -1
		y = 1
		completion_reward = {
			custom_effect_tooltip = DH_FOR_0.2
		}
	}
	focus = {
		id = SOV_The_Moscow_Trials
		icon = GFX_SOV_Moscow_Trials
		cost = 60
		available = {
			always = no
		}
		prerequisite = {
			focus = SOV_Start_the_Great_Purge
		}
		mutually_exclusive = {
			focus = SOV_The_Leningrad_Circle
			focus = SOV_The_Manchurian_Candidate
		}
		relative_position_id = SOV_Start_the_Great_Purge
		x = 1
		y = 1
		completion_reward = {
			set_country_flag = SOV_Trial_of_the_Sixteen
			add_ideas = SOV_Mass_Political_Repression
			country_event = {
				id = SOV_Moscow_Trials.1
				hours = 6
			}
			set_temp_variable = {
				SOV_Stalin_Paranoia_gain = -5
			}
			add_to_variable = {
				SOV_Stalin_Paranoia = SOV_Stalin_Paranoia_gain
			}
			clamp_variable = {
				var = SOV_Stalin_Paranoia
				min = 0
				max = 100
			}
			custom_effect_tooltip = SOV_Stalin_Paranoia_Change_tt
		}
	}
	focus = {
		id = SOV_The_Manchurian_Candidate
		icon = GFX_SOV_Manchurian_Candidate
		cost = 60
		available = {
			always = no
		}
		prerequisite = {
			focus = SOV_Start_the_Great_Purge
		}
		mutually_exclusive = {
			focus = SOV_The_Leningrad_Circle
			focus = SOV_The_Moscow_Trials
		}
		relative_position_id = SOV_Start_the_Great_Purge
		x = 3
		y = 1
		completion_reward = {
			custom_effect_tooltip = DH_FOR_0.2
		}
	}
	focus = {
		id = SOV_Total_Party_Censorship
		icon = GFX_SOV_Total_Party_Censorship
		cost = 60
		prerequisite = {
			focus = SOV_The_Stalin_Constitution
		}
		relative_position_id = SOV_The_Stalin_Constitution
		x = -1
		y = 1
	}
	focus = {
		id = SOV_1937_Constitutional_Elections
		icon = GFX_SOV_Constitution
		cost = 60
		prerequisite = {
			focus = SOV_Total_Party_Censorship
		}
		prerequisite = {
			focus = SOV_Arrest_Political_Enemies
		}
		relative_position_id = SOV_Total_Party_Censorship
		x = 1
		y = 1
	}
	focus = {
		id = SOV_The_Bloody_Dwarf
		icon = GFX_SOV_The_Bloody_Dwarf
		cost = 60
		prerequisite = {
			focus = SOV_Start_the_Great_Purge
		}
		relative_position_id = SOV_Start_the_Great_Purge
		x = -4
		y = 1
		completion_reward = {
			add_ideas = SOV_MoS_Nikolai_I_Yezhov
			set_temp_variable = {
				SOV_Stalin_Paranoia_gain = -5
			}
			add_to_variable = {
				SOV_Stalin_Paranoia = SOV_Stalin_Paranoia_gain
			}
			clamp_variable = {
				var = SOV_Stalin_Paranoia
				min = 0
				max = 100
			}
			custom_effect_tooltip = SOV_Stalin_Paranoia_Change_tt
		}
	}
	focus = {
		id = SOV_Begin_Ethnic_Operations
		icon = GFX_SOV_Begin_Ethnic_Operations
		cost = 60
		prerequisite = {
			focus = SOV_Start_the_Great_Purge
		}
		relative_position_id = SOV_Start_the_Great_Purge
		x = -6
		y = 1
		completion_reward = {
		}
	}
	focus = {
		id = SOV_NKVD_Order_N_00447
		icon = GFX_SOV_NKVD_Order_No_00447
		cost = 60
		prerequisite = {
			focus = SOV_Begin_Ethnic_Operations
		}
		relative_position_id = SOV_Start_the_Great_Purge
		x = -6
		y = 2
		completion_reward = {
		}
	}
	focus = {
		id = SOV_Form_Mass_NKVD_Troikas
		icon = GFX_SOV_Form_Mass_NKVD_Troikas
		cost = 60
		prerequisite = {
			focus = SOV_Begin_Ethnic_Operations
		}
		relative_position_id = SOV_Start_the_Great_Purge
		x = -8
		y = 2
		completion_reward = {
		}
	}
	focus = {
		id = SOV_Further_Expand_Kulak_and_Ethnic_Operations
		icon = GFX_SOV_Stalins_Shooting_List
		cost = 60
		prerequisite = {
			focus = SOV_The_Bloody_Dwarf
		}
		relative_position_id = SOV_The_Bloody_Dwarf
		x = 0
		y = 1
		completion_reward = {
			add_ideas = SOV_Stalin_Mass_Repression
		}
	}
	focus = {
		id = SOV_NKVD_Primacy
		icon = GFX_SOV_NKVD
		cost = 60
		prerequisite = {
			focus = SOV_The_Bloody_Dwarf
		}
		relative_position_id = SOV_The_Bloody_Dwarf
		x = 2
		y = 1
	}
	focus = {
		id = SOV_Purges_in_the_Red_Army
		icon = GFX_GENERIC_Curtail_the_Military
		cost = 60
		prerequisite = {
			focus = SOV_The_Moscow_Trials
		}
		relative_position_id = SOV_The_Moscow_Trials
		x = -1
		y = 1
	}
	focus = {
		id = SOV_Tying_Loose_Ends
		icon = GFX_SOV_Red_Army
		cost = 60
		prerequisite = {
			focus = SOV_Purges_in_the_Red_Army
		}
		relative_position_id = SOV_Purges_in_the_Red_Army
		x = 0
		y = 1
	}
	focus = {
		id = SOV_NKVD_Internal_Troops
		icon = GFX_GENERIC_Political_Army
		cost = 60
		prerequisite = {
			focus = SOV_NKVD_Primacy
		}
		x = 0
		y = 1
		relative_position_id = SOV_NKVD_Primacy
		completion_reward = {
			swap_ideas = {
				remove_idea = SOV_NKVD_1
				add_idea = SOV_NKVD_2
			}
		}
	}
	focus = {
		id = SOV_Subjugate_the_NKVD
		icon = GFX_SOV_Soviet_Democracy
		cost = 60
		prerequisite = {
			focus = SOV_Stalins_Protege
			focus = SOV_The_Beria_Flight
			focus = SOV_Yezhovchina
		}
		prerequisite = {
			focus = SOV_NKVD_Internal_Troops
		}
		prerequisite = {
			focus = SOV_Tying_Loose_Ends
		}
		relative_position_id = SOV_1937_Constitutional_Elections
		x = 7
		y = 2
		completion_reward = {
		}
	}
	focus = {
		id = SOV_The_Vanishment_of_the_The_Vanishing_Commissar
		icon = GFX_SOV_Soviet_Democracy
		cost = 60
		prerequisite = {
			focus = SOV_Stalins_Protege
			focus = SOV_The_Beria_Flight
			focus = SOV_Yezhovchina
		}
		prerequisite = {
			focus = SOV_NKVD_Internal_Troops
		}
		prerequisite = {
			focus = SOV_Tying_Loose_Ends
		}
		relative_position_id = SOV_1937_Constitutional_Elections
		x = 9
		y = 2
	}
	focus = {
		id = SOV_Split_the_Security_Services
		icon = GFX_SOV_Soviet_Democracy
		cost = 60
		prerequisite = {
			focus = SOV_Subjugate_the_NKVD
			focus = SOV_The_Vanishment_of_the_The_Vanishing_Commissar
		}
		relative_position_id = SOV_Subjugate_the_NKVD
		x = 1
		y = 1
	}
	focus = {
		id = SOV_Repression_in_Aviation_Industry
		icon = GFX_SOV_Soviet_Democracy
		cost = 60
		available = {
			has_completed_focus = SOV_Give_Road_to_Young_Generation
		}
		mutually_exclusive = {
			focus = SOV_Spare_the_Aviation_Industry
		}
		prerequisite = {
			focus = SOV_Split_the_Security_Services
		}
		relative_position_id = SOV_Split_the_Security_Services
		x = -1
		y = 1
	}
	focus = {
		id = SOV_Purge_the_Red_Air_Froce
		icon = GFX_SOV_Soviet_Democracy
		cost = 60
		prerequisite = {
			focus = SOV_Split_the_Security_Services
		}
		relative_position_id = SOV_Split_the_Security_Services
		x = 1
		y = 1
	}
	focus = {
		id = SOV_Continue_the_Purges_in_the_Army
		icon = GFX_SOV_Soviet_Democracy
		cost = 60
		prerequisite = {
			focus = SOV_Repression_in_Aviation_Industry
		}
		prerequisite = {
			focus = SOV_Purge_the_Red_Air_Froce
		}
		relative_position_id = SOV_Repression_in_Aviation_Industry
		x = 1
		y = 1
	}
	focus = {
		id = SOV_Closed_Cities
		icon = GFX_goal_continuous_research
		cost = 60
		prerequisite = {
			focus = SOV_OKB
		}
		x = 0
		y = 4
		relative_position_id = SOV_Red_Army_Airforce
		completion_reward = {
			add_research_slot = 1
			add_tech_bonus = {
				uses = 1
				bonus = 0.5
				category = nuclear
			}
		}
	}
	focus = {
		id = SOV_A_Bomb
		icon = GFX_GENERIC_ABomb
		cost = 60
		prerequisite = {
			focus = SOV_Closed_Cities
		}
		x = -1
		y = 5
		relative_position_id = SOV_Red_Army_Airforce
		completion_reward = {
			add_tech_bonus = {
				uses = 1
				bonus = 0.5
				category = nuclear
			}
		}
	}
	focus = {
		id = SOV_Red_Rockets
		icon = GFX_SOV_Red_Rockets
		cost = 60
		prerequisite = {
			focus = SOV_Closed_Cities
		}
		x = 1
		y = 5
		relative_position_id = SOV_Red_Army_Airforce
		completion_reward = {
			add_tech_bonus = {
				uses = 1
				bonus = 0.5
				category = rocketry
			}
		}
	}
	focus = {
		id = SOV_Develop_Aeroflot
		icon = GFX_SOV_Aeroflot
		cost = 60
		prerequisite = {
			focus = SOV_Red_Army_Airforce
		}
		x = -2
		y = 1
		relative_position_id = SOV_Red_Army_Airforce
		available = {
			219 = {
				is_owned_and_Controlled_by = SOV
			}
		}
		completion_reward = {
			custom_effect_tooltip = SOV_Develop_Aeroflot_tt
			hidden_effect = {
				load_oob = "SOV_Aeroflot"
			}
		}
	}
	focus = {
		id = SOV_VDV
		icon = GFX_SOV_VDV
		cost = 60
		prerequisite = {
			focus = SOV_Develop_Aeroflot
		}
		x = -2
		y = 2
		relative_position_id = SOV_Red_Army_Airforce
		completion_reward = {
			add_tech_bonus = {
				uses = 1
				bonus = 0.4
				technology = paratroopers
				technology = paratroopers2
				technology = paratroopers3
			}
		}
	}
	focus = {
		id = SOV_OKB
		icon = GFX_SOV_OKBs
		cost = 60
		prerequisite = {
			focus = SOV_Transpolar_Flight
		}
		prerequisite = {
			focus = SOV_VDV
		}
		x = 0
		y = 3
		relative_position_id = SOV_Red_Army_Airforce
		completion_reward = {
			custom_effect_tooltip = available_political_advisor
			show_ideas_tooltip = SOV_AM_Sergey_Korolev
			custom_effect_tooltip = SOV_OKB_tt
		}
	}
	focus = {
		id = SOV_Frontline_Aviation
		icon = GFX_SOV_Sturmovik
		cost = 60
		prerequisite = {
			focus = SOV_OKB
		}
		x = 2
		y = 4
		relative_position_id = SOV_Red_Army_Airforce
		completion_reward = {
			add_tech_bonus = {
				uses = 3
				ahead_reduction = 0.4
				technology = Attacker_1940
				technology = Attacker_1943
				technology = Attacker_1945
			}
		}
	}
	focus = {
		id = SOV_Long_Range_Aviation
		icon = GFX_SOV_Tu4
		cost = 60
		prerequisite = {
			focus = SOV_OKB
		}
		x = -2
		y = 4
		relative_position_id = SOV_Red_Army_Airforce
	}
	focus = {
		id = SOV_Emphasis_on_Heavy_Industry
		icon = GFX_SOV_Sovkhoz_Farms
		cost = 60
		prerequisite = {
			focus = SOV_The_Second_Five_Year_Plan
		}
		mutually_exclusive = {
			focus = SOV_Emphasis_on_Light_Industry
		}
		x = -1
		y = 1
		relative_position_id = SOV_The_Second_Five_Year_Plan
		completion_reward = {
			add_political_power = 50
			219 = {
				add_building_construction = {
					type = industrial_complex
					level = 2
					instant_build = yes
				}
				add_extra_state_shared_building_slots = 2
			}
			195 = {
				add_building_construction = {
					type = industrial_complex
					level = 1
					instant_build = yes
				}
				add_extra_state_shared_building_slots = 1
			}
			202 = {
				add_building_construction = {
					type = industrial_complex
					level = 1
					instant_build = yes
				}
				add_extra_state_shared_building_slots = 1
			}
		}
	}
	focus = {
		id = SOV_Emphasis_on_Light_Industry
		icon = GFX_SOV_Kolkhoz_Farms
		cost = 60
		prerequisite = {
			focus = SOV_The_Second_Five_Year_Plan
		}
		mutually_exclusive = {
			focus = SOV_Emphasis_on_Heavy_Industry
		}
		x = 1
		y = 1
		relative_position_id = SOV_The_Second_Five_Year_Plan
		completion_reward = {
			add_political_power = -50
			set_temp_variable = {
				money_to_gain = 200
			}
			add_money_with_inflation_included_with_tooltip_effect = yes
			set_temp_variable = {
				inflation_to_gain = -0.01
			}
			add_inflation_with_tooltip_effect = yes
			swap_ideas = {
				remove_idea = SOV_Deficient_Economy
				add_idea = SOV_Deficient_Economy_2
			}
		}
	}
	focus = {
		id = SOV_Stakhanovite_Movement
		icon = GFX_SOV_Stakhanovite_Movement
		cost = 60
		available = {
			has_completed_focus = SOV_Propagate_an_Industrial_Ethos
		}
		prerequisite = {
			focus = SOV_Emphasis_on_Heavy_Industry
		}
		x = -2
		y = 2
		relative_position_id = SOV_The_Second_Five_Year_Plan
		completion_reward = {
			add_political_power = -50
			add_timed_idea = {
				idea = SOV_Stakhanovite_Movement
				days = 365
			}
		}
	}
	focus = {
		id = SOV_Pragmatic_Approach_to_Target_Figures
		icon = GFX_SOV_Reverse_Korenizatsiya
		cost = 60
		prerequisite = {
			focus = SOV_Emphasis_on_Heavy_Industry
			focus = SOV_Emphasis_on_Light_Industry
		}
		x = 0
		y = 2
		relative_position_id = SOV_The_Second_Five_Year_Plan
		completion_reward = {
			add_political_power = 50
			swap_ideas = {
				remove_idea = industrializing_economy
				add_idea = planned_economy
			}
		}
	}
	focus = {
		id = SOV_Issue_Compulsory_Government_Loan
		icon = GFX_SOV_Compulsory_Government_Loans
		cost = 60
		prerequisite = {
			focus = SOV_Emphasis_on_Light_Industry
		}
		x = 2
		y = 2
		relative_position_id = SOV_The_Second_Five_Year_Plan
		completion_reward = {
			unlock_decision_category_tooltip = SOV_Soviet_Public_Loans_category
			set_variable = {
				var = SOV_Total_Loans_Taken
				value = 3000
			}
			set_variable = {
				var = SOV_Current_Population_Suspicion
				value = 0
			}
			clamp_variable = {
				var = SOV_Current_Population_Suspicion
				min = 0
				max = 5
			}
			clamp_variable = {
				var = SOV_Total_Loans_Taken
				min = 0
				max = 50000
			}
		}
	}
	focus = {
		id = SOV_The_Second_Baku
		icon = GFX_SOV_Second_Baku
		cost = 60
		prerequisite = {
			focus = SOV_Pragmatic_Approach_to_Target_Figures
		}
		x = 1
		y = 3
		relative_position_id = SOV_The_Second_Five_Year_Plan
		completion_reward = {
			add_resource = {
				type = oil
				amount = 12
				state = 651
			}
		}
	}
	focus = {
		id = SOV_Liquidate_Khutors
		icon = GFX_goal_generic_construct_civ_factory
		cost = 60
		prerequisite = {
			focus = SOV_The_Second_Five_Year_Plan
		}
		x = -5
		y = 1
		relative_position_id = SOV_The_Second_Five_Year_Plan
		completion_reward = {
			add_political_power = 20
			country_event = {
				id = SOV_Second_Year_Plan.1
			}
		}
	}
	focus = {
		id = SOV_Promote_Machine_Tractor_Stations
		icon = GFX_focus_generic_the_giant_wakes
		cost = 60
		available = {
			has_equipment = {
				motorized_equipment > 2999
			}
		}
		prerequisite = {
			focus = SOV_Liquidate_Khutors
		}
		x = -6
		y = 2
		relative_position_id = SOV_The_Second_Five_Year_Plan
		completion_reward = {
			swap_ideas = {
				remove_idea = SOV_Soviet_Collectivization
				add_idea = SOV_Soviet_Collectivization1
			}
			add_equipment_to_stockpile = {
				type = motorized_equipment
				amount = -3000
				producer = SOV
			}
			set_temp_variable = {
				money_to_gain = -300
			}
			add_money_with_inflation_included_with_tooltip_effect = yes
		}
	}
	focus = {
		id = SOV_Establish_Central_Asian_Estates
		icon = GFX_SOV_Russification_Policies
		cost = 60
		prerequisite = {
			focus = SOV_Liquidate_Khutors
		}
		x = -4
		y = 2
		relative_position_id = SOV_The_Second_Five_Year_Plan
		completion_reward = {
			add_stability = -0.05
			589 = {
				add_building_construction = {
					type = industrial_complex
					level = 2
					instant_build = yes
				}
				add_extra_state_shared_building_slots = 2
			}
			1406 = {
				add_building_construction = {
					type = industrial_complex
					level = 2
					instant_build = yes
				}
				add_extra_state_shared_building_slots = 2
			}
			set_temp_variable = {
				money_to_gain = -200
			}
			add_money_with_inflation_included_with_tooltip_effect = yes
		}
	}
	focus = {
		id = SOV_Differentiate_the_Trudodni_System
		icon = GFX_GENERIC_Army
		cost = 60
		prerequisite = {
			focus = SOV_Promote_Machine_Tractor_Stations
		}
		prerequisite = {
			focus = SOV_Establish_Central_Asian_Estates
		}
		x = -5
		y = 3
		relative_position_id = SOV_The_Second_Five_Year_Plan
		completion_reward = {
			add_stability = -0.05
			swap_ideas = {
				remove_idea = SOV_Soviet_Collectivization1
				add_idea = SOV_Soviet_Collectivization2
			}
		}
	}
	focus = {
		id = SOV_Support_Zveno_and_Brigadir_Structrures
		icon = GFX_SOV_Support_Zveno_and_Brigadir_Structrures
		cost = 60
		prerequisite = {
			focus = SOV_Stakhanovite_Movement
		}
		prerequisite = {
			focus = SOV_Establish_Central_Asian_Estates
		}
		x = -3
		y = 3
		relative_position_id = SOV_The_Second_Five_Year_Plan
		completion_reward = {
			swap_ideas = {
				remove_idea = SOV_High_Agricultural_Employment1
				add_idea = SOV_High_Agricultural_Employment2
			}
		}
	}
	focus = {
		id = SOV_Synthetic_Oil_Production
		icon = GFX_goal_generic_oil_refinery
		cost = 60
		prerequisite = {
			focus = SOV_Pragmatic_Approach_to_Target_Figures
		}
		x = -1
		y = 3
		relative_position_id = SOV_The_Second_Five_Year_Plan
		completion_reward = {
			195 = {
				add_building_construction = {
					type = synthetic_refinery
					level = 1
					instant_build = yes
				}
			}
			260 = {
				add_building_construction = {
					type = synthetic_refinery
					level = 1
					instant_build = yes
				}
			}
			248 = {
				add_building_construction = {
					type = synthetic_refinery
					level = 1
					instant_build = yes
				}
			}
		}
	}
	focus = {
		id = SOV_Female_Tractor_Operators_Movement
		icon = GFX_SOV_Female_Tractor_Operators
		cost = 60
		prerequisite = {
			focus = SOV_The_Third_Five_Year_Plan
		}
		x = -4
		y = 1
		relative_position_id = SOV_The_Third_Five_Year_Plan
		completion_reward = {
			news_event = {
				id = SOV_Second_Year_Plan.8
			}
		}
	}
	focus = {
		id = SOV_Improved_Agricultural_Tractors
		icon = GFX_SOV_Gigatomaniac_Agrotowns
		cost = 60
		prerequisite = {
			focus = SOV_Female_Tractor_Operators_Movement
		}
		x = -3
		y = 2
		relative_position_id = SOV_The_Third_Five_Year_Plan
		completion_reward = {
			swap_ideas = {
				remove_idea = SOV_Promote_Kolkoz_farms_1
				add_idea = SOV_Promote_Kolkoz_farms_2
			}
			set_temp_variable = {
				money_to_gain = -200
			}
			add_money_with_inflation_included_with_tooltip_effect = yes
		}
	}
	focus = {
		id = SOV_Invest_into_Sovkhozes
		icon = GFX_focus_generic_rubber
		cost = 60
		available = {
			has_equipment = {
				motorized_equipment > 2999
			}
		}
		prerequisite = {
			focus = SOV_Female_Tractor_Operators_Movement
		}
		x = -5
		y = 2
		relative_position_id = SOV_The_Third_Five_Year_Plan
		completion_reward = {
			add_equipment_to_stockpile = {
				type = motorized_equipment
				amount = -3000
				producer = SOV
			}
			set_temp_variable = {
				money_to_gain = -300
			}
			add_money_with_inflation_included_with_tooltip_effect = yes
			if = {
				limit = {
					has_idea = SOV_High_Agricultural_Employment2
				}
				swap_ideas = {
					remove_idea = SOV_High_Agricultural_Employment2
					add_idea = SOV_High_Agricultural_Employment3
				}
			}
			else_if = {
				limit = {
					has_idea = SOV_High_Agricultural_Employment1
				}
				swap_ideas = {
					remove_idea = SOV_High_Agricultural_Employment1
					add_idea = SOV_High_Agricultural_Employment4
				}
			}
			else_if = {
				limit = {
					has_idea = SOV_High_Agricultural_Employment
				}
				swap_ideas = {
					remove_idea = SOV_High_Agricultural_Employment
					add_idea = SOV_High_Agricultural_Employment5
				}
			}
		}
	}
	focus = {
		id = SOV_Invest_in_VASKhNIL
		icon = GFX_GENERIC_Expand_the_University
		cost = 60
		prerequisite = {
			focus = SOV_Invest_into_Sovkhozes
		}
		prerequisite = {
			focus = SOV_Improved_Agricultural_Tractors
		}
		x = -4
		y = 3
		relative_position_id = SOV_The_Third_Five_Year_Plan
		completion_reward = {
			if = {
				limit = {
					has_idea = SOV_High_Agricultural_Employment
				}
				remove_ideas = SOV_High_Agricultural_Employment
			}
			else_if = {
				limit = {
					has_idea = SOV_High_Agricultural_Employment1
				}
				remove_ideas = SOV_High_Agricultural_Employment1
			}
			else_if = {
				limit = {
					has_idea = SOV_High_Agricultural_Employment2
				}
				remove_ideas = SOV_High_Agricultural_Employment2
			}
			else_if = {
				limit = {
					has_idea = SOV_High_Agricultural_Employment3
				}
				remove_ideas = SOV_High_Agricultural_Employment3
			}
			else_if = {
				limit = {
					has_idea = SOV_High_Agricultural_Employment4
				}
				remove_ideas = SOV_High_Agricultural_Employment4
			}
			else_if = {
				limit = {
					has_idea = SOV_High_Agricultural_Employment5
				}
				remove_ideas = SOV_High_Agricultural_Employment5
			}
			swap_ideas = {
				remove_idea = SOV_Promote_Kolkoz_farms_2
				add_idea = SOV_Promote_Kolkoz_farms_3
			}
			set_temp_variable = {
				money_to_gain = -100
			}
			add_money_with_inflation_included_with_tooltip_effect = yes
		}
	}
	focus = {
		id = SOV_Shadow_Factories
		icon = GFX_GENERIC_Military_Production
		cost = 60
		prerequisite = {
			focus = SOV_The_Third_Five_Year_Plan
		}
		x = -2
		y = 1
		relative_position_id = SOV_The_Third_Five_Year_Plan
		completion_reward = {
			add_political_power = -50
			unlock_decision_category_tooltip = SOV_Evacuation_of_Industry_category
		}
	}
	focus = {
		id = SOV_Tankograd
		icon = GFX_SOV_Tankograd
		cost = 60
		prerequisite = {
			focus = SOV_Shadow_Factories
		}
		x = -2
		y = 3
		relative_position_id = SOV_The_Third_Five_Year_Plan
		completion_reward = {
			572 = {
				add_extra_state_shared_building_slots = 2
				add_building_construction = {
					type = arms_factory
					level = 2
					instant_build = yes
				}
			}
			set_temp_variable = {
				money_to_gain = -200
			}
			add_money_with_inflation_included_with_tooltip_effect = yes
		}
	}
	focus = {
		id = SOV_Fragmentation_of_Industrial_Peoples_Commissariats
		icon = GFX_GENERIC_Abolish_the_Agrarian_Decrees
		cost = 60
		prerequisite = {
			focus = SOV_The_Third_Five_Year_Plan
		}
		x = 0
		y = 1
		relative_position_id = SOV_The_Third_Five_Year_Plan
		completion_reward = {
			add_political_power = 50
			country_event = {
				id = SOV_Second_Year_Plan.9
			}
		}
	}
	focus = {
		id = SOV_Increase_Synthetic_Rubber_Production
		icon = GFX_SOV_Increase_Synthetic_Rubber_Production
		cost = 60
		prerequisite = {
			focus = SOV_Fragmentation_of_Industrial_Peoples_Commissariats
		}
		x = -1
		y = 2
		relative_position_id = SOV_The_Third_Five_Year_Plan
		completion_reward = {
			260 = {
				add_building_construction = {
					type = synthetic_refinery
					level = 1
					instant_build = yes
				}
			}
			249 = {
				add_building_construction = {
					type = synthetic_refinery
					level = 1
					instant_build = yes
				}
			}
			651 = {
				add_building_construction = {
					type = synthetic_refinery
					level = 1
					instant_build = yes
				}
			}
			set_temp_variable = {
				money_to_gain = -300
			}
			add_money_with_inflation_included_with_tooltip_effect = yes
		}
	}
	focus = {
		id = SOV_The_Third_Baku
		icon = GFX_SOV_Third_Baku
		cost = 60
		prerequisite = {
			focus = SOV_Fragmentation_of_Industrial_Peoples_Commissariats
		}
		x = 1
		y = 2
		relative_position_id = SOV_The_Third_Five_Year_Plan
		completion_reward = {
			add_resource = {
				type = oil
				amount = 6
				state = 249
			}
			add_resource = {
				type = oil
				amount = 6
				state = 405
			}
			set_temp_variable = {
				money_to_gain = -300
			}
			add_money_with_inflation_included_with_tooltip_effect = yes
		}
	}
	focus = {
		id = SOV_Ural_Aluminium_Factory
		icon = GFX_GENERIC_Nationalize_Industry
		cost = 60
		prerequisite = {
			focus = SOV_Increase_Synthetic_Rubber_Production
		}
		prerequisite = {
			focus = SOV_The_Third_Baku
		}
		x = 0
		y = 3
		relative_position_id = SOV_The_Third_Five_Year_Plan
		completion_reward = {
			653 = {
				add_extra_state_shared_building_slots = 1
				add_building_construction = {
					type = industrial_complex
					level = 1
					instant_build = yes
				}
			}
			add_resource = {
				type = aluminium
				amount = 15
				state = 653
			}
		}
	}
	focus = {
		id = SOV_First_Stage_of_Baikal_Amur_Mainline
		icon = GFX_GENERIC_Road_Construction
		cost = 60
		prerequisite = {
			focus = SOV_The_Third_Five_Year_Plan
		}
		x = 2
		y = 1
		relative_position_id = SOV_The_Third_Five_Year_Plan
		completion_reward = {
			567 = {
				add_building_construction = {
					type = infrastructure
					level = 2
					instant_build = yes
				}
			}
			566 = {
				add_building_construction = {
					type = infrastructure
					level = 1
					instant_build = yes
				}
			}
			568 = {
				add_building_construction = {
					type = infrastructure
					level = 1
					instant_build = yes
				}
			}
		}
	}
	focus = {
		id = SOV_Komsomolsk_on_Amur
		icon = GFX_GENERIC_Marines
		cost = 60
		prerequisite = {
			focus = SOV_First_Stage_of_Baikal_Amur_Mainline
		}
		x = 2
		y = 3
		relative_position_id = SOV_The_Third_Five_Year_Plan
		completion_reward = {
			560 = {
				add_extra_state_shared_building_slots = 1
				add_building_construction = {
					type = dockyard
					level = 1
					instant_build = yes
				}
				add_building_construction = {
					type = infrastructure
					level = 1
					instant_build = yes
				}
			}
		}
	}
	focus = {
		id = SOV_Tighten_Work_Discipline
		icon = GFX_goal_demand_sudetenland
		cost = 60
		prerequisite = {
			focus = SOV_The_Third_Five_Year_Plan
		}
		x = 4
		y = 1
		relative_position_id = SOV_The_Third_Five_Year_Plan
		completion_reward = {
			add_ideas = SOV_Soviet_Work_Discipline
		}
	}
	focus = {
		id = SOV_Vocational_Training_Reform
		icon = GFX_SOV_Vocational_Training_Refrom
		cost = 60
		prerequisite = {
			focus = SOV_Tighten_Work_Discipline
		}
		x = 3
		y = 2
		relative_position_id = SOV_The_Third_Five_Year_Plan
		completion_reward = {
			add_timed_idea = {
				idea = SOV_Vocational_Training_System
				days = 365
			}
			set_temp_variable = {
				money_to_gain = -200
			}
			add_money_with_inflation_included_with_tooltip_effect = yes
		}
	}
	focus = {
		id = SOV_Introduce_8_hour_Working_Day
		icon = GFX_GENERIC_New_Constitution
		cost = 60
		prerequisite = {
			focus = SOV_Tighten_Work_Discipline
		}
		x = 5
		y = 2
		relative_position_id = SOV_The_Third_Five_Year_Plan
		completion_reward = {
			add_political_power = -50
			swap_ideas = {
				remove_idea = SOV_Soviet_Work_Discipline
				add_idea = SOV_Soviet_Work_Discipline_2
			}
		}
	}
	focus = {
		id = SOV_Criminal_Liability_for_Quality_of_Industrial_Production
		icon = GFX_GENERIC_Forced_Labour
		cost = 60
		prerequisite = {
			focus = SOV_Vocational_Training_Reform
		}
		prerequisite = {
			focus = SOV_Introduce_8_hour_Working_Day
		}
		x = 4
		y = 3
		relative_position_id = SOV_The_Third_Five_Year_Plan
		completion_reward = {
			add_political_power = -50
			add_timed_idea = {
				idea = SOV_Struggle_for_Quality_of_Production
				days = 365
			}
		}
	}
	focus = {
		id = SOV_Mechanized_Steel_Rolling
		icon = GFX_goal_generic_construct_civ_factory
		cost = 60
		prerequisite = {
			focus = SOV_Invest_in_VASKhNIL
		}
		prerequisite = {
			focus = SOV_Tankograd
		}
		prerequisite = {
			focus = SOV_Ural_Aluminium_Factory
		}
		x = -2
		y = 4
		relative_position_id = SOV_The_Third_Five_Year_Plan
		completion_reward = {
			add_tech_bonus = {
				bonus = 0.5
				uses = 1
				category = industry
			}
			swap_ideas = {
				remove_idea = SOV_Promote_Kolkoz_farms_3
				add_idea = SOV_Promote_Kolkoz_farms_4
			}
		}
	}
	focus = {
		id = SOV_Transformation_of_Nature
		icon = GFX_PRC_Fortify_Jiangxi_Soviet
		cost = 60
		prerequisite = {
			focus = SOV_Tankograd
		}
		prerequisite = {
			focus = SOV_Ural_Aluminium_Factory
		}
		prerequisite = {
			focus = SOV_Komsomolsk_on_Amur
		}
		x = 0
		y = 4
		relative_position_id = SOV_The_Third_Five_Year_Plan
		completion_reward = {
			unlock_decision_category_tooltip = SOV_Trasformation_of_Nature_category
			set_variable = {
				var = SOV_Number_of_Completed_Decisions_TN
				value = 0
			}
		}
	}
	focus = {
		id = SOV_Construct_Palace_of_the_Soviets
		icon = GFX_SOV_Palace_of_the_Soviets
		cost = 60
		prerequisite = {
			focus = SOV_Ural_Aluminium_Factory
		}
		prerequisite = {
			focus = SOV_Komsomolsk_on_Amur
		}
		prerequisite = {
			focus = SOV_Criminal_Liability_for_Quality_of_Industrial_Production
		}
		x = 2
		y = 4
		relative_position_id = SOV_The_Third_Five_Year_Plan
		completion_reward = {
		}
	}
	focus = {
		id = SOV_Peaceful_Coexistance
		icon = GFX_GENERIC_Peaceful
		cost = 60
		prerequisite = {
			focus = SOV_The_Litvinov_Doctrine
		}
		x = -2
		y = 5
		relative_position_id = SOV_Maintain_the_Litvinov_Protocol
	}
	focus = {
		id = SOV_The_Enemy_of_my_Enemy
		icon = GFX_goal_molotov_ribbentrop_pact
		cost = 60
		prerequisite = {
			focus = SOV_Molotov_Doctrine
		}
		x = 0
		y = 5
		relative_position_id = SOV_Maintain_the_Litvinov_Protocol
	}
	focus = {
		id = SOV_Introduce_Childcare
		icon = GFX_GENERIC_Anti_Poverty_Campaign
		cost = 60
		prerequisite = {
			focus = SOV_Propagate_an_Industrial_Ethos
		}
		x = 4
		y = 2
		relative_position_id = SOV_The_Second_Five_Year_Plan
		completion_reward = {
			set_temp_variable = {
				money_to_gain = -200
			}
			add_money_with_inflation_included_with_tooltip_effect = yes
			country_event = {
				id = SOV_Second_Year_Plan.4
			}
		}
	}
	focus = {
		id = SOV_Stalins_Protege
		icon = GFX_SOV_Stalin_Protegee
		cost = 60
		prerequisite = {
			focus = SOV_Form_Mass_NKVD_Troikas
		}
		mutually_exclusive = {
			focus = SOV_The_Beria_Flight
			focus = SOV_Yezhovchina
		}
		relative_position_id = SOV_The_Bloody_Dwarf
		x = -4
		y = 2
		completion_reward = {
		}
	}
	focus = {
		id = SOV_The_Beria_Flight
		icon = GFX_SOV_Beria_Flight
		cost = 60
		prerequisite = {
			focus = SOV_NKVD_Order_N_00447
		}
		mutually_exclusive = {
			focus = SOV_Stalins_Protege
			focus = SOV_Yezhovchina
		}
		relative_position_id = SOV_The_Bloody_Dwarf
		x = -2
		y = 2
		completion_reward = {
			add_ideas = {
				SOV_MoS_Lavrentiy_Beria
			}
		}
	}
	focus = {
		id = SOV_Yezhovchina
		icon = GFX_SOV_Yezhovchina
		cost = 60
		prerequisite = {
			focus = SOV_Further_Expand_Kulak_and_Ethnic_Operations
		}
		mutually_exclusive = {
			focus = SOV_Stalins_Protege
			focus = SOV_The_Beria_Flight
		}
		relative_position_id = SOV_The_Bloody_Dwarf
		x = 0
		y = 2
	}
	focus = {
		id = SOV_Arrest_Political_Enemies
		icon = GFX_SOV_Mass_Arrest_Political_Enemies
		cost = 60
		prerequisite = {
			focus = SOV_The_Stalin_Constitution
		}
		relative_position_id = SOV_The_Stalin_Constitution
		x = 1
		y = 1
		available = {
			date > 1937.1.1
		}
	}
	focus = {
		id = SOV_Socialism_Achieved
		icon = GFX_SOV_Constitution
		cost = 60
		prerequisite = {
			focus = SOV_1937_Constitutional_Elections
		}
		relative_position_id = SOV_1937_Constitutional_Elections
		completion_reward = {
			add_timed_idea = {
				idea = SOV_Socialism_Achieved
				days = 120
			}
		}
		x = 0
		y = 1
	}
	focus = {
		id = SOV_XVIII_Congress
		icon = GFX_SOV_Soviet_Democracy
		cost = 60
		prerequisite = {
			focus = SOV_Socialism_Achieved
		}
		prerequisite = {
			focus = SOV_Stalins_Protege
			focus = SOV_The_Beria_Flight
			focus = SOV_Yezhovchina
		}
		prerequisite = {
			focus = SOV_NKVD_Internal_Troops
		}
		relative_position_id = SOV_1937_Constitutional_Elections
		x = 3
		y = 2
		available = {
			always = no
		}
	}
	focus = {
		id = SOV_Give_Road_to_Young_Generation
		icon = GFX_SOV_Soviet_Democracy
		cost = 60
		prerequisite = {
			focus = SOV_XVIII_Congress
		}
		mutually_exclusive = {
			focus = SOV_Rely_on_Old_Cadres
		}
		relative_position_id = SOV_XVIII_Congress
		x = -1
		y = 1
	}
	focus = {
		id = SOV_Ascension_of_Zhdanov
		icon = GFX_SOV_Soviet_Democracy
		cost = 60
		prerequisite = {
			focus = SOV_Give_Road_to_Young_Generation
		}
		relative_position_id = SOV_Give_Road_to_Young_Generation
		x = -1
		y = 1
	}
	focus = {
		id = SOV_Concentrate_the_Party_and_Executive_Power
		icon = GFX_SOV_Soviet_Democracy
		cost = 60
		prerequisite = {
			focus = SOV_Ascension_of_Zhdanov
			focus = SOV_The_Fivesome_of_Leadership
			focus = SOV_Spare_the_Aviation_Industry
		}
		relative_position_id = SOV_Ascension_of_Zhdanov
		x = -1
		y = 1
	}
	focus = {
		id = SOV_Unfinished_Business
		icon = GFX_SOV_State_Defense_Committee
		cost = 60
		prerequisite = {
			focus = SOV_Concentrate_the_Party_and_Executive_Power
		}
		prerequisite = {
			focus = SOV_Streamline_the_Work_of_the_Government
		}
		prerequisite = {
			focus = SOV_The_Voznesensky_Appointment
		}
		prerequisite = {
			focus = SOV_Form_the_Bureau_of_Sovnarkom
		}
		relative_position_id = SOV_Concentrate_the_Party_and_Executive_Power
		completion_reward = {
		}
		x = 2
		y = 1
	}
	focus = {
		id = SOV_Our_Cause_is_Just
		icon = GFX_SOV_SMERSH
		cost = 60
		x = 1
		y = 2
		available = {
			any_country = {
				has_war_with = SOV
				is_major = yes
			}
		}
		prerequisite = {
			focus = SOV_Unfinished_Business
			focus = SOV_State_Defense_Committee
		}
		relative_position_id = SOV_Unfinished_Business
		completion_reward = {
			# remove_ideas = trotskyite_plot_purged
		}
	}
	focus = {
		id = SOV_State_Defense_Committee
		icon = GFX_SOV_State_Defense_Committee
		cost = 60
		prerequisite = {
			focus = SOV_Concentrate_the_Party_and_Executive_Power
		}
		prerequisite = {
			focus = SOV_Streamline_the_Work_of_the_Government
		}
		prerequisite = {
			focus = SOV_The_Voznesensky_Appointment
		}
		prerequisite = {
			focus = SOV_Form_the_Bureau_of_Sovnarkom
		}
		relative_position_id = SOV_Concentrate_the_Party_and_Executive_Power
		completion_reward = {
		}
		x = 4
		y = 1
	}
	focus = {
		id = SOV_Rely_on_Old_Cadres
		icon = GFX_SOV_Soviet_Democracy
		cost = 60
		prerequisite = {
			focus = SOV_XVIII_Congress
		}
		mutually_exclusive = {
			focus = SOV_Give_Road_to_Young_Generation
		}
		relative_position_id = SOV_XVIII_Congress
		x = 1
		y = 1
	}
	focus = {
		id = SOV_The_Fivesome_of_Leadership
		icon = GFX_SOV_Soviet_Democracy
		cost = 60
		prerequisite = {
			focus = SOV_Give_Road_to_Young_Generation
			focus = SOV_Rely_on_Old_Cadres
		}
		relative_position_id = SOV_Give_Road_to_Young_Generation
		x = 1
		y = 1
	}
	focus = {
		id = SOV_Spare_the_Aviation_Industry
		icon = GFX_SOV_Soviet_Democracy
		cost = 60
		mutually_exclusive = {
			focus = SOV_Repression_in_Aviation_Industry
		}
		prerequisite = {
			focus = SOV_Rely_on_Old_Cadres
		}
		relative_position_id = SOV_Give_Road_to_Young_Generation
		x = 3
		y = 1
	}
	focus = {
		id = SOV_Streamline_the_Work_of_the_Government
		icon = GFX_SOV_Soviet_Democracy
		cost = 60
		prerequisite = {
			focus = SOV_Ascension_of_Zhdanov
			focus = SOV_The_Fivesome_of_Leadership
			focus = SOV_Spare_the_Aviation_Industry
		}
		relative_position_id = SOV_Ascension_of_Zhdanov
		x = 1
		y = 1
	}
	focus = {
		id = SOV_The_Voznesensky_Appointment
		icon = GFX_SOV_Soviet_Democracy
		cost = 60
		prerequisite = {
			focus = SOV_Ascension_of_Zhdanov
			focus = SOV_The_Fivesome_of_Leadership
			focus = SOV_Spare_the_Aviation_Industry
		}
		relative_position_id = SOV_Ascension_of_Zhdanov
		x = 3
		y = 1
	}
	focus = {
		id = SOV_Form_the_Bureau_of_Sovnarkom
		icon = GFX_SOV_Soviet_Democracy
		cost = 60
		prerequisite = {
			focus = SOV_Ascension_of_Zhdanov
			focus = SOV_The_Fivesome_of_Leadership
			focus = SOV_Spare_the_Aviation_Industry
		}
		relative_position_id = SOV_Ascension_of_Zhdanov
		x = 5
		y = 1
	}
	focus = {
		id = SOV_Zhdanovs_Party_Supremacy
		icon = GFX_SOV_The_Triumph_of_Zhdanov_Doctrine
		cost = 60
		mutually_exclusive = {
			focus = SOV_Malenkovs_Pragmatic_Faction
		}
		prerequisite = {
			focus = SOV_Unfinished_Business
		}
		relative_position_id = SOV_Unfinished_Business
		x = -1
		y = 1
	}
	focus = {
		id = SOV_Malenkovs_Pragmatic_Faction
		icon = GFX_SOV_Malenkovs_Pragmatic_Faction
		cost = 60
		mutually_exclusive = {
			focus = SOV_Zhdanovs_Party_Supremacy
		}
		prerequisite = {
			focus = SOV_State_Defense_Committee
		}
		relative_position_id = SOV_State_Defense_Committee
		x = 1
		y = 1
	}
	focus = {
		id = SOV_Triumph_of_Zhdanovchina
		icon = GFX_SOV_The_Triumph_of_Zhdanov_Doctrine
		cost = 60
		prerequisite = {
			focus = SOV_Zhdanovs_Party_Supremacy
		}
		x = 0
		y = 1
		relative_position_id = SOV_Zhdanovs_Party_Supremacy
		available = {
			has_war = no
		}
		completion_reward = {
			add_political_power = 125
			add_ideas = SOV_Zhdanov_Doctrine
		}
	}
	focus = {
		id = SOV_Socialist_Science_The_Peoples_Vanguard
		icon = GFX_SOV_Socialist_Science
		cost = 60
		prerequisite = {
			focus = SOV_Malenkovs_Pragmatic_Faction
		}
		relative_position_id = SOV_Malenkovs_Pragmatic_Faction
		x = 0
		y = 1
	}
}
