
state={
	id=1024
	name="STATE_1024"

	history={
		owner = FRA
		buildings = {
			infrastructure = 5
			industrial_complex = 1

		}
		add_core_of = FRA
		1941.6.22 = {
			owner = VIC
			controller = VIC
			add_core_of = VIC

		}
		1943.7.26 = {
			owner = FRA
			controller = GER

		}
		1945.1.1 = {
			owner = FRA
			controller = FRA

		}
		1946.1.1 = {
			remove_core_of = VIC

		}

	}

	provinces={
		817 3650 6668 
	}
	manpower=225001
	buildings_max_level_factor=1.000
	state_category=town
}
