state={
	id=1076
	name="STATE_1076"
	
	history={
		owner = SAU
		buildings = {
			infrastructure = 2

		}
		add_core_of = SAU

	}
	
	provinces={
		13568 
	}
	manpower=300516
	buildings_max_level_factor=1.000
	state_category=enclave
}
