state={
	id=1112
	name="STATE_1112"
	
	history={
		owner = GRE
		victory_points = {
			3980 1
		}
		buildings = {
			infrastructure = 3

		}
		add_core_of = GRE
		1941.6.22 = {
			controller = ITA

		}
		1944.6.20 = {
			controller = GER
			
		}
		1945.1.1 = {
			controller = GRE

		}

	}
	
	provinces={
		841 3980 13644 
	}
	manpower=283689
	buildings_max_level_factor=1.000
	state_category=rural
}
