state={
	id=1136
	name="STATE_1136"
	
	history={
		owner = FIN
		victory_points = {
			3083 2
		}
		buildings = {
			infrastructure = 5
			industrial_complex = 1
			dockyard = 1
			3083 = {
				naval_base = 3
				coastal_bunker = 1

			}

		}
		add_core_of = FIN

	}
	
	provinces={
		3083 6066 9094 9194 11172 13102 
	}
	manpower=478582
	buildings_max_level_factor=1.000
	state_category=town
}
