
state={
	id=1149
	name="STATE_1149"

	history={
		owner = ENG
		victory_points = {
			13687 1
		}
		buildings = {
			infrastructure = 2
			13687 = {
				naval_base = 1

			}

		}
		add_core_of = JAM
		1972.1.1 = {
			remove_core_of = JAM

		}
	}

	provinces={
		9047 13687 
	}
	manpower=5876
	buildings_max_level_factor=1.000
	state_category=tiny_island
}
