state={
	id=1153
	name="STATE_1153"
	
	history={
		owner = HOL
		victory_points = {
			13696 1
		}
		buildings = {
			infrastructure = 3
			13696 = {
				naval_base = 1

			}

		}
		add_core_of = SEU

	}
	
	provinces={
		13696 
	}
	manpower=3138
	buildings_max_level_factor=1.000
	state_category=small_island
}
