state={
	id=1155
	name="STATE_1155"
	
	history={
		owner = COL
		buildings = {
			infrastructure = 1
			13693 = {
				naval_base = 1

			}

		}
		add_core_of = COL

	}
	
	provinces={
		13693 
	}
	manpower=67912
	buildings_max_level_factor=1.000
	state_category=tiny_island
}
