state={
	id=1180
	name="STATE_1180"
	
	history={
		owner = SPR
		victory_points = {
			8244 2
		}
		buildings = {
			infrastructure = 2
			8244 = {
				naval_base = 1

			}

		}
		add_core_of = EQG
		1939.9.1 = {
			owner = SPA

		}

	}
	
	provinces={
		8244 
	}
	manpower=230282
	buildings_max_level_factor=1.000
	state_category=rural
}
