state={
	id=1182
	name="STATE_1182"
	
	history={
		owner = GER
		victory_points = {
			11366 2 
		}
		buildings = {
			infrastructure = 4
			dockyard = 1

		}
		add_core_of = GER
		1946.1.1 = {
			owner = ENG
			controller = ENG

		}
		1950.1.1 = {
			owner = FRG
			add_core_of = FRG
			add_core_of = DDR
			remove_core_of = GER
		}

	}
	
	provinces={
		317 11366 13263 13764 
	}
	manpower=194911
	buildings_max_level_factor=1.000
	state_category=rural
}
