state={
	id=1222
	name="STATE_1222"

	history={
		owner = SPR
		victory_points = {
			11688 2
		}
		buildings = {
			infrastructure = 4
			11688 = {
				naval_base = 1

			}

		}
		add_core_of = SPR
		1939.9.1 = {
			owner = SPA
			add_core_of = SPA
			remove_core_of = SPR

		}

	}

	provinces={
		738 9703 11688 
	}
	manpower=580229
	buildings_max_level_factor=1.000
	state_category=town
}
