state={
	id=1223
	name="STATE_1223"

	history={
		owner = BHU
		victory_points = {
			8010 1
		}
		buildings = {
			infrastructure = 1

		}
		add_core_of = BHU

	}

	provinces={
		8010 13975 13976 
	}
	manpower=138736
	buildings_max_level_factor=1.000
	state_category=wasteland
}
