state={
	id=1258
	name="STATE_1258"

	history={
		owner = ZNB
		victory_points = {
			14104 2
		}
		buildings = {
			infrastructure = 3
			14104 = {
				naval_base = 1

			}

		}
		add_core_of = ZNB
		1972.1.1 = {
			owner = TZN
			add_core_of = TZN

		}

	}

	provinces={
		14104 14107 
	}
	manpower=300000
	buildings_max_level_factor=1.000
	state_category=small_island
}
