
state={
	id=127
	name="STATE_127"

	history={
		owner = ENG
		victory_points = {
			3501 15
		}
		victory_points = {
			6489 10 
		}
		victory_points = {
			9458 3
		}
		buildings = {
			infrastructure = 8
			arms_factory = 1
			industrial_complex = 3
			dockyard = 4
			anti_air_building = 2
			radar_station = 0
			air_base = 10
			3501 = {
				naval_base = 6
				coastal_bunker = 3

			}
			6489 = {
				naval_base = 10

			}

		}
		add_core_of = ENG
		1939.1.1 = {
			buildings = {
				dockyard = 3
				industrial_complex = 2

			}

		}

	}

	provinces={
		507 3501 6103 6221 6489 9239 9458 11446 13070 
	}
	manpower=6089524
	buildings_max_level_factor=1.000
	state_category=large_city
}
