
state={
	id=1291
	name="STATE_1291"

	history={
		owner = DEI
		victory_points = {
			7413 2
		}
		buildings = {
			infrastructure = 3
			7413 = {
				naval_base = 1

			}

		}
		add_core_of = INS
		1942.11.22 = {
			controller = JAP

		}
		1946.1.1 = {
			controller = DEI

		}

	}

	provinces={
		1419 1437 7369 7413 10141 10342 
	}
	manpower=1235700
	buildings_max_level_factor=1.000
	state_category=pastoral
}
