state={
	id=1306
	name="STATE_1306"

	history={
		owner = NZL
		buildings = {
			infrastructure = 2
			14278 = {
				naval_base = 1

			}

		}
		add_core_of = NZL

	}

	provinces={
		14278 
	}
	manpower=663
	buildings_max_level_factor=1.000
	state_category=tiny_island
}
