state={
	id=1314
	name="STATE_1314"

	history={
		owner = USA
		buildings = {
			infrastructure = 1
			14289 = {
				naval_base = 1

			}
		}

	}

	provinces={
		14289 
	}
	manpower=1
	buildings_max_level_factor=1.000
	state_category=tiny_island
}
