state={
	id=1315
	name="STATE_1315"

	history={
		owner = USA
		buildings = {
			infrastructure = 1
			13048 = {
				naval_base = 1

			}
		}

	}

	provinces={
		13048 
	}
	manpower=1
	buildings_max_level_factor=1.000
	state_category=tiny_island
}
