state={
	id=1349
	name="STATE_1349"

	history={
		owner = POR
		victory_points = {
		    8219 1
		}
		victory_points = {
		    14363 1
		}
		buildings = {
			infrastructure = 2

		}
		add_core_of = ANG
		1980.1.1 = {
			owner = ANG

		}

	}

	provinces={
		8054 8219 8248 14363 14365 
	}
	manpower=443386
	buildings_max_level_factor=1.000
	state_category=rural
}
