state={
	id=1353
	name="STATE_1353"

	history={
		owner = SOV
		victory_points = {
			9649 2
		}
		buildings = {
			infrastructure = 3

		}
		add_core_of = SOV
		add_core_of = KRC
		1942.11.22 = {
			controller = GER

		}
		1943.7.26 = {
			controller = SOV

		}

	}

	provinces={
		714 6692 9649 11664 
	}
	manpower=477859
	buildings_max_level_factor=1.000
	state_category=rural
}
