state={
	id=1369
	name="STATE_1369"

	history={
		owner = FRA
		victory_points = {
			14413 1
		}
		buildings = {
			infrastructure = 2

		}
		add_core_of = RAJ
		1953.3.7 = {
			owner = RAJ
			set_state_name = STATE_1369_2
			set_province_name = { id = 14413 name = VICTORY_POINTS_14413_2 }

		}

	}

	provinces={
		14413 
	}
	manpower=166867
	buildings_max_level_factor=1.000
	state_category=enclave
}
