
state={
	id=138
	name="STATE_138"

	history={
		owner = SWE
		victory_points = {
			9279 5 
		}
		victory_points = {
			6345 2 
		}
		victory_points = {
			11215 1 
		}
		victory_points = {
			6412 1 
		}
		victory_points = {
			14406 1
		}
		buildings = {
			infrastructure = 5
			industrial_complex = 1
			dockyard = 1
			11215 = {
				naval_base = 5
				coastal_bunker = 3

			}
			9279 = {
				naval_base = 5
				coastal_bunker = 1

			}

		}
		add_core_of = SWE
		add_core_of = SCA

	}

	provinces={
		3307 6120 6345 6412 9279 9300 9362 11160 11215 11327 11376 14406 
	}
	manpower=1047701
	buildings_max_level_factor=1.000
	state_category=city
}
