state={
	id=1387
	name="STATE_1387"

	history={
		owner = BRA
		buildings = {
			infrastructure = 2

		}
		add_core_of = BRA
		1972.1.1 = {
			add_victory_points = {
				province = 14488
				value = 10
			}
		}

	}

	provinces={
		14488 
	}
	manpower=51403
	buildings_max_level_factor=1.000
	state_category=enclave
}
