state={
	id=1417
	name="STATE_1417"

	history={
		owner = JOR
		buildings = {
			infrastructure = 1

		}
		add_core_of = JOR
		1972.1.1 = {
			owner = SAU
			add_core_of = SAU
			remove_core_of = JOR

		}

	}

	provinces={
		14588 
	}
	manpower=13
	buildings_max_level_factor=1.000
	state_category=wasteland
}
