state={
	id=1419
	name="STATE_1419"

	history={
		owner = FRA
		victory_points = {
			1056 2 
		}
		buildings = {
			infrastructure = 3

		}
		add_core_of = SYR
		1950.1.1 = {
			owner = SYR

		}
		1960.1.1 = {
			owner = EGY

		}
		1972.1.1 = {
			owner = SYR

		}

	}

	provinces={
		1056 1072 14581 
	}
	manpower=644445
	buildings_max_level_factor=1.000
	state_category=pastoral
}
