state={
	id=1432
	name="STATE_1432"

	history={
		owner = ETH
		buildings = {
			infrastructure = 2

		}
		add_core_of = ETH
		1939.9.1 = {
			owner = ITA

		}
		1942.11.22 = {
			owner = ETH

		}

	}

	provinces={
		13528 14610 
	}
	manpower=391467
	buildings_max_level_factor=1.000
	state_category=wasteland
}
