state={
	id=1445
	name="STATE_1445"

	history={
		owner = ARG
		victory_points = {
			12306 2
		}
		buildings = {
			infrastructure = 3

		}
		add_core_of = ARG

	}

	provinces={
		2199 8192 12306 14638 
	}
	manpower=551266
	buildings_max_level_factor=1.000
	state_category=rural
}
