state={
	id=1465
	name="STATE_1465"

	history={
		owner = ARG
		victory_points = {
			14698 2
		}
		buildings = {
			infrastructure = 3

		}
		add_core_of = ARG

	}

	provinces={
		2106 5213 10986 14697 14698 14699 14701 
	}
	manpower=1055259
	buildings_max_level_factor=1.000
	state_category=rural
}
