state={
	id=1468
	name="STATE_1468"
	resources={
		tungsten=35.000
		steel=6.000
	}

	history={
		owner = ARG
		victory_points = {
			12942 5
		}
		victory_points = {
			14712 2
		}
		victory_points = {
			10985 1
		}
		buildings = {
			infrastructure = 3
			industrial_complex = 2

		}
		add_core_of = ARG

	}

	provinces={
		5184 8208 10975 10985 12942 14712 14713 14715 14720 
	}
	manpower=704241
	buildings_max_level_factor=1.000
	state_category=town
}
