state={
	id=1475
	name="STATE_1475"

	history={
		owner = SOV
		buildings = {
			infrastructure = 1

		}
		add_core_of = SOV
		add_core_of = GEO
		add_core_of = ABK
		2000.1.1 = {
			owner = GEO
			remove_core_of = SOV

		}

	}

	provinces={
		672 
	}
	manpower=2000
	buildings_max_level_factor=1.000
	state_category=wasteland
}
