state={
	id=1489
	name="STATE_1489"

	history={
		owner = POL
		victory_points = {
			402 1
		}
		buildings = {
			infrastructure = 5

		}
		add_core_of = POL
		1940.5.10 = {
			owner = GGP

		}
		1945.1.1 = {
			controller = SOV

		}
		1946.1.1 = {
			owner = POL
			controller = POL

		}

	}

	provinces={
		402 524 12562 
	}
	manpower=175000
	buildings_max_level_factor=1.000
	state_category=rural
}
