state={
	id=1491
	name="STATE_1491"

	history={
		owner = SOV
		victory_points = {
			324 2
		}
		buildings = {
			infrastructure = 4

		}
		add_core_of = SOV

	}

	provinces={
		324 345 376 3197 3269 3334 3371 6329 6343 6391 9276 9344 11262 11309 
	}
	manpower=805056
	buildings_max_level_factor=1.000
	state_category=rural
}
