state={
	id=1522
	name="STATE_1522"

	history={
		owner = SPR
		victory_points = {
			11884 2 
		}
		buildings = {
			infrastructure = 4

		}
		add_core_of = SPR
		1939.9.1 = {
			owner = SPA
			add_core_of = SPA
			remove_core_of = SPR

		}

	}

	provinces={
		832 942 3835 9903 11807 11812 11884 
	}
	manpower=402837
	buildings_max_level_factor=1.000
	state_category=rural
}
