state={
	id=1523
	name="STATE_1523"

	history={
		owner = GER
		victory_points = {
			14964 5 
		}
		buildings = {
			infrastructure = 7
			industrial_complex = 1

		}
		add_core_of = GER
		1946.1.1 = {
			owner = USA

		}
		1950.1.1 = {
			owner = FRG
			add_core_of = FRG
			add_core_of = DDR
			remove_core_of = GER

		}

	}
	
	provinces={
		14964 
	}
	manpower=567559
	buildings_max_level_factor=1.000
	state_category=town
}
