state={
	id=1528
	name="STATE_1528"

	history={
		owner = RAJ
		victory_points = {
			11995 5
		}
		buildings = {
			infrastructure = 4

		}
		add_core_of = RAJ

	}

	provinces={
		11995 14976 
	}
	manpower=798218
	buildings_max_level_factor=1.000
	state_category=rural
}
