state={
	id=1529
	name="STATE_1529"

	history={
		owner = MEX
		victory_points = {
			12867 2
		}
		buildings = {
			infrastructure = 3

		}
		add_core_of = MEX

	}

	provinces={
		2021 12867 
	}
	manpower=2402598
	buildings_max_level_factor=1.000
	state_category=pastoral
}
