state={
	id=1542
	name="STATE_1542"

	history={
		owner = RAJ
		victory_points = {
			4654 1
		}
		buildings = {
			infrastructure = 2

		}
		add_core_of = RAJ
		add_core_of = BRM
		1939.9.1 = {
			owner = ENG
			remove_core_of = RAJ

		}
		1942.11.22 = {
			controller = JAP

		}
		1946.1.1 = {
			controller = RAJ

		}
		1950.1.1 = {
			owner = BRM
			controller = BRM

		}

	}

	provinces={
		4654 12317 
	}
	manpower=286627
	buildings_max_level_factor=1.000
	state_category=pastoral
}
