state={
	id=1546
	name="STATE_1546"

	history={
		owner = MEX
		victory_points = {
			12835 5
		}
		buildings = {
			infrastructure = 3
			industrial_complex = 1

		}
		add_core_of = MEX

	}

	provinces={
		10769 12721 12835 14998 15001 15002 
	}
	manpower=5784442
	buildings_max_level_factor=1.000
	state_category=rural
}
