state={
	id=1548
	name="STATE_1548"

	history={
		owner = USA
		victory_points = {
			9773 1 
		}
		victory_points = {
			3972 1 
		}
		buildings = {
			infrastructure = 4
			industrial_complex = 1
			
		}
		add_core_of = USA
		add_core_of = TEX

	}

	provinces={
		1915 1998 2055 3875 3972 4955 8064 9773 9908 12301 12728 12848 12875 12893 
	}
	manpower=965478
	buildings_max_level_factor=1.000
	state_category=rural
}
