state={
	id=1568
	name="STATE_1568"

	history={
		owner = COL
		victory_points = {
			2023 5
		}
		victory_points = {
			4969 2
		}
		victory_points = {
			15062 2
		}
		buildings = {
			infrastructure = 4
			industrial_complex = 2

		}
		add_core_of = COL

	}

	provinces={
		2023 4969 15062 15063 15065 
	}
	manpower=2281085
	buildings_max_level_factor=1.000
	state_category=town
}
