state={
	id=1579
	name="STATE_1579"

	history={
		owner = GER
		buildings = {
			infrastructure = 3
			4859 = {
				naval_base = 1

			}

		}
		add_core_of = GER
		1946.1.1 = {
			owner = ENG

		}
		1950.1.1 = {
			owner = FRG
			add_core_of = FRG
			add_core_of = DDR
			remove_core_of = GER
		}

	}

	provinces={
		4859 
	}
	manpower=1306
	buildings_max_level_factor=1.000
	state_category=tiny_island
}
