
state={
	id=1584
	name="STATE_1584"

	history={
		owner = SOV
		add_core_of = SOV

	}

	provinces={
		2877 4006 13060 14809 14810 15236 
	}
	manpower=1
	buildings_max_level_factor=1.000
	state_category=wasteland
	impassable=yes
}
