state={
	id=1587
	name="STATE_1587"

	history={
		owner = IRQ
		buildings = {
			infrastructure = 1

		}
		add_core_of = IRQ

	}

	provinces={
		15113 
	}
	manpower=80544
	buildings_max_level_factor=1.000
	state_category=wasteland
}
