state={
	id=1592
	name="STATE_1592"

	history={
		owner = RAJ
		victory_points = {
			15123 1
		}
		buildings = {
			infrastructure = 1

		}
		add_core_of = RAJ
		add_core_of = BRM
		add_claim_by = CHI
		add_claim_by = PRC
		1939.9.1 = {
			owner = ENG
			remove_core_of = RAJ

		}
		1942.11.22 = {
			controller = JAP

		}
		1946.1.1 = {
			controller = RAJ

		}
		1950.1.1 = {
			owner = BRM
			controller = BRM

		}

	}

	provinces={
		15123 
	}
	manpower=150000
	buildings_max_level_factor=1.000
	state_category=enclave
}
