state={
	id=1610
	name="STATE_1610"

	history={
		owner = RAJ
		victory_points = {
			11261 2
		}
		victory_points = {
			10259 1
		}
		buildings = {
			infrastructure = 3

		}
		1950.1.1 = {
			add_core_of = RAJ

		}
	}

	provinces={
		1359 7411 10259 10799 11261 
	}
	manpower=533587
	buildings_max_level_factor=1.000
	state_category=pastoral
}
