state={
	id=1642
	name="STATE_1642"

	history={
		owner = RAJ
		buildings = {
			infrastructure = 1

		}
		add_core_of = PAK
		add_core_of = RAJ
		add_claim_by = CHI
		add_claim_by = PRC
		1950.1.1 = {
			owner = PAK

		}
		1972.1.1 = {
			remove_claim_by = PRC

		}

	}

	provinces={
		15190 
	}
	manpower=16000
	buildings_max_level_factor=1.000
	state_category=wasteland
}
