state={
	id=1643
	name="STATE_1643"

	history={
		owner = AFG
		buildings = {
			infrastructure = 1

		}
		add_core_of = AFG
		add_claim_by = CHI
		add_claim_by = PRC
		1972.1.1 = {
			remove_claim_by = PRC

		}
	}

	provinces={
		7519 
	}
	manpower=12000
	buildings_max_level_factor=1.000
	state_category=wasteland
}
