state={
	id=1647
	name="STATE_1647"

	history={
		owner = AFG
		victory_points = {
			10781 1
		}
		buildings = {
			infrastructure = 1

		}
		add_core_of = AFG

	}

	provinces={
		10781 
	}
	manpower=24723
	buildings_max_level_factor=1.000
	state_category=wasteland
}
