state={
	id=1648
	name="STATE_1648"

	history={
		owner = USA
		victory_points = {
			9671 25 
		}
		victory_points = {
			3678 5
		}
		victory_points = {
			3677 3
		}
		buildings = {
			infrastructure = 8
			industrial_complex = 3
			dockyard = 1
			air_base = 10
			9671 = {
				naval_base = 3

			}
			3678 = {
				naval_base = 6

			}

		}
		add_core_of = USA
		add_core_of = CAL

	}

	provinces={
		677 3677 3678 9671 
	}
	manpower=874961
	buildings_max_level_factor=1.000
	state_category=large_city
}
