state={
	id=1654
	name="STATE_1654"

	history={
		owner = UAE
		buildings = {
			infrastructure = 1

		}
		add_core_of = UAE
		add_claim_by = SAU
		1980.1.1 = {
			owner = SAU
			add_core_of = SAU
			remove_core_of = UAE

		}

	}

	provinces={
		4521 10591 
	}
	manpower=23
	buildings_max_level_factor=1.000
	state_category=wasteland
}
