
state={
	id=167
	name="STATE_167"

	history={
		owner = SPR
		victory_points = {
			6906 10 
		}
		victory_points = {
			4098 3 
		}
		victory_points = {
			6817 2 
		}
		buildings = {
			infrastructure = 6
			dockyard = 1
			air_base = 3
			6906 = {
				naval_base = 3

			}
			962 = {
				naval_base = 2

			}

		}
		add_core_of = SPR
		1939.9.1 = {
			owner = SPA
			add_core_of = SPA
			remove_core_of = SPR

		}

	}

	provinces={
		962 3799 3873 4098 6817 6856 6906 6959 9889 9896 
	}
	manpower=1979294
	buildings_max_level_factor=1.000
	state_category=large_town
}
