
state={
	id=249
	name="STATE_249"
	resources={
		steel=25.000
	}

	history={
		owner = SOV
		victory_points = {
			6338 10
		}
		buildings = {
			infrastructure = 6
			arms_factory = 1

		}
		add_core_of = SOV
		1939.1.1 = {
			buildings = {
				arms_factory = 2

			}

		}

	}

	provinces={
		228 260 372 404 3251 3365 6338 9244 9336 9354 11243 11292 
	}
	manpower=2761291
	buildings_max_level_factor=1.000
	state_category=town
}
