
state={
	id=267
	name="STATE_267"
	resources={
		tungsten=3.000
	}

	history={
		owner = AFG
		victory_points = {
			10737 10 
		}
		victory_points = {
			14913 1 
		}
		victory_points = {
			14912 1 
		}
		buildings = {
			infrastructure = 2
			arms_factory = 1
			industrial_complex = 2

		}
		add_core_of = AFG

	}

	provinces={
		10737 10826 14912 14913 14915 
	}
	manpower=4637140
	buildings_max_level_factor=1.000
	state_category=town
}
