
state={
	id=304
	name="STATE_304"
	resources={
		oil=1.000
	}

	history={
		owner = PAN
		victory_points = {
			7630 5 
		}
		victory_points = {
			14047 1
		}
		buildings = {
			infrastructure = 4
			arms_factory = 1
			industrial_complex = 1
			air_base = 1
			7630 = {
				naval_base = 4

			}

		}
		add_core_of = PAN

	}

	provinces={
		7630 10482 14045 14047 
	}
	manpower=467459
	buildings_max_level_factor=1.000
	state_category=town
}
