
state={
	id=379
	name="STATE_379"
	resources={
		steel=70.000
		tungsten=32.000
		aluminium=25.000
	}

	history={
		owner = USA
		victory_points = {
			4799 10 
		}
		victory_points = {
			1651 2
		}
		buildings = {
			infrastructure = 4

		}
		add_core_of = USA

	}

	provinces={
		1651 4799 7667 
	}
	manpower=91057
	buildings_max_level_factor=1.000
	state_category=rural
}
