
state={
	id=391
	name="STATE_391"
	resources={
		steel=110.000
	}

	history={
		owner = USA
		victory_points = {
			1866 5 
		}
		victory_points = {
			4664 2 
		}
		buildings = {
			infrastructure = 6
			industrial_complex = 1

		}
		add_core_of = USA
		1936.1.1 = {
			add_manpower = 61000

		}

	}

	provinces={
		1866 1867 4664 4807 6752 7536 9880 10719 12577 12693 
	}
	manpower=2364904
	buildings_max_level_factor=1.000
	state_category=city
}
