
state={
	id=427
	name="STATE_427"
	resources={
		chromium=6.000
	}

	history={
		owner = RAJ
		victory_points = {
			8087 10 
		}
		victory_points = {
			4280 3 
		}
		victory_points = {
			11950 2 
		}
		buildings = {
			infrastructure = 3
			industrial_complex = 2
			air_base = 3

		}
		1950.1.1 = {
			add_core_of = RAJ

		}

	}

	provinces={
		1275 1317 4280 4472 5019 5104 8087 10324 10511 11950 12114 
	}
	manpower=14013400
	buildings_max_level_factor=1.000
	state_category=town
}
