
state={
	id=449
	name="STATE_449"

	history={
		owner = ITA
		victory_points = {
			1130 5 
		}
		buildings = {
			infrastructure = 3
			air_base = 4
			1130 = {
				naval_base = 6

			}

		}
		add_core_of = LBA
		1942.11.22 = {
			owner = ITA
			controller = ENG

		}
		1944.6.20 = {
			owner = ENG
			controller = ENG

		}
		1950.1.1 = {
			owner = LBA
			controller = LBA

		}

	}

	provinces={
		1130 4136 9992 10120 
	}
	manpower=40431
	buildings_max_level_factor=1.000
	state_category=rural
}
