
state={
	id=453
	name="STATE_453"

	history={
		owner = EGY
		victory_points = {
			4161 2
		}
		victory_points = {
			10099 1
		}
		buildings = {
			infrastructure = 2
			4161 = {
				naval_base = 1

			}

		}
		add_core_of = EGY
		1972.1.1 = {
			owner = ISR

		}
		1980.1.1 = {
			owner = EGY

		}

	}

	provinces={
		1112 4161 10002 10099 11922 11979 12073 
	}
	manpower=15359
	buildings_max_level_factor=1.000
	state_category=rural
}
