
state={
	id=478
	name="STATE_478"
	resources={
		tungsten=8.000
	}

	history={
		owner = MEX
		victory_points = {
			13089 10 
		}
		victory_points = {
			12746 2 
		}
		victory_points = {
			15013 2 
		}
		buildings = {
			infrastructure = 3

		}
		add_core_of = MEX

	}

	provinces={
		2051 5052 12746 13089 15013 15014 15015 15016 15017 15019 
	}
	manpower=2470875
	buildings_max_level_factor=1.000
	state_category=town
}
