
state={
	id=491
	name="STATE_491"

	history={
		owner = PRU
		victory_points = {
			14781 1
		}
		buildings = {
			infrastructure = 3

		}
		add_core_of = PRU

	}

	provinces={
		8213 10970 12869 14778 14781 14782 14784 14789 
	}
	manpower=176626
	buildings_max_level_factor=1.000
	state_category=pastoral
}
