
state={
	id=496
	name="STATE_496"
	resources={
		steel=3.000
	}

	history={
		owner = BRA
		victory_points = {
			8148 5
		}
		victory_points = {
			12977 2
		}
		buildings = {
			infrastructure = 3
			industrial_complex = 1

		}
		add_core_of = BRA

	}

	provinces={
		2167 2185 2190 2218 4570 5223 7476 7589 8148 8210 8226 8233 10931 10945 12334 12479 12903 12909 12923 12938 12977 
	}
	manpower=4603600
	buildings_max_level_factor=1.000
	state_category=rural
}
