
state={
	id=541
	name="STATE_541"

	history={
		owner = SAF
		victory_points = {
			4879 10
		}
		victory_points = {
			2207 1 
		}
		victory_points = {
			13451 1 
		}
		buildings = {
			infrastructure = 4

		}
		add_core_of = NAM

	}

	provinces={
		2207 4879 10978 13447 13448 13450 13451 13452 13453 15224 15225 
	}
	manpower=462000
	buildings_max_level_factor=1.000
	state_category=town
}
