
state={
	id=542
	name="STATE_542"
	resources={
		chromium=90.000
	}

	history={
		owner = ENG
		victory_points = {
		    8214 3
		}
		victory_points = {
		    13475 1
		}
		buildings = {
			infrastructure = 3

		}
		add_core_of = BOT
		1972.1.1 = {
			owner = BOT

		}

	}

	provinces={
		8214 10963 12940 12963 13470 13471 13472 13473 13474 13475 13476 13479 13480 
	}
	manpower=127788
	buildings_max_level_factor=1.000
	state_category=rural
}
