
state={
	id=559
	name="STATE_559"

	history={
		owner = ITA
		victory_points = {
			12991 10
		}
		buildings = {
			infrastructure = 3
			air_base = 1
			12991 = {
				naval_base = 2

			}

		}
		add_core_of = SOM
		1942.11.22 = {
			controller = ENG

		}
		1944.6.20 = {
			owner = ENG

		}
		1950.1.1 = {
			owner = ITA
			controller = ITA

		}
		1972.1.1 = {
			owner = SOM
			controller = SOM

		}

	}

	provinces={
		12991 
	}
	manpower=40367
	buildings_max_level_factor=1.000
	state_category=rural
}
