
state={
	id=560
	name="STATE_560"
	resources={
		steel=18.000
	}

	history={
		owner = SOV
		victory_points = {
			12263 2 
		}
		victory_points = {
			12559 1 
		}
		buildings = {
			infrastructure = 3

		}
		add_core_of = SOV

	}

	provinces={
		675 3664 4246 4290 4701 4805 4844 7616 7748 9659 10571 12192 12261 12263 12559 12569 12638 14421 
	}
	manpower=97663
	buildings_max_level_factor=1.000
	state_category=rural
}
