
state={
	id=564
	name="STATE_564"
	resources={
		steel=10.000
		chromium=12.000
		tungsten=10.000
		aluminium=4.000
	}

	history={
		owner = SOV
		victory_points = {
			10528 2
		}
		victory_points = {
			12575 1
		}
		buildings = {
			infrastructure = 4

		}
		add_core_of = SOV

	}

	provinces={
		1761 1762 1810 4716 4766 4835 4837 7736 7751 7816 7835 7854 10528 10543 10658 12506 12575 12644 14483 
	}
	manpower=370893
	buildings_max_level_factor=1.000
	state_category=rural
}
