
state={
	id=571
	name="STATE_571"

	history={
		owner = SOV
		buildings = {
			infrastructure = 4
			arms_factory = 1

		}
		victory_points = {
			10696 3 
		}
		add_core_of = SOV
		1939.1.1 = {
			buildings = {
				arms_factory = 2

			}

		}

	}

	provinces={
		1709 1800 1835 4700 7681 7800 10568 10626 10696 12546 12580 12652 13356 
	}
	manpower=1317157
	buildings_max_level_factor=1.000
	state_category=town
}
