
state={
	id=631
	name="STATE_631"

	history={
		owner = USA
		buildings = {
			infrastructure = 3
			13052 = {
				naval_base = 1

			}

		}

	}

	provinces={
		13052 
	}
	manpower=2159
	buildings_max_level_factor=1.000
	state_category=tiny_island
}
