
state={
	id=659
	name="STATE_659"

	history={
		owner = RAJ
		victory_points = {
			5074 5
		}
		buildings = {
			infrastructure = 3
			air_base = 4
			5074 = {
				naval_base = 3

			}

		}
		add_core_of = YEM
		1939.9.1 = {
			owner = ENG

		}
		1972.1.1 = {
			owner = PRY

		}
		1991.1.1 = {
			owner = YEM

		}

	}

	provinces={
		5074 
	}
	manpower=891505
	buildings_max_level_factor=1.000
	state_category=town
}
