
state={
	id=683
	name="STATE_683"
	resources={
		aluminium=7.000
	}

	history={
		owner = CAN
		buildings = {
			infrastructure = 1

		}
		add_core_of = CAN

	}

	provinces={
		8962 10721 13188 13190 13191 15235 
	}
	manpower=4613
	buildings_max_level_factor=1.000
	state_category=wasteland
	impassable=yes
}
