
state={
	id=684
	name="STATE_684"

	history={
		owner = JAP
		victory_points = {
			13036 1
		}
		buildings = {
			infrastructure = 3
			air_base = 3
			13034 = {
				naval_base = 1

			}
			13036 = {
				naval_base = 1

			}

		}
		add_core_of = MIC
		1946.1.1 = {
			owner = USA

		}
		1991.1.1 = {
			owner = MIC

		}

	}

	provinces={
		13034 13036 
	}
	manpower=42357
	buildings_max_level_factor=1.000
	state_category=small_island
}
