
state={
	id=701
	name="STATE_701"

	history={
		owner = ENG
		victory_points = {
			4989 1
		}
		buildings = {
			infrastructure = 3
			4989 = {
				naval_base = 1

			}

		}
		add_core_of = GAM
		1972.1.1 = {
			owner = GAM

		}

	}

	provinces={
		4989 13629 13633 
	}
	manpower=199520
	buildings_max_level_factor=1.000
	state_category=pastoral
}
