
state={
	id=714
	name="STATE_714"

	history={
		owner = MAN
		victory_points = {
			7832 2 
		}
		victory_points = {
			7848 1 
		}
		buildings = {
			infrastructure = 4

		}
		add_core_of = CHI
		add_core_of = MAN
		add_core_of = PRC
		1946.1.1 = {
			owner = SOV

		}
		1950.1.1 = {
			owner = PRC

		}

	}

	provinces={
		1588 1693 4592 7613 7832 7848 7897 10541 10675 10698 12548 12618 
	}
	manpower=2003191
	buildings_max_level_factor=1.000
	state_category=pastoral
}
