state={
	id=725
	name="STATE_725"
	manpower=5785
	state_category = tiny_island

	history={
		owner = AST
		victory_points = {
			13038 1 
		}
		buildings = {
			infrastructure = 3
			13038 = {
				naval_base = 1
			}
		}
		add_core_of = NAU
		1942.11.22 = {
			controller = JAP

		}
		1946.1.1 = {
			controller = AST

		}
		1972.1.1 = {
			owner = NAU
			controller = NAU

		}
	}
	
	provinces={
		13038 
	}
}
