
state={
	id=727
	name="STATE_727"

	history={
		owner = ENG
		buildings = {
			infrastructure = 1
			14286 = {
				naval_base = 1

			}
			14287 = {
				naval_base = 1

			}
			13049 = {
				naval_base = 1

			}
			13053 = {
				naval_base = 1

			}

		}
		add_core_of = KIR
		add_claim_by = USA
		1980.1.1 = {
			owner = KIR
			remove_claim_by = USA

		}

	}

	provinces={
		13049 13053 14286 14287 
	}
	manpower=5367
	buildings_max_level_factor=1.000
	state_category=small_island
}
