
state={
	id=740
	name="STATE_740"
	manpower = 159612
	
	state_category = rural

	history={
		owner = CAN
		victory_points = {
			7259 1
		}
		buildings = {
			infrastructure = 2
			industrial_complex = 1
		}
		add_core_of = CAN
		add_core_of = CAS
	}

	provinces={
		7259 1214 12259 12272 1420 
	}
	
}
