
state={
	id=742
	name="STATE_742"

	history={
		owner = SOV
		victory_points = {
			1384 4
		}
		victory_points = {
			7224 2
		}
		buildings = {
			infrastructure = 1

		}
		add_core_of = SOV
		add_core_of = TAJ
		1972.1.1 = {
			set_province_name = { id = 1384 name = "Dushanbe" }
			
		}
		2000.1.1 = {
			owner = TAJ
			remove_core_of = SOV
			
		}
	}

	provinces={
		1384 4467 4542 7224 10205 12218 12250 12430 
	}
	manpower=153250
	buildings_max_level_factor=1.000
	state_category=rural
}
