
state={
	id=752
	name="STATE_752"

	history={
		owner = AND
		victory_points = {
			3898 1
		}
		buildings = {
			infrastructure = 4

		}
		add_core_of = AND
		add_core_of = CAT

	}

	provinces={
		3898 
	}
	manpower=13411
	buildings_max_level_factor=1.000
	state_category=enclave
}
