
state={
	id=760
	name="STATE_760"

	history={
		owner = SIK
		victory_points = {
			15194 1
		}
		buildings = {
			infrastructure = 2

		}
		add_core_of = SIK
		add_core_of = CHI
		add_core_of = PRC
		add_core_of = ETS
		1950.1.1 = {
			owner = PRC

		}

	}

	provinces={
		7732 10614 12524 15194 
	}
	manpower=450920
	buildings_max_level_factor=1.000
	state_category=pastoral
}
