
state={
	id=770
	name="STATE_770"

	history={
		owner = YUG
		buildings = {
			infrastructure = 4

		}
		add_core_of = YUG
		add_core_of = SLV
		add_claim_by = HUN
		1941.6.22 = {
			controller = HUN

		}
		1946.1.1 = {
			controller = YUG
			remove_claim_by = HUN

		}
		2000.1.1 = {
			owner = SLV
			controller = SLV

		}

	}

	provinces={
		6672 
	}
	manpower=205120
	buildings_max_level_factor=1.000
	state_category=pastoral
}
