
state={
	id=784
	name="STATE_784"

	history={
		owner = USA
		victory_points = {
			3957 40
		}
		buildings = {
			infrastructure = 8
			industrial_complex = 1

		}
		add_core_of = USA

	}

	provinces={
		3957 
	}
	manpower=486869
	buildings_max_level_factor=1.000
	state_category=rural
}
