
state={
	id=795
	name="STATE_795"

	history={
		owner = FRA
		victory_points = {
			10836 3
		}
		victory_points = {
			12851 2
		}
		victory_points = {
			14006 1
		}
		buildings = {
			infrastructure = 3

		}
		add_core_of = VOL
		1941.6.22 = {
			owner = VIC

		}
		1942.11.22 = {
			owner = FRA

		}
		1972.1.1 = {
			owner = VOL

		}

	}

	provinces={
		2001 7950 10836 12851 14005 14006 14007 14008 14009 
	}
	manpower=3147000
	buildings_max_level_factor=1.000
	state_category=rural
}
