
state={
	id=800
	name="STATE_800"

	history={
		owner = ENG
		victory_points = {
			7900 1
		}
		buildings = {
			infrastructure = 3
		}
		add_core_of = SWZ
		1972.1.1 = {
			owner = SWZ

		}
	}

	provinces={
		7900
	}
	manpower=156700
	buildings_max_level_factor=1.000
	state_category=rural
}
