
state={
	id=802
	name="STATE_802"

	history={
		owner = BEL
		victory_points = {
			3488 2 
		}
		buildings = {
			infrastructure = 4

		}
		add_core_of = BEL
		add_core_of = WLN
		1939.9.1 = {
			add_claim_by = GER

		}
		1940.5.10 = {
			controller = GER

		}
		1946.1.1 = {
			controller = BEL
			remove_claim_by = GER

		}

	}

	provinces={
		3488 
	}
	manpower=60000
	buildings_max_level_factor=1.000
	state_category=pastoral
}
