
state={
	id=807
	name="STATE_807"

	history={
		owner = GER
		victory_points = {
			11640 2 
		}
		victory_points = {
			6934 2 
		}
		victory_points = {
			6542 1
		}
		buildings = {
			infrastructure = 6
			arms_factory = 2

		}
		add_core_of = GER
		add_core_of = BAD
		set_demilitarized_zone = yes
		1936.3.7 = {
			set_demilitarized_zone = no

		}
		1946.1.1 = {
			owner = FRA
			remove_core_of = BAD

		}
		1950.1.1 = {
			owner = FRG
			add_core_of = FRG
			add_core_of = DDR
			remove_core_of = GER

		}

	}

	provinces={
		3679 3692 6542 6712 6934 11640 
	}
	manpower=288741
	buildings_max_level_factor=1.000
	state_category=rural
}
