
state={
	id=820
	name="STATE_820"

	history={
		owner = ENG
		victory_points = {
	        4088 1
		}
		buildings = {
			infrastructure = 3
		}
		add_core_of = PAL
		add_core_of = ISR
		1950.1.1 = {
			owner = EGY
			
		}
		1972.1.1 = {
			owner = ISR
			
		}
        2000.1.1 = {
			owner = PAL
			
		}	
	}

	provinces={
		4088
	}
	manpower=98000
	buildings_max_level_factor=1.000
	state_category=pastoral
}
