
state={
	id=837
	name="STATE_837"

	history={
		owner = ROM
		victory_points = {
			6761 1
		}
		buildings = {
			infrastructure = 3

		}
		add_core_of = ROM
		1945.1.1 = {
			controller = SOV

		}
		1946.1.1 = {
			owner = ROM
			controller = ROM

		}
	}

	provinces={
		6761 11689 
	}
	manpower=153658
	buildings_max_level_factor=1.000
	state_category=pastoral
}
