
state={
	id=841
	name="STATE_841"

	history={
		owner = DEN
		add_core_of = GRL
		1941.6.22 = {
			owner = USA

		}
		1946.1.1 = {
			owner = DEN

		}

	}

	provinces={
		10188 13058 15025 15026 15238 15239 15240 
	}
	manpower=1
	buildings_max_level_factor=1.000
	state_category=wasteland
	impassable=yes
}
