
state={
	id=859
	name="STATE_859"

	history={
		owner = ENG
		victory_points = {
			6196 1 
		}
		victory_points = {
			13734 1
		}
		buildings = {
			infrastructure = 3
			dockyard = 1
			6196 = {
				naval_base = 1

			}
			13734 = {
				naval_base = 8

			}

		}
		add_core_of = ENG
		add_core_of = SCO

	}

	provinces={
		6196 13734 
	}
	manpower=44516
	buildings_max_level_factor=1.000
	state_category=small_island
}
