
state={
	id=873
	name="STATE_873"

	history={
		owner = VIN
		add_core_of = VIN
		victory_points = {
			12133 3
		}
		victory_points = {
			4341 2
		}
		buildings = {
			infrastructure = 3

		}
		1942.11.22 = {
			owner = JAP

		}
		1946.1.1 = {
			owner = VIN
			add_core_of = VIE

		}
		1980.1.1 = {
			owner = VIE
			remove_core_of = VIN

		}

	}

	provinces={
		4223 4284 4341 7303 7331 12133 13293 
	}
	manpower=1090000
	buildings_max_level_factor=1.000
	state_category=town
}
