
state={
	id=896
	name="STATE_896"

	history={
		owner = RAJ
		victory_points = {
			2041 1 
		}
		victory_points = {
			14325 1
		}
		buildings = {
			infrastructure = 2

		}
		add_core_of = PAK
		add_core_of = RAJ
		1950.1.1 = {
			owner = PAK

		}

	}

	provinces={
		2041 2084 10821 14323 14325 
	}
	manpower=770347
	buildings_max_level_factor=1.000
	state_category=pastoral
}
