state={
	id=936
	name="STATE_936"
	
	history={
		owner = FRA
		victory_points = {
			13084 1
		}
		buildings = {
			infrastructure = 3
			13084 = {
				naval_base = 1

			}

		}

	}
	
	provinces={
		13084 
	}
	manpower=2869
	buildings_max_level_factor=1.000
	state_category=tiny_island
}
