state={
	id=949
	name="STATE_949"
	
	history={
		owner = SPR
		victory_points = {
			9945 1
		}
		buildings = {
			infrastructure = 3
			air_base = 3
			9945 = {
				naval_base = 1

			}

		}
		add_core_of = MOR
		add_core_of = RIF
		1939.9.1 = {
			owner = SPA
			add_core_of = SPA
			remove_core_of = SPR

		}

	}
	
	provinces={
		9945 
	}
	manpower=50614
	buildings_max_level_factor=1.000
	state_category=enclave
}
