﻿division_template = {
	name = "Divisione CC.NN."
	division_names_group = ITA_CCNN_01
	
	regiments = {
		SS_infantry = { x = 0 y = 0 } 
		SS_infantry = { x = 0 y = 1 }
		SS_infantry = { x = 1 y = 0 }
		SS_infantry = { x = 1 y = 1 }
		SS_infantry = { x = 2 y = 0 }
		SS_infantry = { x = 2 y = 1 }
		artillery_battalion = { x = 3 y = 0 }
		artillery_battalion = { x = 3 y = 1 }
		artillery_battalion_light = { x = 3 y = 2 }
		artillery_battalion_light = { x = 3 y = 3 }
	}
	support = {
		engineer = { x = 0 y = 0 }
		field_hospital = { x = 0 y = 1 }
		logistics_company = { x = 0 y = 2 }
	}
}

units = {

	##### Milizia Volontaria per la Sicurezza Nazionale (MVSN) #####
	### 
    division = {
		division_name = {
			is_name_ordered = yes
			name_order = 1
		} # Formed 23 April 1935
        location = 923 # Trained in Sora
        division_template = "Divisione CC.NN."
        start_experience_factor = 0.10
    }
    division = {
		division_name = {
			is_name_ordered = yes
			name_order = 2
		} # Formed 10 May 1935
        location = 923 # Trained in the Formia-Scauri-Minturno area
        division_template = "Divisione CC.NN."
        start_experience_factor = 0.10
    }
    division = {
		division_name = {
			is_name_ordered = yes
			name_order = 3
		} # Formed 10 June 1935
        location = 11726 # Massaua
        division_template = "Divisione CC.NN."
        start_experience_factor = 0.10
    }
    division = {
		division_name = {
			is_name_ordered = yes
			name_order = 4
		} # Formed 25 June 1935
        location = 6780 # Torino
        division_template = "Divisione CC.NN."
        start_experience_factor = 0.10
    }
    division = {
		division_name = {
			is_name_ordered = yes
			name_order = 5
		} # Formed 15 July 1935
        location = 9826 # Trained in the Caserta area
        division_template = "Divisione CC.NN."
        start_experience_factor = 0.10
    }
    division = {
		division_name = {
			is_name_ordered = yes
			name_order = 6
		} # Formed 7 August 1935
        location = 819 # Naples
        division_template = "Divisione CC.NN."
        start_experience_factor = 0.08 #This division was made up of WWI veterans, including an entire battalion of amputees.
	}
    division = {
		division_name = {
			is_name_ordered = yes
			name_order = 7
		} # Formed 27 April 1936
        location = 11954 # Benghazi
        division_template = "Divisione CC.NN."
        start_experience_factor = 0.14 # This was actually an extra large division, given greater experience to give them more fighting power without needing a new template for the 1 division.
	}
}