##### Division Templates #####
division_template = {
	name = "Brygada KOP"
	division_names_group = POL_GAR_01
	regiments = {
		garrison = { x = 0 y = 0 }
		garrison = { x = 0 y = 1 }
		garrison = { x = 0 y = 2 }
		garrison = { x = 0 y = 3 }
		cavalry = { x = 1 y = 0 }
		cavalry = { x = 1 y = 1 }
	}	
	support = {
		engineer = { x = 0 y = 0 }
		artillery = { x = 0 y = 1 }
	}
}

division_template = {
	name = "Pułk KOP"
	division_names_group = POL_GAR_01
	regiments = {
		garrison = { x = 0 y = 0 }
		garrison = { x = 0 y = 1 }
		garrison = { x = 0 y = 2 }
		cavalry = { x = 1 y = 0 }
		cavalry = { x = 1 y = 1 }
	}	
}

division_template = {
	name = "Pułk Górski KOP"
	division_names_group = POL_GAR_01
	regiments = {
		mountaineers = { x = 0 y = 0 }
		mountaineers = { x = 0 y = 1 }
		mountaineers = { x = 0 y = 2 }
	}	
}
###### OOB ######
units = {
	division= {			
		name = "Brygada KOP „Grodno”"
		location = 3393  # Grodno
		division_template = "Brygada KOP"
		start_experience_factor = 0.10
		start_equipment_factor = 1
	}			
	division= {			
		name = "Brygada KOP „Polesie”"
		location = 13723  # Łachwa
		division_template = "Brygada KOP"
		start_experience_factor = 0.10
		start_equipment_factor = 1
	}			
	division= {			
		name = "Brygada KOP „Podole”"
		location = 3562  # Czortków
		division_template = "Brygada KOP"
		start_experience_factor = 0.10
		start_equipment_factor = 1
	}			
	division= {			
		name = "Pułk KOP „Głębokie”"
		location = 9341  # Bezezwecz
		division_template = "Pułk KOP"
		start_experience_factor = 0.10
		start_equipment_factor = 1
	}			
	division= {			
		name = "Pułk KOP „Wołożyn”"
		location = 9236  # Wołożyn
		division_template = "Pułk KOP"
		start_experience_factor = 0.10
		start_equipment_factor = 1
	}			
	division= {			
		name = "Pułk KOP „Wilno”"
		location = 3320  # Wilno
		division_template = "Pułk KOP"
		start_experience_factor = 0.10
		start_equipment_factor = 1
	}			
	division= {			
		name = "Pułk KOP „Wilejka”"
		location = 277  # Wilejka
		division_template = "Pułk KOP"
		start_experience_factor = 0.10
		start_equipment_factor = 1
	}			
	division= {			
		name = "Pułk KOP „Snów”"
		location = 9304  # Baranowicze
		division_template = "Pułk KOP"
		start_experience_factor = 0.10
		start_equipment_factor = 1
	}			
	division= {			
		name = "Pułk KOP „Sarny”"
		location = 6520  # Sarny
		division_template = "Pułk KOP"
		start_experience_factor = 0.10
		start_equipment_factor = 1
	}			
	division= {			
		name = "Pułk KOP „Zdołbunów”"
		location = 11543  # Równe
		division_template = "Pułk KOP"
		start_experience_factor = 0.10
		start_equipment_factor = 1
	}			
	division= {			
		name = "1 Pułk KOP „Karpaty”"
		location = 6460  # Stryj
		division_template = "Pułk Górski KOP"
		start_experience_factor = 0.10
		start_equipment_factor = 1
	}			
	division= {			
		name = "2 Pułk KOP „Karpaty”"
		location = 466  # Dukla
		division_template = "Pułk Górski KOP"
		start_experience_factor = 0.10
		start_equipment_factor = .9
	}			
}
