﻿division_template = {
	name = "Viriatos"
	is_locked = yes

	regiments = {
		infantry = { x = 0 y = 0 }
		infantry = { x = 0 y = 1 }
		infantry = { x = 0 y = 2 }
	}
}

units = {
    division = {
		name = "1ros Viriatos"
		location = 6734  # Pontevedra
		division_template = "Viriatos"
	}
	division = {
		name = "2ndos Viriatos"
		location = 6734  # Pontevedra
		division_template = "Viriatos"
	}
	division = {
		name = "3os Viriatos"
		location = 6734  # Pontevedra
		division_template = "Viriatos"
	}
	division = {
		name = "4os Viriatos"
		location = 6734  # Pontevedra
		division_template = "Viriatos"
	}
}